This is BibTeX, Version 0.99d (TeX Live 2017/Debian)
Capacity: max_strings=100000, hash_size=100000, hash_prime=85009
The top-level auxiliary file: ecjsample.aux
The style file: apalike.bst
Database file #1: ecjsample.bib
You've used 30 entries,
            1935 wiz_defined-function locations,
            669 strings with 9703 characters,
and the built_in function-call counts, 11673 in all, are:
= -- 1149
> -- 497
< -- 23
+ -- 175
- -- 165
* -- 922
:= -- 2051
add.period$ -- 94
call.type$ -- 30
change.case$ -- 229
chr.to.int$ -- 30
cite$ -- 30
duplicate$ -- 468
empty$ -- 785
format.name$ -- 205
if$ -- 2309
int.to.chr$ -- 1
int.to.str$ -- 0
missing$ -- 22
newline$ -- 154
num.names$ -- 92
pop$ -- 222
preamble$ -- 1
purify$ -- 231
quote$ -- 0
skip$ -- 351
stack$ -- 0
substring$ -- 698
swap$ -- 76
text.length$ -- 9
text.prefix$ -- 0
top$ -- 0
type$ -- 174
warning$ -- 0
while$ -- 88
width$ -- 0
write$ -- 392
