\relax 
\providecommand\hyper@newdestlabel[2]{}
\providecommand\HyperFirstAtBeginDocument{\AtBeginDocument}
\HyperFirstAtBeginDocument{\ifx\hyper@anchor\@undefined
\global\let\oldcontentsline\contentsline
\gdef\contentsline#1#2#3#4{\oldcontentsline{#1}{#2}{#3}}
\global\let\oldnewlabel\newlabel
\gdef\newlabel#1#2{\newlabelxx{#1}#2}
\gdef\newlabelxx#1#2#3#4#5#6{\oldnewlabel{#1}{{#2}{#3}}}
\AtEndDocument{\ifx\hyper@anchor\@undefined
\let\contentsline\oldcontentsline
\let\newlabel\oldnewlabel
\fi}
\fi}
\global\let\hyper@last\relax 
\gdef\HyperFirstAtBeginDocument#1{#1}
\providecommand\HyField@AuxAddToFields[1]{}
\providecommand\HyField@AuxAddToCoFields[2]{}
\@writefile{toc}{\contentsline {section}{\numberline {1}Introduction}{1}{section.1}}
\citation{Heath:1991:RST:94075}
\citation{Vijayalakshmi2017}
\citation{Chao2017}
\citation{Offutt2001}
\citation{EMT}
\citation{EMT}
\citation{Delgado2017}
\citation{Esper:2018}
\citation{Gut2017}
\citation{GAmera}
\citation{Zhang2005}
\citation{Gut2018}
\citation{Etz10}
\@writefile{toc}{\contentsline {section}{\numberline {2}Background}{3}{section.2}}
\newlabel{background}{{2}{3}{Background}{section.2}{}}
\@writefile{toc}{\contentsline {subsection}{\numberline {2.1}Esper Event Processing Language}{3}{subsection.2.1}}
\newlabel{epl:espertech}{{2.1}{3}{Esper Event Processing Language}{subsection.2.1}{}}
\citation{Esper:2018}
\citation{Milne:2018}
\newlabel{EPLexample}{{1}{4}{Example of an Esper EPL query}{lstlisting.1}{}}
\@writefile{lol}{\contentsline {lstlisting}{\numberline {1}Example of an Esper EPL query}{4}{lstlisting.1}}
\@writefile{toc}{\contentsline {subsection}{\numberline {2.2}Mutation Testing}{4}{subsection.2.2}}
\newlabel{sub:mutationtesting}{{2.2}{4}{Mutation Testing}{subsection.2.2}{}}
\citation{ma2006mujava,agrawal1999design,offutt1996mutation}
\citation{Jia:2011}
\citation{Ahmed:2010}
\citation{Gut2012,Gut2015}
\citation{Gut2017}
\citation{Gut2017}
\citation{EMT}
\citation{EMT}
\citation{Delgado2017}
\citation{EMT}
\citation{GAmera}
\@writefile{toc}{\contentsline {subsection}{\numberline {2.3}Evolutionary Mutation Testing}{5}{subsection.2.3}}
\newlabel{sub:emt}{{2.3}{5}{Evolutionary Mutation Testing}{subsection.2.3}{}}
\@writefile{lof}{\contentsline {figure}{\numberline {1}{\ignorespaces Mutant encoding}}{6}{figure.1}}
\newlabel{fig:mutantcod}{{1}{6}{Mutant encoding}{figure.1}{}}
\newlabel{EPLqueries}{{2}{6}{Original query and mutated query (first appearance of $>$ is changed by $<$)}{lstlisting.2}{}}
\@writefile{lol}{\contentsline {lstlisting}{\numberline {2}Original query and mutated query (first appearance of $>$ is changed by $<$)}{6}{lstlisting.2}}
\@writefile{toc}{\contentsline {subsubsection}{\numberline {2.3.1}Individual encoding}{6}{subsubsection.2.3.1}}
\newlabel{sub:emt-encoding}{{2.3.1}{6}{Individual encoding}{subsubsection.2.3.1}{}}
\@writefile{lot}{\contentsline {table}{\numberline {1}{\ignorespaces Predefined positions of operators and their attributes}}{6}{table.1}}
\newlabel{tab:exampleop}{{1}{6}{Predefined positions of operators and their attributes}{table.1}{}}
\citation{goldberg1989genetic}
\citation{Gut2017}
\@writefile{toc}{\contentsline {subsubsection}{\numberline {2.3.2}Main steps}{7}{subsubsection.2.3.2}}
\newlabel{sec:emt-steps}{{2.3.2}{7}{Main steps}{subsubsection.2.3.2}{}}
\citation{Zhang2005}
\@writefile{lof}{\contentsline {figure}{\numberline {2}{\ignorespaces Crossover operator}}{8}{figure.2}}
\newlabel{fig:crossover}{{2}{8}{Crossover operator}{figure.2}{}}
\@writefile{toc}{\contentsline {section}{\numberline {3}Tempus}{8}{section.3}}
\newlabel{tempus}{{3}{8}{Tempus}{section.3}{}}
\citation{Gut2017}
\@writefile{toc}{\contentsline {subsection}{\numberline {3.1}Guided EMT}{9}{subsection.3.1}}
\@writefile{toc}{\contentsline {section}{\numberline {4}Evaluation}{9}{section.4}}
\newlabel{rquestions}{{4}{9}{Evaluation}{section.4}{}}
\@writefile{toc}{\contentsline {subsection}{\numberline {4.1}Research questions}{9}{subsection.4.1}}
\@writefile{toc}{\contentsline {subsection}{\numberline {4.2}Experimental process}{9}{subsection.4.2}}
\citation{EMT}
\citation{Gut2017}
\citation{EMT}
\citation{EMT}
\citation{EcoIsland}
\citation{Esper:terminal}
\citation{gad2015event}
\citation{EcoIsland}
\citation{ThingSpeak:2017}
\@writefile{lot}{\contentsline {table}{\numberline {2}{\ignorespaces Evolutionary algorithm parameters (Table 11 of\nobreakspace  {}\cite  {EMT})}}{10}{table.2}}
\newlabel{tab:eaparameters}{{2}{10}{Evolutionary algorithm parameters (Table 11 of~\cite {EMT})}{table.2}{}}
\@writefile{toc}{\contentsline {subsection}{\numberline {4.3}Case studies}{10}{subsection.4.3}}
\@writefile{toc}{\contentsline {subsubsection}{\numberline {4.3.1}Ecological Island}{10}{subsubsection.4.3.1}}
\newlabel{sub:island}{{4.3.1}{10}{Ecological Island}{subsubsection.4.3.1}{}}
\@writefile{lot}{\contentsline {table}{\numberline {3}{\ignorespaces Distribution of mutants by program and operator, classified by category (P: patterns, W: windows, R: replacement, I: SQL injection).}}{11}{table.3}}
\newlabel{tabla:mutants}{{3}{11}{Distribution of mutants by program and operator, classified by category (P: patterns, W: windows, R: replacement, I: SQL injection)}{table.3}{}}
\citation{Esper:2018}
\citation{gad2015event}
\@writefile{toc}{\contentsline {subsubsection}{\numberline {4.3.2}Terminal Self-Service}{12}{subsubsection.4.3.2}}
\newlabel{sub:terminal}{{4.3.2}{12}{Terminal Self-Service}{subsubsection.4.3.2}{}}
\@writefile{toc}{\contentsline {subsubsection}{\numberline {4.3.3}DENMEvaP}{12}{subsubsection.4.3.3}}
\newlabel{sub:DENMEvaP}{{4.3.3}{12}{DENMEvaP}{subsubsection.4.3.3}{}}
\citation{Gut2017}
\citation{yang2009survey}
\citation{EsperSingleRow}
\@writefile{toc}{\contentsline {subsubsection}{\numberline {4.3.4}Test suites}{13}{subsubsection.4.3.4}}
\@writefile{toc}{\contentsline {subsection}{\numberline {4.4}Coverage information in \textit  {EMT}\xspace  }{13}{subsection.4.4}}
\newlabel{sub:coverage}{{4.4}{13}{Coverage information in \EMT }{subsection.4.4}{}}
\citation{tuya2007}
\@writefile{toc}{\contentsline {subsubsection}{\numberline {4.4.1}Coverage extension in mutant operators}{14}{subsubsection.4.4.1}}
\newlabel{subsub:coveragemutant}{{4.4.1}{14}{Coverage extension in mutant operators}{subsubsection.4.4.1}{}}
\@writefile{lot}{\contentsline {table}{\numberline {4}{\ignorespaces Total mutants and alive mutants by program and selected operator.}}{14}{table.4}}
\newlabel{tab:coverage}{{4}{14}{Total mutants and alive mutants by program and selected operator}{table.4}{}}
\newlabel{RROmutant}{{3}{14}{Applying RRO mutant operator}{lstlisting.3}{}}
\@writefile{lol}{\contentsline {lstlisting}{\numberline {3}Applying RRO mutant operator}{14}{lstlisting.3}}
\newlabel{RROcoverage}{{4}{14}{Applying coverage to RRO mutant operator}{lstlisting.4}{}}
\@writefile{lol}{\contentsline {lstlisting}{\numberline {4}Applying coverage to RRO mutant operator}{14}{lstlisting.4}}
\newlabel{RLOmutant}{{5}{15}{Applying RLO mutant operator}{lstlisting.5}{}}
\@writefile{lol}{\contentsline {lstlisting}{\numberline {5}Applying RLO mutant operator}{15}{lstlisting.5}}
\newlabel{RLOcoverage}{{6}{15}{Applying coverage to RLO mutant operator}{lstlisting.6}{}}
\@writefile{lol}{\contentsline {lstlisting}{\numberline {6}Applying coverage to RLO mutant operator}{15}{lstlisting.6}}
\newlabel{RNOmutant}{{7}{15}{Applying RNO mutant operator}{lstlisting.7}{}}
\@writefile{lol}{\contentsline {lstlisting}{\numberline {7}Applying RNO mutant operator}{15}{lstlisting.7}}
\newlabel{RNOcoverage}{{8}{15}{Applying coverage to RNO mutant operator}{lstlisting.8}{}}
\@writefile{lol}{\contentsline {lstlisting}{\numberline {8}Applying coverage to RNO mutant operator}{15}{lstlisting.8}}
\@writefile{toc}{\contentsline {subsubsection}{\numberline {4.4.2}Coverage point and \textit  {EMT}\xspace  fitness function}{16}{subsubsection.4.4.2}}
\@writefile{toc}{\contentsline {subsubsection}{\numberline {4.4.3}RQ1}{16}{subsubsection.4.4.3}}
\newlabel{subsub:rq1}{{4.4.3}{16}{RQ1}{subsubsection.4.4.3}{}}
\newlabel{RNOterminal}{{9}{17}{RNO mutations in Terminal}{lstlisting.9}{}}
\@writefile{lol}{\contentsline {lstlisting}{\numberline {9}RNO mutations in Terminal}{17}{lstlisting.9}}
\@writefile{lot}{\contentsline {table}{\numberline {5}{\ignorespaces Alive mutants and mutants with coverage analysis by program and selected operator.}}{17}{table.5}}
\newlabel{tab:coverageapplication}{{5}{17}{Alive mutants and mutants with coverage analysis by program and selected operator}{table.5}{}}
\@writefile{toc}{\contentsline {subsubsection}{\numberline {4.4.4}RQ2}{17}{subsubsection.4.4.4}}
\newlabel{subsub:rq2}{{4.4.4}{17}{RQ2}{subsubsection.4.4.4}{}}
\citation{louis94}
\citation{tuya2007}
\@writefile{toc}{\contentsline {paragraph}{Ecological Island}{18}{section*.1}}
\@writefile{toc}{\contentsline {paragraph}{Terminal Self-Service}{18}{section*.2}}
\@writefile{toc}{\contentsline {paragraph}{DENMEvaP --- BruteForce}{18}{section*.3}}
\@writefile{toc}{\contentsline {paragraph}{DENMEvaP --- SnifferCongestion}{18}{section*.4}}
\@writefile{toc}{\contentsline {paragraph}{Overall results}{18}{section*.5}}
\@writefile{toc}{\contentsline {subsection}{\numberline {4.5}Knowledge base function in \textit  {EMT}\xspace  }{18}{subsection.4.5}}
\newlabel{sub:knowledge}{{4.5}{18}{Knowledge base function in \EMT }{subsection.4.5}{}}
\@writefile{lof}{\contentsline {figure}{\numberline {3}{\ignorespaces Terminal program}}{19}{figure.3}}
\newlabel{fig:terminalXY}{{3}{19}{Terminal program}{figure.3}{}}
\@writefile{lof}{\contentsline {figure}{\numberline {4}{\ignorespaces Ecological island program}}{19}{figure.4}}
\newlabel{fig:islandXY}{{4}{19}{Ecological island program}{figure.4}{}}
\@writefile{lof}{\contentsline {figure}{\numberline {5}{\ignorespaces DENMEvaP - Sniffer Congestion program}}{19}{figure.5}}
\newlabel{fig:sniffercongestionXY}{{5}{19}{DENMEvaP - Sniffer Congestion program}{figure.5}{}}
\@writefile{lof}{\contentsline {figure}{\numberline {6}{\ignorespaces DENMEvaP - Brute Force program}}{20}{figure.6}}
\newlabel{fig:bruteforceXY}{{6}{20}{DENMEvaP - Brute Force program}{figure.6}{}}
\citation{Gut2018}
\citation{Gutierrez2017}
\bibstyle{apalike}
\bibdata{ecjsample}
\bibcite{agrawal1999design}{{1}{1989}{{Agrawal et~al.}}{{}}}
\bibcite{Ahmed:2010}{{2}{2010}{{Ahmed et~al.}}{{}}}
\bibcite{Delgado2017}{{3}{2017}{{{Delgado-P\'{e}rez} et~al.}}{{}}}
\bibcite{GAmera}{{4}{2009}{{Dom\'{i}nguez-Jim\'{e}nez et~al.}}{{}}}
\bibcite{EMT}{{5}{2011}{{{Dom\'{i}nguez-Jim\'{e}nez} et~al.}}{{}}}
\@writefile{toc}{\contentsline {subsubsection}{\numberline {4.5.1}RQ3}{21}{subsubsection.4.5.1}}
\@writefile{toc}{\contentsline {paragraph}{Ecological Island}{21}{section*.6}}
\@writefile{toc}{\contentsline {paragraph}{Terminal Self-Service}{21}{section*.7}}
\@writefile{toc}{\contentsline {paragraph}{DENMEvaP --- BruteForce}{21}{section*.8}}
\@writefile{toc}{\contentsline {paragraph}{DENMEvaP --- SnifferCongestion}{21}{section*.9}}
\@writefile{toc}{\contentsline {paragraph}{Overall results}{21}{section*.10}}
\@writefile{toc}{\contentsline {section}{\numberline {5}Related Work}{21}{section.5}}
\newlabel{relatedwork}{{5}{21}{Related Work}{section.5}{}}
\@writefile{toc}{\contentsline {section}{\numberline {6}Conclusions and Future Work}{21}{section.6}}
\bibcite{Esper:terminal}{{6}{2016}{{EsperTech}}{{}}}
\bibcite{EsperSingleRow}{{7}{2017}{{EsperTech}}{{}}}
\bibcite{Esper:2018}{{8}{2018}{{EsperTech}}{{}}}
\bibcite{Etz10}{{9}{2010}{{Etzion and Niblett}}{{}}}
\bibcite{gad2015event}{{10}{2015}{{Gad}}{{}}}
\bibcite{goldberg1989genetic}{{11}{1989}{{Goldberg}}{{}}}
\bibcite{Gut2017}{{12}{2017}{{Guti{\'e}rrez-Madro{\~n}al}}{{}}}
\bibcite{Gut2015}{{13}{2015}{{Guti{\'e}rrez-Madro{\~n}al et~al.}}{{}}}
\bibcite{Gutierrez2017}{{14}{2017}{{Guti{\'e}rrez-Madro{\~n}al et~al.}}{{}}}
\bibcite{Gut2018}{{15}{2018}{{Guti{\'e}rrez-Madro{\~n}al et~al.}}{{}}}
\bibcite{Gut2012}{{16}{2012}{{Guti{\'e}rrez-Madro{\~n}al et~al.}}{{}}}
\bibcite{Heath:1991:RST:94075}{{17}{1991}{{Heath}}{{}}}
\bibcite{Jia:2011}{{18}{2011}{{Jia and Harman}}{{}}}
\bibcite{Chao2017}{{19}{2017}{{Li et~al.}}{{}}}
\bibcite{louis94}{{20}{1994}{{Louis and Zhao}}{{}}}
\bibcite{ma2006mujava}{{21}{2006}{{Ma et~al.}}{{}}}
\bibcite{Milne:2018}{{22}{2018}{{Milne}}{{}}}
\bibcite{Offutt2001}{{23}{2001}{{Offutt and Untch}}{{}}}
\bibcite{offutt1996mutation}{{24}{1996}{{Offutt et~al.}}{{}}}
\bibcite{EcoIsland}{{25}{2018}{{Rosa-Gallardo et~al.}}{{}}}
\bibcite{ThingSpeak:2017}{{26}{2017}{{ThingSpeak}}{{}}}
\bibcite{tuya2007}{{27}{2007}{{Tuya et~al.}}{{}}}
\bibcite{Vijayalakshmi2017}{{28}{2017}{{Vijayalakshmi and Muruganand}}{{}}}
\bibcite{yang2009survey}{{29}{2009}{{Yang et~al.}}{{}}}
\bibcite{Zhang2005}{{30}{2005}{{Zhang et~al.}}{{}}}
