op0	loc0	attr0	test0
3	1	1	1
3	2	1	1
3	3	1	1
4	1	1	1
4	2	1	1
4	3	1	1
6	1	1	1
6	2	1	1
6	3	1	1
11	1	1	0
11	2	1	1
11	3	1	1
11	4	1	0
11	5	1	0
11	6	1	0
11	7	1	1
13	1	1	1
13	1	2	1
13	1	3	1
13	1	4	1
13	1	5	1
13	1	6	1
13	1	7	1
13	1	8	1
13	1	9	1
13	1	10	1
13	1	11	1
13	1	12	1
13	1	13	1
13	1	14	1
13	1	15	1
13	2	1	1
13	2	2	1
13	2	3	1
13	2	4	1
13	2	5	1
13	2	6	1
13	2	7	1
13	2	8	1
13	2	9	1
13	2	10	1
13	2	11	1
13	2	12	1
13	2	13	1
13	2	14	1
13	2	15	1
13	3	1	1
13	3	2	0
13	3	3	1
13	3	4	0
13	3	5	1
13	3	6	0
13	3	7	0
13	3	8	1
13	3	9	0
13	3	10	1
13	3	11	1
13	3	12	0
13	3	13	1
13	3	14	1
13	3	15	1
14	1	1	0
14	1	2	0
14	1	3	1
14	1	4	1
15	1	1	3
15	1	2	1
15	1	3	3
15	1	4	3
15	1	5	1
15	2	1	1
15	2	2	0
15	2	3	1
15	2	4	1
15	2	5	0
15	3	1	0
15	3	2	0
15	3	3	1
15	3	4	0
15	3	5	3
15	4	1	0
15	4	2	1
15	4	3	0
15	4	4	1
15	4	5	1
15	5	1	1
15	5	2	1
15	5	3	1
15	5	4	0
15	5	5	0
15	6	1	1
15	6	2	1
15	6	3	1
15	6	4	1
15	6	5	1
15	7	1	1
15	7	2	0
15	7	3	1
15	7	4	1
15	7	5	0
15	8	1	1
15	8	2	0
15	8	3	1
15	8	4	1
15	8	5	1
15	9	1	1
15	9	2	0
15	9	3	1
15	9	4	0
15	9	5	1
15	10	1	1
15	10	2	1
15	10	3	0
15	10	4	1
15	10	5	1
15	11	1	1
15	11	2	1
15	11	3	1
15	11	4	1
15	11	5	0
15	12	1	3
15	12	2	1
15	12	3	1
15	12	4	1
15	12	5	1
15	13	1	1
15	13	2	3
15	13	3	3
15	13	4	1
15	13	5	1
15	14	1	1
15	14	2	1
15	14	3	1
15	14	4	1
15	14	5	1
15	15	1	1
15	15	2	3
15	15	3	1
15	15	4	1
15	15	5	1
15	16	1	1
15	16	2	3
15	16	3	1
15	16	4	1
15	16	5	1
15	17	1	0
15	17	2	1
15	17	3	0
15	17	4	1
15	17	5	1
15	18	1	0
15	18	2	0
15	18	3	1
15	18	4	1
15	18	5	1
15	19	1	0
15	19	2	0
15	19	3	1
15	19	4	0
15	19	5	1
15	20	1	1
15	20	2	1
15	20	3	1
15	20	4	0
15	20	5	1
15	21	1	0
15	21	2	1
15	21	3	1
15	21	4	0
15	21	5	1
15	22	1	1
15	22	2	1
15	22	3	1
15	22	4	0
15	22	5	1
15	23	1	1
15	23	2	0
15	23	3	0
15	23	4	0
15	23	5	0
15	24	1	1
15	24	2	1
15	24	3	0
15	24	4	1
15	24	5	1
15	25	1	0
15	25	2	0
15	25	3	1
15	25	4	0
15	25	5	0
15	26	1	1
15	26	2	0
15	26	3	0
15	26	4	0
15	26	5	0
15	27	1	1
15	27	2	1
15	27	3	0
15	27	4	0
15	27	5	1
15	28	1	0
15	28	2	1
15	28	3	1
15	28	4	1
15	28	5	1
15	29	1	1
15	29	2	0
15	29	3	0
15	29	4	1
15	29	5	1
15	30	1	0
15	30	2	1
15	30	3	0
15	30	4	0
15	30	5	0
15	31	1	1
15	31	2	1
15	31	3	1
15	31	4	0
15	31	5	1
15	32	1	0
15	32	2	1
15	32	3	1
15	32	4	0
15	32	5	1
15	33	1	1
15	33	2	0
15	33	3	0
15	33	4	0
15	33	5	1
16	1	1	1
16	1	2	1
16	2	1	0
16	2	2	1
16	3	1	1
16	3	2	0
16	4	1	1
16	4	2	0
16	5	1	1
16	5	2	1
16	6	1	1
16	6	2	0
16	7	1	0
16	7	2	1
16	8	1	1
16	8	2	1
16	9	1	1
16	9	2	1
19	1	1	1
19	1	2	0
19	2	1	1
19	2	2	1
32	1	1	0
32	1	2	0
32	1	3	1
32	1	4	0
32	1	5	0
32	2	1	0
32	2	2	1
32	2	3	1
32	2	4	1
32	2	5	0
32	3	1	1
32	3	2	0
32	3	3	1
32	3	4	0
32	3	5	1
32	4	1	1
32	4	2	0
32	4	3	1
32	4	4	1
32	4	5	1
32	5	1	1
32	5	2	1
32	5	3	0
32	5	4	0
32	5	5	1
32	6	1	1
32	6	2	0
32	6	3	1
32	6	4	1
32	6	5	1
33	1	1	1
33	2	1	1
34	1	1	1
34	2	1	1
