N1 3 1 1	-98.0000
N1 3 2 1	-98.0000
N1 3 3 1	-98.0000
N1 4 1 1	-98.0000
N1 4 2 1	-98.0000
N1 4 3 1	-98.0000
N1 6 1 1	-98.0000
N1 6 2 1	-98.0000
N1 6 3 1	-98.0000
N1 11 1 1	286.000
N1 11 2 1	-98.0000
N1 11 3 1	-98.0000
N1 11 4 1	286.000
N1 11 5 1	286.000
N1 11 6 1	286.000
N1 11 7 1	-98.0000
N1 13 1 1	-98.0000
N1 13 1 2	-98.0000
N1 13 1 3	-98.0000
N1 13 1 4	-98.0000
N1 13 1 5	-98.0000
N1 13 1 6	-98.0000
N1 13 1 7	-98.0000
N1 13 1 8	-98.0000
N1 13 1 9	-98.0000
N1 13 1 10	-98.0000
N1 13 1 11	-98.0000
N1 13 1 12	-98.0000
N1 13 1 13	-98.0000
N1 13 1 14	-98.0000
N1 13 1 15	-98.0000
N1 13 2 1	-98.0000
N1 13 2 2	-98.0000
N1 13 2 3	-98.0000
N1 13 2 4	-98.0000
N1 13 2 5	-98.0000
N1 13 2 6	-98.0000
N1 13 2 7	-98.0000
N1 13 2 8	-98.0000
N1 13 2 9	-98.0000
N1 13 2 10	-98.0000
N1 13 2 11	-98.0000
N1 13 2 12	-98.0000
N1 13 2 13	-98.0000
N1 13 2 14	-98.0000
N1 13 2 15	-98.0000
N1 13 3 1	-98.0000
N1 13 3 2	286.000
N1 13 3 3	-98.0000
N1 13 3 4	286.000
N1 13 3 5	-98.0000
N1 13 3 6	286.000
N1 13 3 7	286.000
N1 13 3 8	-98.0000
N1 13 3 9	286.000
N1 13 3 10	-98.0000
N1 13 3 11	-98.0000
N1 13 3 12	286.000
N1 13 3 13	-98.0000
N1 13 3 14	-98.0000
N1 13 3 15	-98.0000
N1 14 1 1	286.000
N1 14 1 2	286.000
N1 14 1 3	-98.0000
N1 14 1 4	-98.0000
N1 15 1 1	94.0000
N1 15 1 2	-98.0000
N1 15 1 3	94.0000
N1 15 1 4	94.0000
N1 15 1 5	-98.0000
N1 15 2 1	-98.0000
N1 15 2 2	286.000
N1 15 2 3	-98.0000
N1 15 2 4	-98.0000
N1 15 2 5	286.000
N1 15 3 1	286.000
N1 15 3 2	286.000
N1 15 3 3	-98.0000
N1 15 3 4	286.000
N1 15 3 5	94.0000
N1 15 4 1	286.000
N1 15 4 2	-98.0000
N1 15 4 3	286.000
N1 15 4 4	-98.0000
N1 15 4 5	-98.0000
N1 15 5 1	-98.0000
N1 15 5 2	-98.0000
N1 15 5 3	-98.0000
N1 15 5 4	286.000
N1 15 5 5	286.000
N1 15 6 1	-98.0000
N1 15 6 2	-98.0000
N1 15 6 3	-98.0000
N1 15 6 4	-98.0000
N1 15 6 5	-98.0000
N1 15 7 1	-98.0000
N1 15 7 2	286.000
N1 15 7 3	-98.0000
N1 15 7 4	-98.0000
N1 15 7 5	286.000
N1 15 8 1	-98.0000
N1 15 8 2	286.000
N1 15 8 3	-98.0000
N1 15 8 4	-98.0000
N1 15 8 5	-98.0000
N1 15 9 1	-98.0000
N1 15 9 2	286.000
N1 15 9 3	-98.0000
N1 15 9 4	286.000
N1 15 9 5	-98.0000
N1 15 10 1	-98.0000
N1 15 10 2	-98.0000
N1 15 10 3	286.000
N1 15 10 4	-98.0000
N1 15 10 5	-98.0000
N1 15 11 1	-98.0000
N1 15 11 2	-98.0000
N1 15 11 3	-98.0000
N1 15 11 4	-98.0000
N1 15 11 5	286.000
N1 15 12 1	94.0000
N1 15 12 2	-98.0000
N1 15 12 3	-98.0000
N1 15 12 4	-98.0000
N1 15 12 5	-98.0000
N1 15 13 1	-98.0000
N1 15 13 2	94.0000
N1 15 13 3	94.0000
N1 15 13 4	-98.0000
N1 15 13 5	-98.0000
N1 15 14 1	-98.0000
N1 15 14 2	-98.0000
N1 15 14 3	-98.0000
N1 15 14 4	-98.0000
N1 15 14 5	-98.0000
N1 15 15 1	-98.0000
N1 15 15 2	94.0000
N1 15 15 3	-98.0000
N1 15 15 4	-98.0000
N1 15 15 5	-98.0000
N1 15 16 1	-98.0000
N1 15 16 2	94.0000
N1 15 16 3	-98.0000
N1 15 16 4	-98.0000
N1 15 16 5	-98.0000
N1 15 17 1	286.000
N1 15 17 2	-98.0000
N1 15 17 3	286.000
N1 15 17 4	-98.0000
N1 15 17 5	-98.0000
N1 15 18 1	286.000
N1 15 18 2	286.000
N1 15 18 3	-98.0000
N1 15 18 4	-98.0000
N1 15 18 5	-98.0000
N1 15 19 1	286.000
N1 15 19 2	286.000
N1 15 19 3	-98.0000
N1 15 19 4	286.000
N1 15 19 5	-98.0000
N1 15 20 1	-98.0000
N1 15 20 2	-98.0000
N1 15 20 3	-98.0000
N1 15 20 4	286.000
N1 15 20 5	-98.0000
N1 15 21 1	286.000
N1 15 21 2	-98.0000
N1 15 21 3	-98.0000
N1 15 21 4	286.000
N1 15 21 5	-98.0000
N1 15 22 1	-98.0000
N1 15 22 2	-98.0000
N1 15 22 3	-98.0000
N1 15 22 4	286.000
N1 15 22 5	-98.0000
N1 15 23 1	-98.0000
N1 15 23 2	286.000
N1 15 23 3	286.000
N1 15 23 4	286.000
N1 15 23 5	286.000
N1 15 24 1	-98.0000
N1 15 24 2	-98.0000
N1 15 24 3	286.000
N1 15 24 4	-98.0000
N1 15 24 5	-98.0000
N1 15 25 1	286.000
N1 15 25 2	286.000
N1 15 25 3	-98.0000
N1 15 25 4	286.000
N1 15 25 5	286.000
N1 15 26 1	-98.0000
N1 15 26 2	286.000
N1 15 26 3	286.000
N1 15 26 4	286.000
N1 15 26 5	286.000
N1 15 27 1	-98.0000
N1 15 27 2	-98.0000
N1 15 27 3	286.000
N1 15 27 4	286.000
N1 15 27 5	-98.0000
N1 15 28 1	286.000
N1 15 28 2	-98.0000
N1 15 28 3	-98.0000
N1 15 28 4	-98.0000
N1 15 28 5	-98.0000
N1 15 29 1	-98.0000
N1 15 29 2	286.000
N1 15 29 3	286.000
N1 15 29 4	-98.0000
N1 15 29 5	-98.0000
N1 15 30 1	286.000
N1 15 30 2	-98.0000
N1 15 30 3	286.000
N1 15 30 4	286.000
N1 15 30 5	286.000
N1 15 31 1	-98.0000
N1 15 31 2	-98.0000
N1 15 31 3	-98.0000
N1 15 31 4	286.000
N1 15 31 5	-98.0000
N1 15 32 1	286.000
N1 15 32 2	-98.0000
N1 15 32 3	-98.0000
N1 15 32 4	286.000
N1 15 32 5	-98.0000
N1 15 33 1	-98.0000
N1 15 33 2	286.000
N1 15 33 3	286.000
N1 15 33 4	286.000
N1 15 33 5	-98.0000
N1 16 1 1	-98.0000
N1 16 1 2	-98.0000
N1 16 2 1	286.000
N1 16 2 2	-98.0000
N1 16 3 1	-98.0000
N1 16 3 2	286.000
N1 16 4 1	-98.0000
N1 16 4 2	286.000
N1 16 5 1	-98.0000
N1 16 5 2	-98.0000
N1 16 6 1	-98.0000
N1 16 6 2	286.000
N1 16 7 1	286.000
N1 16 7 2	-98.0000
N1 16 8 1	-98.0000
N1 16 8 2	-98.0000
N1 16 9 1	-98.0000
N1 16 9 2	-98.0000
N1 19 1 1	-98.0000
N1 19 1 2	286.000
N1 19 2 1	-98.0000
N1 19 2 2	-98.0000
N1 32 1 1	286.000
N1 32 1 2	286.000
N1 32 1 3	-98.0000
N1 32 1 4	286.000
N1 32 1 5	286.000
N1 32 2 1	286.000
N1 32 2 2	-98.0000
N1 32 2 3	-98.0000
N1 32 2 4	-98.0000
N1 32 2 5	286.000
N1 32 3 1	-98.0000
N1 32 3 2	286.000
N1 32 3 3	-98.0000
N1 32 3 4	286.000
N1 32 3 5	-98.0000
N1 32 4 1	-98.0000
N1 32 4 2	286.000
N1 32 4 3	-98.0000
N1 32 4 4	-98.0000
N1 32 4 5	-98.0000
N1 32 5 1	-98.0000
N1 32 5 2	-98.0000
N1 32 5 3	286.000
N1 32 5 4	286.000
N1 32 5 5	-98.0000
N1 32 6 1	-98.0000
N1 32 6 2	286.000
N1 32 6 3	-98.0000
N1 32 6 4	-98.0000
N1 32 6 5	-98.0000
N1 33 1 1	-98.0000
N1 33 2 1	-98.0000
N1 34 1 1	-98.0000
N1 34 2 1	-98.0000
