"","GEMT","GEMT_C-","GEMT_C+","GEMT_KBG","GEMT_KBG5","EMT","EMT_C-","EMT_C+","EMT_KBG","EMT_KBG5","Random"
"GEMT",0,0,0,3,3,5,5,5,5,5,0
"GEMT_C-",0,0,0,3,1,5,5,4,5,5,0
"GEMT_C+",0,1,0,3,3,4,4,4,5,4,1
"GEMT_KBG",0,0,0,0,0,5,4,2,5,1,0
"GEMT_KBG5",0,0,0,0,0,4,5,4,5,4,0
"EMT",0,0,0,0,0,0,0,0,0,0,0
"EMT_C-",0,0,0,0,0,0,0,0,0,0,0
"EMT_C+",0,0,0,0,0,0,0,0,0,0,0
"EMT_KBG",0,0,0,0,0,0,0,0,0,0,0
"EMT_KBG5",0,0,0,0,0,0,0,0,1,0,0
"Random",0,0,0,2,1,4,5,4,5,5,0
