2018-11-21 13:53:12   [14347679 ms] MUTANT_N {ORDER (OPERATOR, LOCATION, ATTRIBUTE)+}, FITNESS, [COMPARISON RESULTS]
2018-11-21 13:53:12   [14347679 ms] MUTANT_0{1 (RRO, 6, 5)}, 268.0, [1 1 1 1 1]
2018-11-21 13:53:12   [14347680 ms] MUTANT_1{1 (RTU, 1, 2)}, 665.0, [0 0 0 0 0]
2018-11-21 13:53:12   [14347680 ms] MUTANT_2{1 (RSC, 2, 3)}, 665.0, [0 0 0 0 0]
2018-11-21 13:53:12   [14347680 ms] MUTANT_3{1 (RRO, 11, 3)}, 268.0, [3 3 3 3 3]
2018-11-21 13:53:12   [14347680 ms] MUTANT_4{1 (RNO, 6, 1)}, 268.0, [1 1 1 1 1]
2018-11-21 13:53:12   [14347681 ms] MUTANT_5{1 (RNO, 20, 1)}, 268.0, [1 1 1 1 1]
2018-11-21 13:53:12   [14347681 ms] MUTANT_6{1 (RLO, 8, 1)}, 268.0, [1 1 1 1 1]
2018-11-21 13:53:12   [14347681 ms] MUTANT_7{1 (WTM, 3, 1)}, 665.0, [0 0 0 0 0]
2018-11-21 13:53:12   [14347681 ms] MUTANT_8{1 (RRO, 6, 2)}, 268.0, [1 1 1 1 1]
2018-11-21 13:53:12   [14347682 ms] MUTANT_9{1 (RRO, 3, 1)}, 268.0, [1 1 1 1 1]
2018-11-21 13:53:12   [14347682 ms] MUTANT_10{1 (RTU, 3, 2)}, 665.0, [0 0 0 0 0]
2018-11-21 13:53:12   [14347682 ms] MUTANT_11{1 (RRO, 8, 2)}, 268.0, [1 1 1 1 1]
2018-11-21 13:53:12   [14347682 ms] MUTANT_12{1 (RNO, 9, 2)}, 268.0, [1 1 1 1 1]
2018-11-21 13:53:12   [14347683 ms] MUTANT_13{1 (RRO, 5, 1)}, 268.0, [1 1 1 1 1]
2018-11-21 13:53:12   [14347683 ms] MUTANT_14{1 (RNO, 18, 1)}, 268.0, [1 1 1 1 1]
2018-11-21 13:53:12   [14347683 ms] MUTANT_15{1 (RSC, 3, 3)}, 665.0, [0 0 0 0 0]
2018-11-21 13:53:12   [14347683 ms] MUTANT_16{1 (RSC, 4, 3)}, 665.0, [0 0 0 0 0]
2018-11-21 13:53:12   [14347684 ms] MUTANT_17{1 (RRO, 3, 4)}, 268.0, [1 1 1 1 1]
2018-11-21 13:53:12   [14347684 ms] MUTANT_18{1 (RTU, 4, 2)}, 665.0, [0 0 0 0 0]
2018-11-21 13:53:12   [14347684 ms] MUTANT_19{1 (RNO, 21, 2)}, 268.0, [1 1 1 1 1]
2018-11-21 13:53:12   [14347684 ms] MUTANT_20{1 (RRO, 4, 1)}, 268.0, [1 1 1 1 1]
2018-11-21 13:53:12   [14347685 ms] MUTANT_21{1 (RNO, 5, 1)}, 268.0, [1 1 1 1 1]
2018-11-21 13:53:12   [14347685 ms] MUTANT_22{1 (RRO, 7, 2)}, 268.0, [1 1 1 1 1]
2018-11-21 13:53:12   [14347685 ms] MUTANT_23{1 (WTM, 2, 1)}, 665.0, [0 0 0 0 0]
2018-11-21 13:53:12   [14347690 ms] MUTANT_24{1 (RRO, 11, 2)}, 268.0, [1 1 1 1 1]
2018-11-21 13:53:12   [14347691 ms] MUTANT_25{1 (RTU, 2, 3)}, 665.0, [0 0 0 0 0]
2018-11-21 13:53:12   [14347691 ms] MUTANT_26{1 (RNO, 16, 1)}, 268.0, [1 1 1 1 1]
2018-11-21 13:53:12   [14347691 ms] MUTANT_27{1 (RRO, 14, 1)}, 268.0, [1 1 1 1 1]
2018-11-21 13:53:12   [14347691 ms] MUTANT_28{1 (RRO, 1, 3)}, 268.0, [1 1 1 1 1]
2018-11-21 13:53:12   [14347692 ms] MUTANT_29{1 (RNO, 8, 1)}, 268.0, [1 1 1 1 1]
2018-11-21 13:53:12   [14347692 ms] MUTANT_30{1 (RSC, 4, 1)}, 665.0, [0 0 0 0 0]
2018-11-21 13:53:12   [14347692 ms] MUTANT_31{1 (RNO, 9, 1)}, 268.0, [1 1 1 1 1]
2018-11-21 13:53:12   [14347693 ms] MUTANT_32{1 (RSC, 3, 1)}, 665.0, [0 0 0 0 0]
2018-11-21 13:53:12   [14347693 ms] MUTANT_33{1 (RRO, 10, 2)}, 268.0, [1 1 1 1 1]
2018-11-21 13:53:12   [14347693 ms] MUTANT_34{1 (RRO, 2, 3)}, 268.0, [3 3 3 3 3]
2018-11-21 13:53:12   [14347693 ms] MUTANT_35{1 (RNO, 15, 1)}, 268.0, [1 1 1 1 1]
2018-11-21 13:53:12   [14347693 ms] MUTANT_36{1 (WTM, 1, 1)}, 665.0, [0 0 0 0 0]
2018-11-21 13:53:12   [14347694 ms] MUTANT_37{1 (RTU, 1, 3)}, 665.0, [0 0 0 0 0]
2018-11-21 13:53:12   [14347694 ms] MUTANT_38{1 (WBT, 3, 1)}, 268.0, [1 1 1 1 1]
2018-11-21 13:53:12   [14347694 ms] MUTANT_39{1 (RSC, 3, 4)}, 665.0, [0 0 0 0 0]
2018-11-21 13:53:12   [14347694 ms] MUTANT_40{1 (WBT, 2, 1)}, 268.0, [1 1 1 1 1]
2018-11-21 13:53:12   [14347695 ms] MUTANT_41{1 (PRE, 3, 1)}, 268.0, [1 1 1 1 1]
2018-11-21 13:53:12   [14347695 ms] MUTANT_42{1 (RNO, 11, 2)}, 268.0, [1 1 1 1 1]
2018-11-21 13:53:12   [14347695 ms] MUTANT_43{1 (RNO, 7, 1)}, 268.0, [1 1 1 1 1]
2018-11-21 13:53:12   [14347695 ms] MUTANT_44{1 (RRO, 15, 1)}, 268.0, [1 1 1 1 1]
2018-11-21 13:53:12   [14347695 ms] MUTANT_45{1 (RTU, 3, 1)}, 665.0, [0 0 0 0 0]
2018-11-21 13:53:12   [14347696 ms] MUTANT_46{1 (RNO, 1, 2)}, 268.0, [1 1 1 1 1]
2018-11-21 13:53:12   [14347696 ms] MUTANT_47{1 (RNO, 10, 2)}, 268.0, [1 1 1 1 1]
2018-11-21 13:53:12   [14347696 ms] MUTANT_48{1 (RSC, 1, 3)}, 665.0, [0 0 0 0 0]
2018-11-21 13:53:12   [14347696 ms] MUTANT_49{1 (RRO, 15, 4)}, 268.0, [1 1 1 1 1]
2018-11-21 13:53:12   [14347697 ms] MUTANT_50{1 (PRE, 4, 1)}, 268.0, [1 1 1 1 1]
2018-11-21 13:53:12   [14347697 ms] MUTANT_51{1 (RRO, 12, 3)}, 268.0, [3 3 3 3 3]
2018-11-21 13:53:12   [14347697 ms] MUTANT_52{1 (RRO, 3, 3)}, 268.0, [3 3 3 3 3]
2018-11-21 13:53:12   [14347697 ms] MUTANT_53{1 (RRO, 10, 1)}, 268.0, [1 1 1 1 1]
2018-11-21 13:53:12   [14347698 ms] MUTANT_54{1 (PRE, 1, 1)}, 268.0, [1 1 1 1 1]
2018-11-21 13:53:12   [14347698 ms] MUTANT_55{1 (RTU, 4, 1)}, 665.0, [0 0 0 0 0]
2018-11-21 13:53:12   [14347698 ms] MUTANT_56{1 (RTU, 3, 4)}, 665.0, [0 0 0 0 0]
2018-11-21 13:53:12   [14347698 ms] MUTANT_57{1 (WTM, 1, 2)}, 268.0, [1 1 1 1 1]
2018-11-21 13:53:12   [14347698 ms] MUTANT_58{1 (RSC, 4, 5)}, 665.0, [0 0 0 0 0]
2018-11-21 13:53:12   [14347699 ms] MUTANT_59{1 (WBT, 1, 1)}, 665.0, [0 0 0 0 0]
2018-11-21 13:53:12   [14347699 ms] MUTANT_60{1 (RNO, 11, 1)}, 268.0, [1 1 1 1 1]
2018-11-21 13:53:12   [14347699 ms] MUTANT_61{1 (RSC, 1, 1)}, 665.0, [0 0 0 0 0]
2018-11-21 13:53:12   [14347699 ms] MUTANT_62{1 (RTU, 2, 4)}, 665.0, [0 0 0 0 0]
2018-11-21 13:53:12   [14347701 ms] MUTANT_63{1 (RRO, 1, 2)}, 268.0, [1 1 1 1 1]
2018-11-21 13:53:12   [14347701 ms] MUTANT_64{1 (RRO, 15, 2)}, 268.0, [1 1 1 1 1]
2018-11-21 13:53:12   [14347702 ms] MUTANT_65{1 (RRO, 4, 3)}, 268.0, [3 3 3 3 3]
2018-11-21 13:53:12   [14347702 ms] MUTANT_66{1 (RRO, 12, 5)}, 268.0, [1 1 1 1 1]
2018-11-21 13:53:12   [14347702 ms] MUTANT_67{1 (RRO, 14, 5)}, 268.0, [1 1 1 1 1]
2018-11-21 13:53:12   [14347702 ms] MUTANT_68{1 (RNO, 13, 1)}, 268.0, [1 1 1 1 1]
2018-11-21 13:53:12   [14347702 ms] MUTANT_69{1 (RTU, 4, 4)}, 665.0, [0 0 0 0 0]
2018-11-21 13:53:12   [14347703 ms] MUTANT_70{1 (RNO, 14, 1)}, 268.0, [1 1 1 1 1]
2018-11-21 13:53:12   [14347703 ms] MUTANT_71{1 (RRO, 7, 4)}, 268.0, [1 1 1 1 1]
2018-11-21 13:53:12   [14347703 ms] MUTANT_72{1 (RRO, 2, 2)}, 268.0, [1 1 1 1 1]
2018-11-21 13:53:12   [14347703 ms] MUTANT_73{1 (RTU, 1, 4)}, 665.0, [0 0 0 0 0]
2018-11-21 13:53:12   [14347704 ms] MUTANT_74{1 (RNO, 10, 1)}, 268.0, [1 1 1 1 1]
2018-11-21 13:53:12   [14347704 ms] MUTANT_75{1 (RSC, 1, 4)}, 665.0, [0 0 0 0 0]
2018-11-21 13:53:12   [14347706 ms] MUTANT_76{1 (RRO, 1, 5)}, 268.0, [1 1 1 3 1]
2018-11-21 13:53:12   [14347707 ms] MUTANT_77{1 (RRO, 15, 5)}, 268.0, [1 1 1 1 1]
2018-11-21 13:53:12   [14347707 ms] MUTANT_78{1 (RTU, 2, 1)}, 665.0, [0 0 0 0 0]
2018-11-21 13:53:12   [14347707 ms] MUTANT_79{1 (RSC, 2, 1)}, 665.0, [0 0 0 0 0]
2018-11-21 13:53:12   [14347707 ms] MUTANT_80{1 (RRO, 8, 1)}, 268.0, [1 1 1 1 1]
2018-11-21 13:53:12   [14347708 ms] MUTANT_81{1 (RLO, 1, 1)}, 268.0, [1 1 1 1 1]
2018-11-21 13:53:12   [14347708 ms] MUTANT_82{1 (RNO, 4, 2)}, 268.0, [1 1 1 1 1]
2018-11-21 13:53:12   [14347708 ms] MUTANT_83{1 (RLO, 5, 1)}, 268.0, [1 1 1 1 1]
2018-11-21 13:53:12   [14347708 ms] MUTANT_84{1 (RNO, 3, 2)}, 268.0, [1 1 1 1 1]
2018-11-21 13:53:12   [14347708 ms] MUTANT_85{1 (RRO, 13, 1)}, 268.0, [1 1 1 1 1]
2018-11-21 13:53:12   [14347709 ms] MUTANT_86{1 (RRO, 11, 5)}, 268.0, [1 1 1 1 1]
2018-11-21 13:53:12   [14347709 ms] MUTANT_87{1 (PRE, 2, 1)}, 268.0, [1 1 1 1 1]
2018-11-21 13:53:12   [14347713 ms] MUTANT_88{1 (RSC, 2, 4)}, 665.0, [0 0 0 0 0]
2018-11-21 13:53:12   [14347713 ms] MUTANT_89{1 (RTU, 1, 1)}, 665.0, [0 0 0 0 0]
2018-11-21 13:53:12   [14347713 ms] MUTANT_90{1 (RNO, 1, 1)}, 268.0, [1 1 1 1 1]
2018-11-21 13:53:12   [14347714 ms] MUTANT_91{1 (WBT, 4, 1)}, 268.0, [1 1 1 1 1]
2018-11-21 13:53:12   [14347714 ms] MUTANT_92{1 (RRO, 15, 3)}, 268.0, [3 3 3 3 3]
2018-11-21 13:53:12   [14347714 ms] MUTANT_93{1 (RNO, 6, 2)}, 268.0, [1 1 1 1 1]
2018-11-21 13:53:12   [14347714 ms] MUTANT_94{1 (RRO, 12, 4)}, 268.0, [1 1 1 1 1]
2018-11-21 13:53:12   [14347714 ms] MUTANT_95{1 (RNO, 13, 2)}, 268.0, [1 1 1 1 1]
2018-11-21 13:53:12   [14347715 ms] MUTANT_96{1 (RRO, 8, 3)}, 268.0, [3 3 3 3 3]
2018-11-21 13:53:12   [14347715 ms] MUTANT_97{1 (RRO, 3, 2)}, 268.0, [1 1 1 1 1]
2018-11-21 13:53:12   [14347715 ms] MUTANT_98{1 (RNO, 2, 1)}, 268.0, [1 1 1 3 1]
2018-11-21 13:53:12   [14347715 ms] MUTANT_99{1 (RTU, 3, 3)}, 665.0, [0 0 0 0 0]
2018-11-21 13:53:12   [14347715 ms] MUTANT_100{1 (RRO, 3, 5)}, 268.0, [1 1 1 1 1]
2018-11-21 13:53:12   [14347716 ms] MUTANT_101{1 (RSC, 1, 5)}, 665.0, [0 0 0 0 0]
2018-11-21 13:53:12   [14347716 ms] MUTANT_102{1 (RSC, 2, 2)}, 665.0, [0 0 0 0 0]
2018-11-21 13:53:12   [14347716 ms] MUTANT_103{1 (RLO, 6, 1)}, 268.0, [1 1 1 1 1]
2018-11-21 13:53:12   [14347716 ms] MUTANT_104{1 (RRO, 12, 1)}, 268.0, [1 1 1 1 1]
2018-11-21 13:53:12   [14347717 ms] MUTANT_105{1 (RTU, 4, 3)}, 665.0, [0 0 0 0 0]
2018-11-21 13:53:12   [14347717 ms] MUTANT_106{1 (RRO, 1, 1)}, 268.0, [1 1 1 3 1]
2018-11-21 13:53:12   [14347717 ms] MUTANT_107{1 (RNO, 21, 1)}, 268.0, [1 1 1 1 1]
2018-11-21 13:53:12   [14347717 ms] MUTANT_108{1 (RNO, 3, 1)}, 268.0, [1 1 1 1 1]
2018-11-21 13:53:12   [14347717 ms] MUTANT_109{1 (RRO, 11, 4)}, 268.0, [1 1 1 1 1]
2018-11-21 13:53:12   [14347718 ms] MUTANT_110{1 (RSC, 2, 5)}, 665.0, [0 0 0 0 0]
2018-11-21 13:53:12   [14347718 ms] MUTANT_111{1 (RRO, 5, 2)}, 268.0, [1 1 1 1 1]
2018-11-21 13:53:12   [14347718 ms] MUTANT_112{1 (RRO, 7, 3)}, 268.0, [3 3 3 3 3]
2018-11-21 13:53:12   [14347718 ms] MUTANT_113{1 (RNO, 14, 2)}, 268.0, [1 1 1 1 1]
2018-11-21 13:53:12   [14347718 ms] MUTANT_114{1 (RRO, 11, 1)}, 268.0, [1 1 1 1 1]
2018-11-21 13:53:12   [14347719 ms] MUTANT_115{1 (RRO, 2, 1)}, 268.0, [1 1 1 1 1]
2018-11-21 13:53:12   [14347719 ms] MUTANT_116{1 (RRO, 1, 4)}, 268.0, [1 1 1 1 1]
2018-11-21 13:53:12   [14347719 ms] MUTANT_117{1 (RTU, 2, 2)}, 665.0, [0 0 0 0 0]
2018-11-21 13:53:12   [14347719 ms] MUTANT_118{1 (RRO, 10, 4)}, 268.0, [1 1 1 1 1]
2018-11-21 13:53:12   [14347719 ms] MUTANT_119{1 (RRO, 14, 2)}, 268.0, [1 1 1 1 1]
2018-11-21 13:53:12   [14347720 ms] MUTANT_120{1 (WTM, 4, 1)}, 665.0, [0 0 0 0 0]
2018-11-21 13:53:12   [14347720 ms] MUTANT_121{1 (RSC, 3, 2)}, 665.0, [0 0 0 0 0]
2018-11-21 13:53:12   [14347720 ms] MUTANT_122{1 (RRO, 4, 5)}, 268.0, [1 1 1 1 1]
