hof-0.30-acknowledgements 15.08
hof-0.30-administratively 19.55
hof-0.30-Australopithecus 17.31
hof-0.30-bloodthirstiness 26.81
hof-0.30-cinematographers 25.69
hof-0.30-counterespionage 26.81
hof-0.30-Czechoslovakians 31.28
hof-0.30-departmentalized 24.58
hof-0.30-disqualification 13.40
hof-0.30-enthusiastically 21.78
hof-0.30-flibbertigibbets 18.99
hof-0.30-gastrointestinal 18.43
hof-0.30-hospitalizations 17.87
hof-0.30-hydroelectricity 16.75
hof-0.30-intellectualized 22.34
hof-0.30-lightheartedness 16.20
hof-0.30-melodramatically 13.40
hof-0.30-multimillionaire 24.02
hof-0.30-nationalizations 14.52
hof-0.30-neurotransmitter 20.11
hof-0.30-overcompensating 20.67
hof-0.30-photojournalists 25.13
hof-0.30-predetermination 21.78
hof-0.30-rambunctiousness 23.46
hof-0.30-sentimentalizing 25.13
hof-0.30-synchronizations 22.90
hof-0.30-teleconferencing 20.11
hof-0.30-transcendentally 20.11
hof-0.30-unscrupulousness 15.08
hof-0.30-whatchamacallits 17.31
hof-0.45-acknowledgements 22.90
hof-0.45-administratively 24.58
hof-0.45-Australopithecus 25.69
hof-0.45-bloodthirstiness 37.43
hof-0.45-cinematographers 36.87
hof-0.45-counterespionage 31.84
hof-0.45-Czechoslovakians 38.54
hof-0.45-departmentalized 40.78
hof-0.45-disqualification 31.28
hof-0.45-enthusiastically 30.72
hof-0.45-flibbertigibbets 35.19
hof-0.45-gastrointestinal 24.02
hof-0.45-hospitalizations 21.78
hof-0.45-hydroelectricity 29.60
hof-0.45-intellectualized 27.37
hof-0.45-lightheartedness 39.10
hof-0.45-melodramatically 16.20
hof-0.45-multimillionaire 27.93
hof-0.45-nationalizations 25.13
hof-0.45-neurotransmitter 25.13
hof-0.45-overcompensating 39.10
hof-0.45-photojournalists 42.45
hof-0.45-predetermination 30.72
hof-0.45-rambunctiousness 26.25
hof-0.45-sentimentalizing 31.84
hof-0.45-synchronizations 31.84
hof-0.45-teleconferencing 31.28
hof-0.45-transcendentally 25.13
hof-0.45-unscrupulousness 24.58
hof-0.45-whatchamacallits 25.69
hof-0.60-acknowledgements 35.75
hof-0.60-administratively 32.96
hof-0.60-Australopithecus 37.43
hof-0.60-bloodthirstiness 49.16
hof-0.60-cinematographers 46.92
hof-0.60-counterespionage 49.72
hof-0.60-Czechoslovakians 55.86
hof-0.60-departmentalized 47.48
hof-0.60-disqualification 41.89
hof-0.60-enthusiastically 43.01
hof-0.60-flibbertigibbets 45.25
hof-0.60-gastrointestinal 40.78
hof-0.60-hospitalizations 31.28
hof-0.60-hydroelectricity 37.43
hof-0.60-intellectualized 41.89
hof-0.60-lightheartedness 50.27
hof-0.60-melodramatically 25.13
hof-0.60-multimillionaire 35.19
hof-0.60-nationalizations 36.31
hof-0.60-neurotransmitter 32.40
hof-0.60-overcompensating 58.65
hof-0.60-photojournalists 57.54
hof-0.60-predetermination 37.43
hof-0.60-rambunctiousness 37.43
hof-0.60-sentimentalizing 39.10
hof-0.60-synchronizations 45.81
hof-0.60-teleconferencing 49.72
hof-0.60-transcendentally 50.83
hof-0.60-unscrupulousness 41.89
hof-0.60-whatchamacallits 34.63
hof-0.75-acknowledgements 48.04
hof-0.75-administratively 43.57
hof-0.75-Australopithecus 42.45
hof-0.75-bloodthirstiness 68.71
hof-0.75-cinematographers 65.92
hof-0.75-counterespionage 56.98
hof-0.75-Czechoslovakians 72.06
hof-0.75-departmentalized 67.59
hof-0.75-disqualification 52.51
hof-0.75-enthusiastically 50.83
hof-0.75-flibbertigibbets 51.39
hof-0.75-gastrointestinal 49.16
hof-0.75-hospitalizations 49.16
hof-0.75-hydroelectricity 48.04
hof-0.75-intellectualized 52.51
hof-0.75-lightheartedness 63.68
hof-0.75-melodramatically 45.81
hof-0.75-multimillionaire 54.18
hof-0.75-nationalizations 45.25
hof-0.75-neurotransmitter 48.04
hof-0.75-overcompensating 71.50
hof-0.75-photojournalists 65.36
hof-0.75-predetermination 49.72
hof-0.75-rambunctiousness 56.42
hof-0.75-sentimentalizing 59.77
hof-0.75-synchronizations 59.21
hof-0.75-teleconferencing 60.33
hof-0.75-transcendentally 64.80
hof-0.75-unscrupulousness 55.86
hof-0.75-whatchamacallits 51.39
hof-0.90-acknowledgements 59.21
hof-0.90-administratively 68.71
hof-0.90-Australopithecus 60.33
hof-0.90-bloodthirstiness 77.09
hof-0.90-cinematographers 79.32
hof-0.90-counterespionage 73.74
hof-0.90-Czechoslovakians 80.44
hof-0.90-departmentalized 74.30
hof-0.90-disqualification 67.59
hof-0.90-enthusiastically 64.24
hof-0.90-flibbertigibbets 59.21
hof-0.90-gastrointestinal 64.24
hof-0.90-hospitalizations 69.83
hof-0.90-hydroelectricity 55.30
hof-0.90-intellectualized 70.39
hof-0.90-lightheartedness 82.68
hof-0.90-melodramatically 60.89
hof-0.90-multimillionaire 79.32
hof-0.90-nationalizations 78.21
hof-0.90-neurotransmitter 74.30
hof-0.90-overcompensating 78.77
hof-0.90-photojournalists 86.59
hof-0.90-predetermination 61.45
hof-0.90-rambunctiousness 71.50
hof-0.90-sentimentalizing 73.18
hof-0.90-synchronizations 74.30
hof-0.90-teleconferencing 76.53
hof-0.90-transcendentally 81.56
hof-0.90-unscrupulousness 66.48
hof-0.90-whatchamacallits 68.71
