hof-0.30-acknowledgements 21.54
hof-0.30-administratively 21.54
hof-0.30-Australopithecus 23.20
hof-0.30-bloodthirstiness 23.20
hof-0.30-cinematographers 23.20
hof-0.30-counterespionage 15.46
hof-0.30-Czechoslovakians 18.23
hof-0.30-departmentalized 19.88
hof-0.30-disqualification 17.67
hof-0.30-enthusiastically 26.51
hof-0.30-flibbertigibbets 23.20
hof-0.30-gastrointestinal 18.23
hof-0.30-hospitalizations 24.30
hof-0.30-hydroelectricity 12.15
hof-0.30-intellectualized 19.88
hof-0.30-lightheartedness 20.99
hof-0.30-melodramatically 27.62
hof-0.30-multimillionaire 19.33
hof-0.30-nationalizations 20.44
hof-0.30-neurotransmitter 21.54
hof-0.30-overcompensating 20.99
hof-0.30-photojournalists 19.88
hof-0.30-predetermination 20.99
hof-0.30-rambunctiousness 16.57
hof-0.30-sentimentalizing 13.25
hof-0.30-synchronizations 25.96
hof-0.30-teleconferencing 13.25
hof-0.30-transcendentally 22.09
hof-0.30-unscrupulousness 16.02
hof-0.30-whatchamacallits 16.02
hof-0.45-acknowledgements 31.49
hof-0.45-administratively 30.38
hof-0.45-Australopithecus 34.25
hof-0.45-bloodthirstiness 29.28
hof-0.45-cinematographers 30.38
hof-0.45-counterespionage 24.30
hof-0.45-Czechoslovakians 22.09
hof-0.45-departmentalized 29.28
hof-0.45-disqualification 22.65
hof-0.45-enthusiastically 33.70
hof-0.45-flibbertigibbets 32.04
hof-0.45-gastrointestinal 27.07
hof-0.45-hospitalizations 28.72
hof-0.45-hydroelectricity 28.72
hof-0.45-intellectualized 30.93
hof-0.45-lightheartedness 29.28
hof-0.45-melodramatically 34.80
hof-0.45-multimillionaire 30.93
hof-0.45-nationalizations 28.17
hof-0.45-neurotransmitter 29.28
hof-0.45-overcompensating 27.07
hof-0.45-photojournalists 28.17
hof-0.45-predetermination 24.30
hof-0.45-rambunctiousness 28.72
hof-0.45-sentimentalizing 24.86
hof-0.45-synchronizations 32.59
hof-0.45-teleconferencing 28.17
hof-0.45-transcendentally 29.28
hof-0.45-unscrupulousness 27.07
hof-0.45-whatchamacallits 22.65
hof-0.60-acknowledgements 43.09
hof-0.60-administratively 41.98
hof-0.60-Australopithecus 46.40
hof-0.60-bloodthirstiness 40.88
hof-0.60-cinematographers 43.64
hof-0.60-counterespionage 40.33
hof-0.60-Czechoslovakians 29.83
hof-0.60-departmentalized 35.91
hof-0.60-disqualification 34.25
hof-0.60-enthusiastically 46.40
hof-0.60-flibbertigibbets 46.40
hof-0.60-gastrointestinal 38.67
hof-0.60-hospitalizations 45.85
hof-0.60-hydroelectricity 44.19
hof-0.60-intellectualized 39.22
hof-0.60-lightheartedness 41.98
hof-0.60-melodramatically 43.64
hof-0.60-multimillionaire 39.22
hof-0.60-nationalizations 42.54
hof-0.60-neurotransmitter 40.88
hof-0.60-overcompensating 43.09
hof-0.60-photojournalists 40.33
hof-0.60-predetermination 34.25
hof-0.60-rambunctiousness 39.22
hof-0.60-sentimentalizing 45.30
hof-0.60-synchronizations 50.27
hof-0.60-teleconferencing 41.43
hof-0.60-transcendentally 43.64
hof-0.60-unscrupulousness 40.88
hof-0.60-whatchamacallits 32.59
hof-0.75-acknowledgements 50.27
hof-0.75-administratively 53.59
hof-0.75-Australopithecus 58.56
hof-0.75-bloodthirstiness 59.11
hof-0.75-cinematographers 64.08
hof-0.75-counterespionage 52.48
hof-0.75-Czechoslovakians 37.56
hof-0.75-departmentalized 44.75
hof-0.75-disqualification 62.98
hof-0.75-enthusiastically 64.64
hof-0.75-flibbertigibbets 60.22
hof-0.75-gastrointestinal 54.14
hof-0.75-hospitalizations 60.77
hof-0.75-hydroelectricity 51.93
hof-0.75-intellectualized 71.82
hof-0.75-lightheartedness 53.59
hof-0.75-melodramatically 49.72
hof-0.75-multimillionaire 55.24
hof-0.75-nationalizations 54.14
hof-0.75-neurotransmitter 51.93
hof-0.75-overcompensating 55.80
hof-0.75-photojournalists 46.40
hof-0.75-predetermination 49.72
hof-0.75-rambunctiousness 50.82
hof-0.75-sentimentalizing 58.01
hof-0.75-synchronizations 61.87
hof-0.75-teleconferencing 54.14
hof-0.75-transcendentally 55.80
hof-0.75-unscrupulousness 61.32
hof-0.75-whatchamacallits 45.85
hof-0.90-acknowledgements 73.48
hof-0.90-administratively 82.32
hof-0.90-Australopithecus 74.03
hof-0.90-bloodthirstiness 80.66
hof-0.90-cinematographers 81.76
hof-0.90-counterespionage 82.87
hof-0.90-Czechoslovakians 82.32
hof-0.90-departmentalized 64.64
hof-0.90-disqualification 85.08
hof-0.90-enthusiastically 82.32
hof-0.90-flibbertigibbets 81.21
hof-0.90-gastrointestinal 74.58
hof-0.90-hospitalizations 80.66
hof-0.90-hydroelectricity 79.00
hof-0.90-intellectualized 92.26
hof-0.90-lightheartedness 79.00
hof-0.90-melodramatically 67.95
hof-0.90-multimillionaire 81.76
hof-0.90-nationalizations 69.61
hof-0.90-neurotransmitter 77.34
hof-0.90-overcompensating 79.55
hof-0.90-photojournalists 67.40
hof-0.90-predetermination 66.29
hof-0.90-rambunctiousness 77.90
hof-0.90-sentimentalizing 76.79
hof-0.90-synchronizations 80.66
hof-0.90-teleconferencing 90.05
hof-0.90-transcendentally 77.34
hof-0.90-unscrupulousness 72.37
hof-0.90-whatchamacallits 65.19
