hof-0.30-acknowledgements 20.44
hof-0.30-administratively 29.83
hof-0.30-Australopithecus 18.78
hof-0.30-bloodthirstiness 25.41
hof-0.30-cinematographers 29.28
hof-0.30-counterespionage 13.25
hof-0.30-Czechoslovakians 22.09
hof-0.30-departmentalized 24.30
hof-0.30-disqualification 22.09
hof-0.30-enthusiastically 19.88
hof-0.30-flibbertigibbets 22.09
hof-0.30-gastrointestinal 16.02
hof-0.30-hospitalizations 19.88
hof-0.30-hydroelectricity 16.02
hof-0.30-intellectualized 18.78
hof-0.30-lightheartedness 17.67
hof-0.30-melodramatically 29.28
hof-0.30-multimillionaire 23.75
hof-0.30-nationalizations 17.12
hof-0.30-neurotransmitter 19.33
hof-0.30-overcompensating 24.86
hof-0.30-photojournalists 20.99
hof-0.30-predetermination 14.91
hof-0.30-rambunctiousness 28.72
hof-0.30-sentimentalizing 16.57
hof-0.30-synchronizations 30.93
hof-0.30-teleconferencing 14.36
hof-0.30-transcendentally 22.65
hof-0.30-unscrupulousness 18.23
hof-0.30-whatchamacallits 21.54
hof-0.45-acknowledgements 30.38
hof-0.45-administratively 37.56
hof-0.45-Australopithecus 27.62
hof-0.45-bloodthirstiness 33.70
hof-0.45-cinematographers 37.56
hof-0.45-counterespionage 32.04
hof-0.45-Czechoslovakians 30.38
hof-0.45-departmentalized 32.59
hof-0.45-disqualification 33.14
hof-0.45-enthusiastically 33.14
hof-0.45-flibbertigibbets 35.91
hof-0.45-gastrointestinal 31.49
hof-0.45-hospitalizations 29.83
hof-0.45-hydroelectricity 23.20
hof-0.45-intellectualized 32.04
hof-0.45-lightheartedness 24.86
hof-0.45-melodramatically 39.22
hof-0.45-multimillionaire 29.83
hof-0.45-nationalizations 33.14
hof-0.45-neurotransmitter 34.80
hof-0.45-overcompensating 36.46
hof-0.45-photojournalists 29.83
hof-0.45-predetermination 28.72
hof-0.45-rambunctiousness 38.12
hof-0.45-sentimentalizing 31.49
hof-0.45-synchronizations 48.06
hof-0.45-teleconferencing 38.67
hof-0.45-transcendentally 29.83
hof-0.45-unscrupulousness 28.72
hof-0.45-whatchamacallits 29.28
hof-0.60-acknowledgements 48.61
hof-0.60-administratively 43.09
hof-0.60-Australopithecus 40.88
hof-0.60-bloodthirstiness 48.61
hof-0.60-cinematographers 48.06
hof-0.60-counterespionage 45.30
hof-0.60-Czechoslovakians 39.22
hof-0.60-departmentalized 46.40
hof-0.60-disqualification 43.09
hof-0.60-enthusiastically 47.51
hof-0.60-flibbertigibbets 43.09
hof-0.60-gastrointestinal 43.64
hof-0.60-hospitalizations 42.54
hof-0.60-hydroelectricity 44.75
hof-0.60-intellectualized 46.40
hof-0.60-lightheartedness 43.09
hof-0.60-melodramatically 45.85
hof-0.60-multimillionaire 40.88
hof-0.60-nationalizations 44.75
hof-0.60-neurotransmitter 41.98
hof-0.60-overcompensating 47.51
hof-0.60-photojournalists 37.56
hof-0.60-predetermination 46.40
hof-0.60-rambunctiousness 51.38
hof-0.60-sentimentalizing 41.98
hof-0.60-synchronizations 59.11
hof-0.60-teleconferencing 49.17
hof-0.60-transcendentally 43.09
hof-0.60-unscrupulousness 40.88
hof-0.60-whatchamacallits 42.54
hof-0.75-acknowledgements 56.35
hof-0.75-administratively 57.45
hof-0.75-Australopithecus 57.45
hof-0.75-bloodthirstiness 56.35
hof-0.75-cinematographers 72.37
hof-0.75-counterespionage 58.01
hof-0.75-Czechoslovakians 49.72
hof-0.75-departmentalized 59.11
hof-0.75-disqualification 61.87
hof-0.75-enthusiastically 64.64
hof-0.75-flibbertigibbets 61.32
hof-0.75-gastrointestinal 58.01
hof-0.75-hospitalizations 65.19
hof-0.75-hydroelectricity 68.50
hof-0.75-intellectualized 56.35
hof-0.75-lightheartedness 53.59
hof-0.75-melodramatically 65.74
hof-0.75-multimillionaire 60.77
hof-0.75-nationalizations 60.77
hof-0.75-neurotransmitter 61.87
hof-0.75-overcompensating 53.03
hof-0.75-photojournalists 50.82
hof-0.75-predetermination 60.77
hof-0.75-rambunctiousness 65.19
hof-0.75-sentimentalizing 60.77
hof-0.75-synchronizations 69.61
hof-0.75-teleconferencing 61.32
hof-0.75-transcendentally 56.35
hof-0.75-unscrupulousness 58.56
hof-0.75-whatchamacallits 58.56
hof-0.90-acknowledgements 77.34
hof-0.90-administratively 79.55
hof-0.90-Australopithecus 69.61
hof-0.90-bloodthirstiness 80.66
hof-0.90-cinematographers 84.53
hof-0.90-counterespionage 76.24
hof-0.90-Czechoslovakians 66.29
hof-0.90-departmentalized 78.45
hof-0.90-disqualification 80.11
hof-0.90-enthusiastically 71.82
hof-0.90-flibbertigibbets 75.69
hof-0.90-gastrointestinal 77.90
hof-0.90-hospitalizations 75.69
hof-0.90-hydroelectricity 81.76
hof-0.90-intellectualized 81.21
hof-0.90-lightheartedness 71.82
hof-0.90-melodramatically 79.55
hof-0.90-multimillionaire 79.55
hof-0.90-nationalizations 77.34
hof-0.90-neurotransmitter 69.61
hof-0.90-overcompensating 75.13
hof-0.90-photojournalists 74.03
hof-0.90-predetermination 81.21
hof-0.90-rambunctiousness 82.32
hof-0.90-sentimentalizing 82.87
hof-0.90-synchronizations 88.39
hof-0.90-teleconferencing 82.32
hof-0.90-transcendentally 75.69
hof-0.90-unscrupulousness 78.45
hof-0.90-whatchamacallits 76.79
