hof-0.30-acknowledgements 36.36
hof-0.30-administratively 36.36
hof-0.30-Australopithecus 33.91
hof-0.30-bloodthirstiness 33.91
hof-0.30-cinematographers 29.02
hof-0.30-counterespionage 32.16
hof-0.30-Czechoslovakians 32.16
hof-0.30-departmentalized 29.37
hof-0.30-disqualification 32.16
hof-0.30-enthusiastically 28.32
hof-0.30-flibbertigibbets 29.37
hof-0.30-gastrointestinal 30.76
hof-0.30-hospitalizations 25.52
hof-0.30-hydroelectricity 32.51
hof-0.30-intellectualized 31.11
hof-0.30-lightheartedness 27.27
hof-0.30-melodramatically 30.76
hof-0.30-multimillionaire 30.06
hof-0.30-nationalizations 32.16
hof-0.30-neurotransmitter 31.11
hof-0.30-overcompensating 27.27
hof-0.30-photojournalists 28.67
hof-0.30-predetermination 31.11
hof-0.30-rambunctiousness 36.36
hof-0.30-sentimentalizing 31.11
hof-0.30-synchronizations 30.41
hof-0.30-teleconferencing 26.92
hof-0.30-transcendentally 25.17
hof-0.30-unscrupulousness 27.62
hof-0.30-whatchamacallits 33.56
hof-0.45-acknowledgements 48.60
hof-0.45-administratively 48.60
hof-0.45-Australopithecus 43.35
hof-0.45-bloodthirstiness 44.05
hof-0.45-cinematographers 44.40
hof-0.45-counterespionage 42.30
hof-0.45-Czechoslovakians 42.65
hof-0.45-departmentalized 43.00
hof-0.45-disqualification 47.20
hof-0.45-enthusiastically 42.65
hof-0.45-flibbertigibbets 43.70
hof-0.45-gastrointestinal 42.30
hof-0.45-hospitalizations 43.70
hof-0.45-hydroelectricity 42.30
hof-0.45-intellectualized 38.81
hof-0.45-lightheartedness 42.30
hof-0.45-melodramatically 43.70
hof-0.45-multimillionaire 45.10
hof-0.45-nationalizations 47.20
hof-0.45-neurotransmitter 45.45
hof-0.45-overcompensating 36.71
hof-0.45-photojournalists 46.50
hof-0.45-predetermination 42.65
hof-0.45-rambunctiousness 49.30
hof-0.45-sentimentalizing 44.05
hof-0.45-synchronizations 45.10
hof-0.45-teleconferencing 46.85
hof-0.45-transcendentally 37.06
hof-0.45-unscrupulousness 45.80
hof-0.45-whatchamacallits 47.90
hof-0.60-acknowledgements 61.18
hof-0.60-administratively 61.53
hof-0.60-Australopithecus 54.89
hof-0.60-bloodthirstiness 59.44
hof-0.60-cinematographers 61.88
hof-0.60-counterespionage 57.34
hof-0.60-Czechoslovakians 51.39
hof-0.60-departmentalized 63.28
hof-0.60-disqualification 63.28
hof-0.60-enthusiastically 62.58
hof-0.60-flibbertigibbets 60.48
hof-0.60-gastrointestinal 55.24
hof-0.60-hospitalizations 62.23
hof-0.60-hydroelectricity 58.74
hof-0.60-intellectualized 55.24
hof-0.60-lightheartedness 56.29
hof-0.60-melodramatically 57.69
hof-0.60-multimillionaire 60.13
hof-0.60-nationalizations 61.18
hof-0.60-neurotransmitter 55.59
hof-0.60-overcompensating 54.19
hof-0.60-photojournalists 61.53
hof-0.60-predetermination 59.09
hof-0.60-rambunctiousness 61.88
hof-0.60-sentimentalizing 56.99
hof-0.60-synchronizations 56.64
hof-0.60-teleconferencing 64.33
hof-0.60-transcendentally 51.04
hof-0.60-unscrupulousness 60.48
hof-0.60-whatchamacallits 59.79
hof-0.75-acknowledgements 79.02
hof-0.75-administratively 77.27
hof-0.75-Australopithecus 69.58
hof-0.75-bloodthirstiness 75.17
hof-0.75-cinematographers 79.72
hof-0.75-counterespionage 72.37
hof-0.75-Czechoslovakians 77.97
hof-0.75-departmentalized 70.62
hof-0.75-disqualification 76.92
hof-0.75-enthusiastically 77.97
hof-0.75-flibbertigibbets 75.52
hof-0.75-gastrointestinal 69.23
hof-0.75-hospitalizations 80.76
hof-0.75-hydroelectricity 72.02
hof-0.75-intellectualized 75.17
hof-0.75-lightheartedness 73.42
hof-0.75-melodramatically 75.87
hof-0.75-multimillionaire 72.72
hof-0.75-nationalizations 75.17
hof-0.75-neurotransmitter 70.97
hof-0.75-overcompensating 70.62
hof-0.75-photojournalists 76.92
hof-0.75-predetermination 75.17
hof-0.75-rambunctiousness 74.47
hof-0.75-sentimentalizing 75.17
hof-0.75-synchronizations 69.58
hof-0.75-teleconferencing 75.87
hof-0.75-transcendentally 66.43
hof-0.75-unscrupulousness 73.07
hof-0.75-whatchamacallits 76.57
hof-0.90-acknowledgements 91.60
hof-0.90-administratively 89.51
hof-0.90-Australopithecus 89.16
hof-0.90-bloodthirstiness 89.86
hof-0.90-cinematographers 92.65
hof-0.90-counterespionage 86.36
hof-0.90-Czechoslovakians 88.81
hof-0.90-departmentalized 89.86
hof-0.90-disqualification 89.16
hof-0.90-enthusiastically 90.90
hof-0.90-flibbertigibbets 89.86
hof-0.90-gastrointestinal 88.46
hof-0.90-hospitalizations 93.70
hof-0.90-hydroelectricity 87.41
hof-0.90-intellectualized 90.20
hof-0.90-lightheartedness 86.71
hof-0.90-melodramatically 92.30
hof-0.90-multimillionaire 90.20
hof-0.90-nationalizations 89.51
hof-0.90-neurotransmitter 87.41
hof-0.90-overcompensating 90.20
hof-0.90-photojournalists 88.11
hof-0.90-predetermination 90.20
hof-0.90-rambunctiousness 87.76
hof-0.90-sentimentalizing 83.91
hof-0.90-synchronizations 88.81
hof-0.90-teleconferencing 87.76
hof-0.90-transcendentally 83.56
hof-0.90-unscrupulousness 89.16
hof-0.90-whatchamacallits 90.20
