2018-11-20 19:17:35   [18619819 ms] MUTANT_N {ORDER (OPERATOR, LOCATION, ATTRIBUTE)+}, FITNESS, [COMPARISON RESULTS]
2018-11-20 19:17:35   [18619820 ms] MUTANT_0{1 (RRO, 6, 5)}, 288.0, [1 1 1 1 1]
2018-11-20 19:17:35   [18619820 ms] MUTANT_1{1 (RRO, 2, 4)}, 288.0, [1 1 1 1 1]
2018-11-20 19:17:35   [18619821 ms] MUTANT_2{1 (RTU, 1, 2)}, 850.0, [0 0 0 0 0]
2018-11-20 19:17:35   [18619821 ms] MUTANT_3{1 (RSC, 2, 3)}, 850.0, [0 0 0 0 0]
2018-11-20 19:17:35   [18619821 ms] MUTANT_4{1 (RNO, 19, 1)}, 288.0, [1 1 1 1 1]
2018-11-20 19:17:35   [18619821 ms] MUTANT_5{1 (RRO, 11, 3)}, 569.0, [3 3 3 3 3]
2018-11-20 19:17:35   [18619822 ms] MUTANT_6{1 (RRO, 7, 5)}, 288.0, [1 1 1 1 1]
2018-11-20 19:17:35   [18619822 ms] MUTANT_7{1 (RNO, 6, 1)}, 288.0, [1 1 1 1 1]
2018-11-20 19:17:35   [18619822 ms] MUTANT_8{1 (RNO, 20, 1)}, 288.0, [1 1 1 1 1]
2018-11-20 19:17:35   [18619822 ms] MUTANT_9{1 (RLO, 8, 1)}, 288.0, [1 1 1 1 1]
2018-11-20 19:17:35   [18619823 ms] MUTANT_10{1 (WTM, 3, 1)}, 850.0, [0 0 0 0 0]
2018-11-20 19:17:35   [18619823 ms] MUTANT_11{1 (RRO, 6, 2)}, 288.0, [1 1 1 1 1]
2018-11-20 19:17:35   [18619823 ms] MUTANT_12{1 (RRO, 5, 5)}, 288.0, [1 1 1 1 1]
2018-11-20 19:17:35   [18619824 ms] MUTANT_13{1 (RRO, 3, 1)}, 288.0, [1 1 1 1 1]
2018-11-20 19:17:35   [18619824 ms] MUTANT_14{1 (RTU, 3, 2)}, 850.0, [0 0 0 0 0]
2018-11-20 19:17:35   [18619824 ms] MUTANT_15{1 (RRO, 8, 2)}, 288.0, [1 1 1 1 1]
2018-11-20 19:17:35   [18619824 ms] MUTANT_16{1 (RRO, 13, 3)}, 569.0, [3 3 3 3 3]
2018-11-20 19:17:35   [18619825 ms] MUTANT_17{1 (RNO, 9, 2)}, 288.0, [1 1 1 1 1]
2018-11-20 19:17:35   [18619825 ms] MUTANT_18{1 (RNO, 4, 1)}, 288.0, [1 1 1 1 1]
2018-11-20 19:17:35   [18619825 ms] MUTANT_19{1 (RRO, 5, 1)}, 288.0, [1 1 1 1 1]
2018-11-20 19:17:35   [18619826 ms] MUTANT_20{1 (RRO, 10, 3)}, 569.0, [3 3 3 3 3]
2018-11-20 19:17:35   [18619826 ms] MUTANT_21{1 (RNO, 18, 1)}, 288.0, [1 1 1 1 1]
2018-11-20 19:17:35   [18619826 ms] MUTANT_22{1 (RSC, 3, 3)}, 850.0, [0 0 0 0 0]
2018-11-20 19:17:35   [18619826 ms] MUTANT_23{1 (RRO, 3, 4)}, 288.0, [1 1 1 1 1]
2018-11-20 19:17:35   [18619826 ms] MUTANT_24{1 (RSC, 4, 3)}, 850.0, [0 0 0 0 0]
2018-11-20 19:17:35   [18619827 ms] MUTANT_25{1 (RTU, 4, 2)}, 850.0, [0 0 0 0 0]
2018-11-20 19:17:35   [18619827 ms] MUTANT_26{1 (RNO, 21, 2)}, 288.0, [1 1 1 1 1]
2018-11-20 19:17:35   [18619827 ms] MUTANT_27{1 (RRO, 14, 3)}, 569.0, [3 3 3 3 3]
2018-11-20 19:17:35   [18619827 ms] MUTANT_28{1 (RRO, 4, 1)}, 288.0, [1 1 1 1 1]
2018-11-20 19:17:35   [18619828 ms] MUTANT_29{1 (RNO, 5, 1)}, 288.0, [1 1 1 1 1]
2018-11-20 19:17:35   [18619828 ms] MUTANT_30{1 (RRO, 7, 2)}, 288.0, [1 1 1 1 1]
2018-11-20 19:17:35   [18619828 ms] MUTANT_31{1 (WTM, 2, 1)}, 850.0, [0 0 0 0 0]
2018-11-20 19:17:35   [18619828 ms] MUTANT_32{1 (RRO, 10, 5)}, 288.0, [1 1 1 1 1]
2018-11-20 19:17:35   [18619829 ms] MUTANT_33{1 (RRO, 11, 2)}, 288.0, [1 1 1 1 1]
2018-11-20 19:17:35   [18619829 ms] MUTANT_34{1 (RNO, 20, 2)}, 288.0, [1 1 1 1 1]
2018-11-20 19:17:35   [18619829 ms] MUTANT_35{1 (RTU, 2, 3)}, 850.0, [0 0 0 0 0]
2018-11-20 19:17:35   [18619829 ms] MUTANT_36{1 (RNO, 16, 1)}, 288.0, [1 1 1 1 1]
2018-11-20 19:17:35   [18619830 ms] MUTANT_37{1 (RRO, 14, 1)}, 288.0, [1 1 1 1 1]
2018-11-20 19:17:35   [18619830 ms] MUTANT_38{1 (RRO, 1, 3)}, 288.0, [1 1 1 1 1]
2018-11-20 19:17:35   [18619830 ms] MUTANT_39{1 (RNO, 8, 1)}, 288.0, [1 1 1 1 1]
2018-11-20 19:17:35   [18619830 ms] MUTANT_40{1 (WTM, 4, 2)}, 288.0, [1 1 1 1 1]
2018-11-20 19:17:35   [18619831 ms] MUTANT_41{1 (RRO, 5, 4)}, 288.0, [1 1 1 1 1]
2018-11-20 19:17:35   [18619831 ms] MUTANT_42{1 (RSC, 4, 1)}, 850.0, [0 0 0 0 0]
2018-11-20 19:17:35   [18619831 ms] MUTANT_43{1 (RRO, 6, 1)}, 288.0, [1 1 1 1 1]
2018-11-20 19:17:35   [18619831 ms] MUTANT_44{1 (RNO, 9, 1)}, 288.0, [1 1 1 1 1]
2018-11-20 19:17:35   [18619832 ms] MUTANT_45{1 (RRO, 13, 4)}, 288.0, [1 1 1 1 1]
2018-11-20 19:17:35   [18619832 ms] MUTANT_46{1 (RRO, 7, 1)}, 288.0, [1 1 1 1 1]
2018-11-20 19:17:35   [18619832 ms] MUTANT_47{1 (RSC, 3, 1)}, 850.0, [0 0 0 0 0]
2018-11-20 19:17:35   [18619832 ms] MUTANT_48{1 (RRO, 10, 2)}, 288.0, [1 1 1 1 1]
2018-11-20 19:17:35   [18619833 ms] MUTANT_49{1 (RRO, 2, 3)}, 569.0, [3 3 3 3 3]
2018-11-20 19:17:35   [18619833 ms] MUTANT_50{1 (RNO, 15, 1)}, 288.0, [1 1 1 1 1]
2018-11-20 19:17:35   [18619833 ms] MUTANT_51{1 (WTM, 1, 1)}, 850.0, [0 0 0 0 0]
2018-11-20 19:17:35   [18619833 ms] MUTANT_52{1 (WBT, 3, 1)}, 288.0, [1 1 1 1 1]
2018-11-20 19:17:35   [18619833 ms] MUTANT_53{1 (RSC, 3, 4)}, 850.0, [0 0 0 0 0]
2018-11-20 19:17:35   [18619834 ms] MUTANT_54{1 (WBT, 2, 1)}, 288.0, [1 1 1 1 1]
2018-11-20 19:17:35   [18619834 ms] MUTANT_55{1 (RRO, 8, 5)}, 288.0, [1 1 1 1 1]
2018-11-20 19:17:35   [18619834 ms] MUTANT_56{1 (PRE, 3, 1)}, 288.0, [1 1 1 1 1]
2018-11-20 19:17:35   [18619834 ms] MUTANT_57{1 (RNO, 11, 2)}, 288.0, [1 1 1 1 1]
2018-11-20 19:17:35   [18619835 ms] MUTANT_58{1 (WTM, 3, 2)}, 288.0, [1 1 1 1 1]
2018-11-20 19:17:35   [18619835 ms] MUTANT_59{1 (RNO, 7, 1)}, 288.0, [1 1 1 1 1]
2018-11-20 19:17:35   [18619835 ms] MUTANT_60{1 (RNO, 17, 1)}, 288.0, [1 1 1 1 1]
2018-11-20 19:17:35   [18619835 ms] MUTANT_61{1 (RRO, 15, 1)}, 288.0, [1 1 1 1 1]
2018-11-20 19:17:35   [18619835 ms] MUTANT_62{1 (RTU, 3, 1)}, 850.0, [0 0 0 0 0]
2018-11-20 19:17:35   [18619836 ms] MUTANT_63{1 (RRO, 9, 5)}, 288.0, [1 1 1 1 1]
2018-11-20 19:17:35   [18619836 ms] MUTANT_64{1 (RNO, 1, 2)}, 288.0, [1 1 1 1 1]
2018-11-20 19:17:35   [18619836 ms] MUTANT_65{1 (RNO, 10, 2)}, 288.0, [1 1 1 1 1]
2018-11-20 19:17:35   [18619836 ms] MUTANT_66{1 (RSC, 1, 3)}, 850.0, [0 0 0 0 0]
2018-11-20 19:17:35   [18619837 ms] MUTANT_67{1 (RRO, 15, 4)}, 288.0, [1 1 1 1 1]
2018-11-20 19:17:35   [18619837 ms] MUTANT_68{1 (RRO, 6, 4)}, 288.0, [1 1 1 1 1]
2018-11-20 19:17:35   [18619837 ms] MUTANT_69{1 (PRE, 4, 1)}, 288.0, [1 1 1 1 1]
2018-11-20 19:17:35   [18619837 ms] MUTANT_70{1 (RNO, 19, 2)}, 288.0, [1 1 1 1 1]
2018-11-20 19:17:35   [18619837 ms] MUTANT_71{1 (RRO, 12, 3)}, 569.0, [3 3 3 3 3]
2018-11-20 19:17:35   [18619838 ms] MUTANT_72{1 (RRO, 3, 3)}, 569.0, [3 3 3 3 3]
2018-11-20 19:17:35   [18619838 ms] MUTANT_73{1 (RSC, 4, 4)}, 850.0, [0 0 0 0 0]
2018-11-20 19:17:35   [18619838 ms] MUTANT_74{1 (RRO, 9, 4)}, 288.0, [1 1 1 1 1]
2018-11-20 19:17:35   [18619838 ms] MUTANT_75{1 (RRO, 10, 1)}, 288.0, [1 1 1 1 1]
2018-11-20 19:17:35   [18619839 ms] MUTANT_76{1 (PRE, 1, 1)}, 288.0, [1 1 1 1 1]
2018-11-20 19:17:35   [18619839 ms] MUTANT_77{1 (RTU, 3, 4)}, 850.0, [0 0 0 0 0]
2018-11-20 19:17:35   [18619839 ms] MUTANT_78{1 (RNO, 12, 1)}, 850.0, [0 0 0 0 0]
2018-11-20 19:17:35   [18619839 ms] MUTANT_79{1 (WTM, 1, 2)}, 288.0, [1 1 1 1 1]
2018-11-20 19:17:35   [18619839 ms] MUTANT_80{1 (RNO, 2, 2)}, 569.0, [3 3 3 3 3]
2018-11-20 19:17:35   [18619840 ms] MUTANT_81{1 (RSC, 3, 5)}, 850.0, [0 0 0 0 0]
2018-11-20 19:17:35   [18619840 ms] MUTANT_82{1 (RSC, 4, 5)}, 850.0, [0 0 0 0 0]
2018-11-20 19:17:35   [18619840 ms] MUTANT_83{1 (RLO, 2, 1)}, 288.0, [1 1 1 1 1]
2018-11-20 19:17:35   [18619840 ms] MUTANT_84{1 (RRO, 1, 2)}, 288.0, [1 1 1 1 1]
2018-11-20 19:17:35   [18619841 ms] MUTANT_85{1 (RSC, 1, 1)}, 850.0, [0 0 0 0 0]
2018-11-20 19:17:35   [18619841 ms] MUTANT_86{1 (RNO, 11, 1)}, 288.0, [1 1 1 1 1]
2018-11-20 19:17:35   [18619841 ms] MUTANT_87{1 (RTU, 2, 4)}, 850.0, [0 0 0 0 0]
2018-11-20 19:17:35   [18619841 ms] MUTANT_88{1 (RSC, 4, 2)}, 850.0, [0 0 0 0 0]
2018-11-20 19:17:35   [18619841 ms] MUTANT_89{1 (RRO, 15, 2)}, 288.0, [1 1 1 1 1]
2018-11-20 19:17:35   [18619842 ms] MUTANT_90{1 (RRO, 4, 3)}, 569.0, [3 3 3 3 3]
2018-11-20 19:17:35   [18619842 ms] MUTANT_91{1 (RRO, 12, 5)}, 288.0, [1 1 1 1 1]
2018-11-20 19:17:35   [18619842 ms] MUTANT_92{1 (RRO, 14, 5)}, 288.0, [1 1 1 1 1]
2018-11-20 19:17:35   [18619842 ms] MUTANT_93{1 (RTU, 4, 4)}, 850.0, [0 0 0 0 0]
2018-11-20 19:17:35   [18619843 ms] MUTANT_94{1 (RNO, 13, 1)}, 288.0, [1 1 1 1 1]
2018-11-20 19:17:35   [18619843 ms] MUTANT_95{1 (RNO, 18, 2)}, 288.0, [1 1 1 1 1]
2018-11-20 19:17:35   [18619843 ms] MUTANT_96{1 (RNO, 14, 1)}, 288.0, [1 1 1 1 1]
2018-11-20 19:17:35   [18619843 ms] MUTANT_97{1 (RRO, 7, 4)}, 288.0, [1 1 1 1 1]
2018-11-20 19:17:35   [18619843 ms] MUTANT_98{1 (RRO, 2, 2)}, 288.0, [1 1 1 1 1]
2018-11-20 19:17:35   [18619844 ms] MUTANT_99{1 (RTU, 1, 4)}, 850.0, [0 0 0 0 0]
2018-11-20 19:17:35   [18619844 ms] MUTANT_100{1 (RNO, 10, 1)}, 288.0, [1 1 1 1 1]
2018-11-20 19:17:35   [18619844 ms] MUTANT_101{1 (RSC, 1, 4)}, 850.0, [0 0 0 0 0]
2018-11-20 19:17:35   [18619844 ms] MUTANT_102{1 (RRO, 1, 5)}, 343.0, [1 1 1 3 1]
2018-11-20 19:17:35   [18619845 ms] MUTANT_103{1 (RRO, 6, 3)}, 569.0, [3 3 3 3 3]
2018-11-20 19:17:35   [18619845 ms] MUTANT_104{1 (RRO, 15, 5)}, 288.0, [1 1 1 1 1]
2018-11-20 19:17:35   [18619845 ms] MUTANT_105{1 (RLO, 4, 1)}, 288.0, [1 1 1 1 1]
2018-11-20 19:17:35   [18619845 ms] MUTANT_106{1 (RTU, 2, 1)}, 850.0, [0 0 0 0 0]
2018-11-20 19:17:35   [18619846 ms] MUTANT_107{1 (RSC, 2, 1)}, 850.0, [0 0 0 0 0]
2018-11-20 19:17:35   [18619846 ms] MUTANT_108{1 (RLO, 1, 1)}, 288.0, [1 1 1 1 1]
2018-11-20 19:17:35   [18619846 ms] MUTANT_109{1 (RNO, 4, 2)}, 288.0, [1 1 1 1 1]
2018-11-20 19:17:35   [18619846 ms] MUTANT_110{1 (RRO, 8, 1)}, 288.0, [1 1 1 1 1]
2018-11-20 19:17:35   [18619847 ms] MUTANT_111{1 (RRO, 12, 2)}, 288.0, [1 1 1 1 1]
2018-11-20 19:17:35   [18619847 ms] MUTANT_112{1 (RLO, 5, 1)}, 288.0, [1 1 1 1 1]
2018-11-20 19:17:35   [18619847 ms] MUTANT_113{1 (RRO, 13, 1)}, 288.0, [1 1 1 1 1]
2018-11-20 19:17:35   [18619847 ms] MUTANT_114{1 (RRO, 11, 5)}, 288.0, [1 1 1 1 1]
2018-11-20 19:17:35   [18619847 ms] MUTANT_115{1 (PRE, 2, 1)}, 288.0, [1 1 1 1 1]
2018-11-20 19:17:35   [18619848 ms] MUTANT_116{1 (RRO, 9, 1)}, 288.0, [1 1 1 1 1]
2018-11-20 19:17:35   [18619848 ms] MUTANT_117{1 (RRO, 2, 5)}, 288.0, [1 1 1 1 1]
2018-11-20 19:17:35   [18619848 ms] MUTANT_118{1 (RSC, 2, 4)}, 850.0, [0 0 0 0 0]
2018-11-20 19:17:35   [18619848 ms] MUTANT_119{1 (RNO, 17, 2)}, 288.0, [1 1 1 1 1]
2018-11-20 19:17:35   [18619849 ms] MUTANT_120{1 (RRO, 5, 3)}, 569.0, [3 3 3 3 3]
2018-11-20 19:17:35   [18619849 ms] MUTANT_121{1 (RRO, 8, 4)}, 288.0, [1 1 1 1 1]
2018-11-20 19:17:35   [18619849 ms] MUTANT_122{1 (WBT, 4, 1)}, 288.0, [1 1 1 1 1]
2018-11-20 19:17:35   [18619850 ms] MUTANT_123{1 (RSC, 1, 2)}, 850.0, [0 0 0 0 0]
2018-11-20 19:17:35   [18619850 ms] MUTANT_124{1 (RRO, 15, 3)}, 569.0, [3 3 3 3 3]
2018-11-20 19:17:35   [18619850 ms] MUTANT_125{1 (RRO, 4, 2)}, 288.0, [1 1 1 1 1]
2018-11-20 19:17:35   [18619850 ms] MUTANT_126{1 (RRO, 12, 4)}, 288.0, [1 1 1 1 1]
2018-11-20 19:17:35   [18619851 ms] MUTANT_127{1 (RNO, 5, 2)}, 288.0, [1 1 1 1 1]
2018-11-20 19:17:35   [18619851 ms] MUTANT_128{1 (RRO, 8, 3)}, 569.0, [3 3 3 3 3]
2018-11-20 19:17:35   [18619851 ms] MUTANT_129{1 (RNO, 13, 2)}, 288.0, [1 1 1 1 1]
2018-11-20 19:17:35   [18619851 ms] MUTANT_130{1 (RRO, 3, 2)}, 288.0, [1 1 1 1 1]
2018-11-20 19:17:35   [18619852 ms] MUTANT_131{1 (RNO, 2, 1)}, 343.0, [1 1 1 3 1]
2018-11-20 19:17:35   [18619852 ms] MUTANT_132{1 (RTU, 3, 3)}, 850.0, [0 0 0 0 0]
2018-11-20 19:17:35   [18619852 ms] MUTANT_133{1 (RRO, 9, 3)}, 569.0, [3 3 3 3 3]
2018-11-20 19:17:35   [18619852 ms] MUTANT_134{1 (RNO, 7, 2)}, 288.0, [1 1 1 1 1]
2018-11-20 19:17:35   [18619852 ms] MUTANT_135{1 (RRO, 3, 5)}, 288.0, [1 1 1 1 1]
2018-11-20 19:17:35   [18619853 ms] MUTANT_136{1 (RSC, 1, 5)}, 850.0, [0 0 0 0 0]
2018-11-20 19:17:35   [18619853 ms] MUTANT_137{1 (RLO, 6, 1)}, 288.0, [1 1 1 1 1]
2018-11-20 19:17:35   [18619853 ms] MUTANT_138{1 (RRO, 12, 1)}, 288.0, [1 1 1 1 1]
2018-11-20 19:17:35   [18619853 ms] MUTANT_139{1 (RTU, 4, 3)}, 850.0, [0 0 0 0 0]
2018-11-20 19:17:35   [18619854 ms] MUTANT_140{1 (RRO, 1, 1)}, 343.0, [1 1 1 3 1]
2018-11-20 19:17:35   [18619854 ms] MUTANT_141{1 (RNO, 21, 1)}, 288.0, [1 1 1 1 1]
2018-11-20 19:17:35   [18619854 ms] MUTANT_142{1 (RNO, 3, 1)}, 288.0, [1 1 1 1 1]
2018-11-20 19:17:35   [18619854 ms] MUTANT_143{1 (RRO, 11, 4)}, 288.0, [1 1 1 1 1]
2018-11-20 19:17:35   [18619855 ms] MUTANT_144{1 (RNO, 15, 2)}, 288.0, [1 1 1 1 1]
2018-11-20 19:17:35   [18619855 ms] MUTANT_145{1 (RSC, 2, 5)}, 850.0, [0 0 0 0 0]
2018-11-20 19:17:35   [18619855 ms] MUTANT_146{1 (RRO, 5, 2)}, 288.0, [1 1 1 1 1]
2018-11-20 19:17:35   [18619855 ms] MUTANT_147{1 (RRO, 13, 2)}, 288.0, [1 1 1 1 1]
2018-11-20 19:17:35   [18619855 ms] MUTANT_148{1 (RNO, 14, 2)}, 288.0, [1 1 1 1 1]
2018-11-20 19:17:35   [18619856 ms] MUTANT_149{1 (RRO, 11, 1)}, 288.0, [1 1 1 1 1]
2018-11-20 19:17:35   [18619856 ms] MUTANT_150{1 (RRO, 2, 1)}, 288.0, [1 1 1 1 1]
2018-11-20 19:17:35   [18619856 ms] MUTANT_151{1 (RTU, 2, 2)}, 850.0, [0 0 0 0 0]
2018-11-20 19:17:35   [18619856 ms] MUTANT_152{1 (RRO, 1, 4)}, 288.0, [1 1 1 1 1]
2018-11-20 19:17:35   [18619857 ms] MUTANT_153{1 (RRO, 10, 4)}, 288.0, [1 1 1 1 1]
2018-11-20 19:17:35   [18619857 ms] MUTANT_154{1 (RRO, 14, 2)}, 288.0, [1 1 1 1 1]
2018-11-20 19:17:35   [18619857 ms] MUTANT_155{1 (WTM, 4, 1)}, 850.0, [0 0 0 0 0]
2018-11-20 19:17:35   [18619857 ms] MUTANT_156{1 (RLO, 7, 1)}, 288.0, [1 1 1 1 1]
2018-11-20 19:17:35   [18619857 ms] MUTANT_157{1 (RSC, 3, 2)}, 850.0, [0 0 0 0 0]
2018-11-20 19:17:35   [18619858 ms] MUTANT_158{1 (RRO, 4, 5)}, 288.0, [1 1 1 1 1]
2018-11-20 19:17:35   [18619858 ms] MUTANT_159{1 (RRO, 13, 5)}, 288.0, [1 1 1 1 1]
