hof-0.30-acknowledgements 19.55
hof-0.30-administratively 19.55
hof-0.30-Australopithecus 16.75
hof-0.30-bloodthirstiness 20.67
hof-0.30-cinematographers 26.25
hof-0.30-counterespionage 21.78
hof-0.30-Czechoslovakians 25.69
hof-0.30-departmentalized 19.55
hof-0.30-disqualification 20.11
hof-0.30-enthusiastically 24.02
hof-0.30-flibbertigibbets 20.11
hof-0.30-gastrointestinal 23.46
hof-0.30-hospitalizations 23.46
hof-0.30-hydroelectricity 21.78
hof-0.30-intellectualized 18.99
hof-0.30-lightheartedness 27.93
hof-0.30-melodramatically 19.55
hof-0.30-multimillionaire 24.58
hof-0.30-nationalizations 22.34
hof-0.30-neurotransmitter 20.67
hof-0.30-overcompensating 22.90
hof-0.30-photojournalists 25.13
hof-0.30-predetermination 20.11
hof-0.30-rambunctiousness 21.78
hof-0.30-sentimentalizing 26.25
hof-0.30-synchronizations 25.69
hof-0.30-teleconferencing 28.49
hof-0.30-transcendentally 16.20
hof-0.30-unscrupulousness 17.87
hof-0.30-whatchamacallits 24.02
hof-0.45-acknowledgements 32.40
hof-0.45-administratively 33.51
hof-0.45-Australopithecus 24.58
hof-0.45-bloodthirstiness 35.75
hof-0.45-cinematographers 35.75
hof-0.45-counterespionage 33.51
hof-0.45-Czechoslovakians 36.87
hof-0.45-departmentalized 35.19
hof-0.45-disqualification 31.28
hof-0.45-enthusiastically 27.93
hof-0.45-flibbertigibbets 27.37
hof-0.45-gastrointestinal 32.96
hof-0.45-hospitalizations 32.40
hof-0.45-hydroelectricity 34.07
hof-0.45-intellectualized 29.05
hof-0.45-lightheartedness 34.07
hof-0.45-melodramatically 30.72
hof-0.45-multimillionaire 31.84
hof-0.45-nationalizations 34.63
hof-0.45-neurotransmitter 26.81
hof-0.45-overcompensating 40.22
hof-0.45-photojournalists 37.43
hof-0.45-predetermination 31.28
hof-0.45-rambunctiousness 27.93
hof-0.45-sentimentalizing 36.31
hof-0.45-synchronizations 37.43
hof-0.45-teleconferencing 35.19
hof-0.45-transcendentally 25.69
hof-0.45-unscrupulousness 28.49
hof-0.45-whatchamacallits 30.72
hof-0.60-acknowledgements 46.92
hof-0.60-administratively 44.69
hof-0.60-Australopithecus 39.10
hof-0.60-bloodthirstiness 50.27
hof-0.60-cinematographers 48.60
hof-0.60-counterespionage 53.63
hof-0.60-Czechoslovakians 58.65
hof-0.60-departmentalized 54.74
hof-0.60-disqualification 39.10
hof-0.60-enthusiastically 40.78
hof-0.60-flibbertigibbets 41.34
hof-0.60-gastrointestinal 42.45
hof-0.60-hospitalizations 45.25
hof-0.60-hydroelectricity 48.04
hof-0.60-intellectualized 43.01
hof-0.60-lightheartedness 48.04
hof-0.60-melodramatically 43.01
hof-0.60-multimillionaire 41.34
hof-0.60-nationalizations 41.89
hof-0.60-neurotransmitter 40.22
hof-0.60-overcompensating 57.54
hof-0.60-photojournalists 55.30
hof-0.60-predetermination 45.81
hof-0.60-rambunctiousness 45.81
hof-0.60-sentimentalizing 46.36
hof-0.60-synchronizations 53.07
hof-0.60-teleconferencing 53.63
hof-0.60-transcendentally 31.84
hof-0.60-unscrupulousness 43.57
hof-0.60-whatchamacallits 37.43
hof-0.75-acknowledgements 56.42
hof-0.75-administratively 60.33
hof-0.75-Australopithecus 55.86
hof-0.75-bloodthirstiness 62.01
hof-0.75-cinematographers 72.06
hof-0.75-counterespionage 65.36
hof-0.75-Czechoslovakians 68.71
hof-0.75-departmentalized 68.15
hof-0.75-disqualification 48.04
hof-0.75-enthusiastically 58.65
hof-0.75-flibbertigibbets 49.72
hof-0.75-gastrointestinal 54.74
hof-0.75-hospitalizations 64.24
hof-0.75-hydroelectricity 58.65
hof-0.75-intellectualized 63.12
hof-0.75-lightheartedness 64.80
hof-0.75-melodramatically 62.01
hof-0.75-multimillionaire 62.56
hof-0.75-nationalizations 50.27
hof-0.75-neurotransmitter 56.98
hof-0.75-overcompensating 68.71
hof-0.75-photojournalists 64.80
hof-0.75-predetermination 58.65
hof-0.75-rambunctiousness 58.10
hof-0.75-sentimentalizing 60.89
hof-0.75-synchronizations 65.92
hof-0.75-teleconferencing 67.59
hof-0.75-transcendentally 65.36
hof-0.75-unscrupulousness 58.65
hof-0.75-whatchamacallits 60.89
hof-0.90-acknowledgements 80.44
hof-0.90-administratively 74.30
hof-0.90-Australopithecus 74.30
hof-0.90-bloodthirstiness 81.00
hof-0.90-cinematographers 83.79
hof-0.90-counterespionage 82.68
hof-0.90-Czechoslovakians 87.70
hof-0.90-departmentalized 93.85
hof-0.90-disqualification 83.24
hof-0.90-enthusiastically 72.62
hof-0.90-flibbertigibbets 72.06
hof-0.90-gastrointestinal 73.74
hof-0.90-hospitalizations 78.77
hof-0.90-hydroelectricity 70.94
hof-0.90-intellectualized 78.77
hof-0.90-lightheartedness 89.38
hof-0.90-melodramatically 74.30
hof-0.90-multimillionaire 75.41
hof-0.90-nationalizations 83.79
hof-0.90-neurotransmitter 82.68
hof-0.90-overcompensating 82.68
hof-0.90-photojournalists 84.35
hof-0.90-predetermination 78.77
hof-0.90-rambunctiousness 75.41
hof-0.90-sentimentalizing 89.38
hof-0.90-synchronizations 86.03
hof-0.90-teleconferencing 84.35
hof-0.90-transcendentally 84.35
hof-0.90-unscrupulousness 69.83
hof-0.90-whatchamacallits 77.09
