hof-0.30-acknowledgements 28.33
hof-0.30-administratively 29.16
hof-0.30-Australopithecus 26.66
hof-0.30-bloodthirstiness 22.50
hof-0.30-cinematographers 29.16
hof-0.30-counterespionage 22.50
hof-0.30-Czechoslovakians 30.00
hof-0.30-departmentalized 30.00
hof-0.30-disqualification 26.66
hof-0.30-enthusiastically 28.33
hof-0.30-flibbertigibbets 27.50
hof-0.30-gastrointestinal 28.33
hof-0.30-hospitalizations 30.83
hof-0.30-hydroelectricity 27.50
hof-0.30-intellectualized 24.16
hof-0.30-lightheartedness 17.50
hof-0.30-melodramatically 31.66
hof-0.30-multimillionaire 24.16
hof-0.30-nationalizations 25.00
hof-0.30-neurotransmitter 27.50
hof-0.30-overcompensating 25.83
hof-0.30-photojournalists 25.00
hof-0.30-predetermination 26.66
hof-0.30-rambunctiousness 26.66
hof-0.30-sentimentalizing 24.16
hof-0.30-synchronizations 27.50
hof-0.30-teleconferencing 32.50
hof-0.30-transcendentally 24.16
hof-0.30-unscrupulousness 28.33
hof-0.30-whatchamacallits 23.33
hof-0.45-acknowledgements 38.33
hof-0.45-administratively 46.66
hof-0.45-Australopithecus 42.50
hof-0.45-bloodthirstiness 35.83
hof-0.45-cinematographers 42.50
hof-0.45-counterespionage 38.33
hof-0.45-Czechoslovakians 43.33
hof-0.45-departmentalized 41.66
hof-0.45-disqualification 40.00
hof-0.45-enthusiastically 41.66
hof-0.45-flibbertigibbets 39.16
hof-0.45-gastrointestinal 42.50
hof-0.45-hospitalizations 45.83
hof-0.45-hydroelectricity 43.33
hof-0.45-intellectualized 38.33
hof-0.45-lightheartedness 32.50
hof-0.45-melodramatically 42.50
hof-0.45-multimillionaire 35.00
hof-0.45-nationalizations 42.50
hof-0.45-neurotransmitter 40.00
hof-0.45-overcompensating 41.66
hof-0.45-photojournalists 41.66
hof-0.45-predetermination 45.83
hof-0.45-rambunctiousness 37.50
hof-0.45-sentimentalizing 35.83
hof-0.45-synchronizations 41.66
hof-0.45-teleconferencing 45.83
hof-0.45-transcendentally 43.33
hof-0.45-unscrupulousness 42.50
hof-0.45-whatchamacallits 35.83
hof-0.60-acknowledgements 57.50
hof-0.60-administratively 59.16
hof-0.60-Australopithecus 59.16
hof-0.60-bloodthirstiness 53.33
hof-0.60-cinematographers 59.16
hof-0.60-counterespionage 47.50
hof-0.60-Czechoslovakians 62.50
hof-0.60-departmentalized 61.66
hof-0.60-disqualification 55.00
hof-0.60-enthusiastically 60.00
hof-0.60-flibbertigibbets 53.33
hof-0.60-gastrointestinal 52.50
hof-0.60-hospitalizations 56.66
hof-0.60-hydroelectricity 55.83
hof-0.60-intellectualized 50.00
hof-0.60-lightheartedness 44.16
hof-0.60-melodramatically 59.16
hof-0.60-multimillionaire 55.00
hof-0.60-nationalizations 54.16
hof-0.60-neurotransmitter 54.16
hof-0.60-overcompensating 58.33
hof-0.60-photojournalists 59.16
hof-0.60-predetermination 60.00
hof-0.60-rambunctiousness 65.00
hof-0.60-sentimentalizing 47.50
hof-0.60-synchronizations 54.16
hof-0.60-teleconferencing 60.00
hof-0.60-transcendentally 56.66
hof-0.60-unscrupulousness 54.16
hof-0.60-whatchamacallits 51.66
hof-0.75-acknowledgements 69.16
hof-0.75-administratively 70.00
hof-0.75-Australopithecus 70.83
hof-0.75-bloodthirstiness 67.50
hof-0.75-cinematographers 68.33
hof-0.75-counterespionage 65.83
hof-0.75-Czechoslovakians 73.33
hof-0.75-departmentalized 77.50
hof-0.75-disqualification 67.50
hof-0.75-enthusiastically 72.50
hof-0.75-flibbertigibbets 71.66
hof-0.75-gastrointestinal 69.16
hof-0.75-hospitalizations 65.83
hof-0.75-hydroelectricity 70.00
hof-0.75-intellectualized 74.16
hof-0.75-lightheartedness 69.16
hof-0.75-melodramatically 67.50
hof-0.75-multimillionaire 66.66
hof-0.75-nationalizations 70.00
hof-0.75-neurotransmitter 69.16
hof-0.75-overcompensating 75.00
hof-0.75-photojournalists 72.50
hof-0.75-predetermination 68.33
hof-0.75-rambunctiousness 74.16
hof-0.75-sentimentalizing 70.83
hof-0.75-synchronizations 69.16
hof-0.75-teleconferencing 71.66
hof-0.75-transcendentally 71.66
hof-0.75-unscrupulousness 67.50
hof-0.75-whatchamacallits 69.16
hof-0.90-acknowledgements 85.83
hof-0.90-administratively 85.83
hof-0.90-Australopithecus 85.00
hof-0.90-bloodthirstiness 84.16
hof-0.90-cinematographers 80.00
hof-0.90-counterespionage 82.50
hof-0.90-Czechoslovakians 84.16
hof-0.90-departmentalized 88.33
hof-0.90-disqualification 81.66
hof-0.90-enthusiastically 89.16
hof-0.90-flibbertigibbets 82.50
hof-0.90-gastrointestinal 86.66
hof-0.90-hospitalizations 83.33
hof-0.90-hydroelectricity 84.16
hof-0.90-intellectualized 87.50
hof-0.90-lightheartedness 94.16
hof-0.90-melodramatically 80.00
hof-0.90-multimillionaire 84.16
hof-0.90-nationalizations 84.16
hof-0.90-neurotransmitter 84.16
hof-0.90-overcompensating 85.83
hof-0.90-photojournalists 90.00
hof-0.90-predetermination 82.50
hof-0.90-rambunctiousness 88.33
hof-0.90-sentimentalizing 88.33
hof-0.90-synchronizations 88.33
hof-0.90-teleconferencing 83.33
hof-0.90-transcendentally 84.16
hof-0.90-unscrupulousness 90.00
hof-0.90-whatchamacallits 80.00
