PRE 3 1 1 183 1
WTM 8 1 1 233 1
WTM 8 1 2 233 1
WBT 10 1 1 233 1
RTU 12 1 1 245 1
RTU 12 1 2 245 1
RTU 12 1 3 245 1
RTU 12 1 4 245 1
RRO 15 1 1 200 1
RRO 15 1 2 200 1
RRO 15 1 3 200 1
RRO 15 1 4 200 1
RRO 15 1 5 200 1
RNO 16 1 1 34 1
RNO 16 1 2 34 1
RNO 16 2 1 230 1
RNO 16 2 2 230 1
RSC 32 1 1 26 1
RSC 32 1 2 26 1
RSC 32 1 3 26 1
RSC 32 1 4 26 1
RSC 32 1 5 26 1
PRE 3 2 1 208 2
WTM 8 2 1 403 2
WTM 8 2 2 403 2
WBT 10 2 1 403 2
RLO 11 1 1 259 2
RLO 11 2 1 282 2
RLO 11 3 1 306 2
RLO 11 4 1 329 2
RTU 12 2 1 415 2
RTU 12 2 2 415 2
RTU 12 2 3 415 2
RTU 12 2 4 415 2
RRO 15 2 1 225 2
RRO 15 2 2 225 2
RRO 15 2 3 225 2
RRO 15 2 4 225 2
RRO 15 2 5 225 2
RRO 15 3 1 255 2
RRO 15 3 2 255 2
RRO 15 3 3 255 2
RRO 15 3 4 255 2
RRO 15 3 5 255 2
RRO 15 4 1 279 2
RRO 15 4 2 279 2
RRO 15 4 3 279 2
RRO 15 4 4 279 2
RRO 15 4 5 279 2
RRO 15 5 1 302 2
RRO 15 5 2 302 2
RRO 15 5 3 302 2
RRO 15 5 4 302 2
RRO 15 5 5 302 2
RRO 15 6 1 326 2
RRO 15 6 2 326 2
RRO 15 6 3 326 2
RRO 15 6 4 326 2
RRO 15 6 5 326 2
RRO 15 7 1 349 2
RRO 15 7 2 349 2
RRO 15 7 3 349 2
RRO 15 7 4 349 2
RRO 15 7 5 349 2
RRO 15 8 1 373 2
RRO 15 8 2 373 2
RRO 15 8 3 373 2
RRO 15 8 4 373 2
RRO 15 8 5 373 2
RNO 16 3 1 40 2
RNO 16 3 2 40 2
RNO 16 4 1 181 2
RNO 16 4 2 181 2
RNO 16 5 1 258 2
RNO 16 5 2 258 2
RNO 16 6 1 282 2
RNO 16 6 2 282 2
RNO 16 7 1 305 2
RNO 16 7 2 305 2
RNO 16 8 1 329 2
RNO 16 8 2 329 2
RNO 16 9 1 352 2
RNO 16 9 2 352 2
RNO 16 10 1 376 2
RNO 16 10 2 376 2
RNO 16 11 1 399 2
RNO 16 11 2 399 2
RNO 16 12 1 413 2
RNO 16 12 2 413 2
RSC 32 2 1 32 2
RSC 32 2 2 32 2
RSC 32 2 3 32 2
RSC 32 2 4 32 2
RSC 32 2 5 32 2
PRE 3 3 1 192 3
WTM 8 3 1 237 3
WTM 8 3 2 237 3
WBT 10 3 1 237 3
RTU 12 3 1 249 3
RTU 12 3 2 249 3
RTU 12 3 3 249 3
RTU 12 3 4 249 3
RRO 15 9 1 209 3
RRO 15 9 2 209 3
RRO 15 9 3 209 3
RRO 15 9 4 209 3
RRO 15 9 5 209 3
RNO 16 13 1 42 3
RNO 16 13 2 42 3
RNO 16 14 1 234 3
RNO 16 14 2 234 3
RSC 32 3 1 34 3
RSC 32 3 2 34 3
RSC 32 3 3 34 3
RSC 32 3 4 34 3
RSC 32 3 5 34 3
PRE 3 4 1 216 4
WTM 8 4 1 387 4
WTM 8 4 2 387 4
WBT 10 4 1 387 4
RLO 11 5 1 266 4
RLO 11 6 1 290 4
RLO 11 7 1 313 4
RLO 11 8 1 337 4
RTU 12 4 1 399 4
RTU 12 4 2 399 4
RTU 12 4 3 399 4
RTU 12 4 4 399 4
RRO 15 10 1 233 4
RRO 15 10 2 233 4
RRO 15 10 3 233 4
RRO 15 10 4 233 4
RRO 15 10 5 233 4
RRO 15 11 1 263 4
RRO 15 11 2 263 4
RRO 15 11 3 263 4
RRO 15 11 4 263 4
RRO 15 11 5 263 4
RRO 15 12 1 286 4
RRO 15 12 2 286 4
RRO 15 12 3 286 4
RRO 15 12 4 286 4
RRO 15 12 5 286 4
RRO 15 13 1 310 4
RRO 15 13 2 310 4
RRO 15 13 3 310 4
RRO 15 13 4 310 4
RRO 15 13 5 310 4
RRO 15 14 1 333 4
RRO 15 14 2 333 4
RRO 15 14 3 333 4
RRO 15 14 4 333 4
RRO 15 14 5 333 4
RRO 15 15 1 357 4
RRO 15 15 2 357 4
RRO 15 15 3 357 4
RRO 15 15 4 357 4
RRO 15 15 5 357 4
RNO 16 15 1 42 4
RNO 16 15 2 42 4
RNO 16 16 1 189 4
RNO 16 16 2 189 4
RNO 16 17 1 266 4
RNO 16 17 2 266 4
RNO 16 18 1 289 4
RNO 16 18 2 289 4
RNO 16 19 1 313 4
RNO 16 19 2 313 4
RNO 16 20 1 336 4
RNO 16 20 2 336 4
RNO 16 21 1 360 4
RNO 16 21 2 360 4
RNO 16 22 1 383 4
RNO 16 22 2 383 4
RNO 16 23 1 397 4
RNO 16 23 2 397 4
RSC 32 4 1 34 4
RSC 32 4 2 34 4
RSC 32 4 3 34 4
RSC 32 4 4 34 4
RSC 32 4 5 34 4
