op0	loc0	attr0	test0	test1	test2	test3	test4
3	1	1	1	1	1	1	1
3	2	1	1	1	1	1	1
3	3	1	1	1	1	1	1
3	4	1	1	1	1	1	1
8	1	1	0	0	0	0	0
8	1	2	1	1	1	1	1
8	2	1	0	0	0	0	0
8	2	2	1	1	1	1	1
8	3	1	0	0	0	0	0
8	3	2	1	1	1	1	1
8	4	1	0	0	0	0	0
8	4	2	1	1	1	1	1
10	1	1	0	0	0	0	0
10	2	1	1	1	1	1	1
10	3	1	1	1	1	1	1
10	4	1	1	1	1	1	1
11	1	1	1	1	1	1	1
11	2	1	1	1	1	1	1
11	3	1	1	1	1	1	1
11	4	1	1	1	1	1	1
11	5	1	1	1	1	1	1
11	6	1	1	1	1	1	1
11	7	1	1	1	1	1	1
11	8	1	1	1	1	1	1
12	1	1	0	0	0	0	0
12	1	2	0	0	0	0	0
12	1	3	0	0	0	0	0
12	1	4	0	0	0	0	0
12	2	1	0	0	0	0	0
12	2	2	0	0	0	0	0
12	2	3	0	0	0	0	0
12	2	4	0	0	0	0	0
12	3	1	0	0	0	0	0
12	3	2	0	0	0	0	0
12	3	3	0	0	0	0	0
12	3	4	0	0	0	0	0
12	4	1	0	0	0	0	0
12	4	2	0	0	0	0	0
12	4	3	0	0	0	0	0
12	4	4	0	0	0	0	0
15	1	1	1	1	1	3	1
15	1	2	1	1	1	1	1
15	1	3	1	1	1	1	1
15	1	4	1	1	1	1	1
15	1	5	1	1	1	3	1
15	2	1	1	1	1	1	1
15	2	2	1	1	1	1	1
15	2	3	3	3	3	3	3
15	2	4	1	1	1	1	1
15	2	5	1	1	1	1	1
15	3	1	1	1	1	1	1
15	3	2	1	1	1	1	1
15	3	3	3	3	3	3	3
15	3	4	1	1	1	1	1
15	3	5	1	1	1	1	1
15	4	1	1	1	1	1	1
15	4	2	1	1	1	1	1
15	4	3	3	3	3	3	3
15	4	4	1	1	1	1	1
15	4	5	1	1	1	1	1
15	5	1	1	1	1	1	1
15	5	2	1	1	1	1	1
15	5	3	3	3	3	3	3
15	5	4	1	1	1	1	1
15	5	5	1	1	1	1	1
15	6	1	1	1	1	1	1
15	6	2	1	1	1	1	1
15	6	3	3	3	3	3	3
15	6	4	1	1	1	1	1
15	6	5	1	1	1	1	1
15	7	1	1	1	1	1	1
15	7	2	1	1	1	1	1
15	7	3	3	3	3	3	3
15	7	4	1	1	1	1	1
15	7	5	1	1	1	1	1
15	8	1	1	1	1	1	1
15	8	2	1	1	1	1	1
15	8	3	3	3	3	3	3
15	8	4	1	1	1	1	1
15	8	5	1	1	1	1	1
15	9	1	1	1	1	1	1
15	9	2	1	1	1	1	1
15	9	3	3	3	3	3	3
15	9	4	1	1	1	1	1
15	9	5	1	1	1	1	1
15	10	1	1	1	1	1	1
15	10	2	1	1	1	1	1
15	10	3	3	3	3	3	3
15	10	4	1	1	1	1	1
15	10	5	1	1	1	1	1
15	11	1	1	1	1	1	1
15	11	2	1	1	1	1	1
15	11	3	3	3	3	3	3
15	11	4	1	1	1	1	1
15	11	5	1	1	1	1	1
15	12	1	1	1	1	1	1
15	12	2	1	1	1	1	1
15	12	3	3	3	3	3	3
15	12	4	1	1	1	1	1
15	12	5	1	1	1	1	1
15	13	1	1	1	1	1	1
15	13	2	1	1	1	1	1
15	13	3	3	3	3	3	3
15	13	4	1	1	1	1	1
15	13	5	1	1	1	1	1
15	14	1	1	1	1	1	1
15	14	2	1	1	1	1	1
15	14	3	3	3	3	3	3
15	14	4	1	1	1	1	1
15	14	5	1	1	1	1	1
15	15	1	1	1	1	1	1
15	15	2	1	1	1	1	1
15	15	3	3	3	3	3	3
15	15	4	1	1	1	1	1
15	15	5	1	1	1	1	1
16	1	1	1	1	1	1	1
16	1	2	1	1	1	1	1
16	2	1	1	1	1	3	1
16	2	2	3	3	3	3	3
16	3	1	1	1	1	1	1
16	3	2	1	1	1	1	1
16	4	1	1	1	1	1	1
16	4	2	1	1	1	1	1
16	5	1	1	1	1	1	1
16	5	2	1	1	1	1	1
16	6	1	1	1	1	1	1
16	6	2	1	1	1	1	1
16	7	1	1	1	1	1	1
16	7	2	1	1	1	1	1
16	8	1	1	1	1	1	1
16	8	2	1	1	1	1	1
16	9	1	1	1	1	1	1
16	9	2	1	1	1	1	1
16	10	1	1	1	1	1	1
16	10	2	1	1	1	1	1
16	11	1	1	1	1	1	1
16	11	2	1	1	1	1	1
16	12	1	0	0	0	0	0
16	12	2	1	1	1	1	1
16	13	1	1	1	1	1	1
16	13	2	1	1	1	1	1
16	14	1	1	1	1	1	1
16	14	2	1	1	1	1	1
16	15	1	1	1	1	1	1
16	15	2	1	1	1	1	1
16	16	1	1	1	1	1	1
16	16	2	1	1	1	1	1
16	17	1	1	1	1	1	1
16	17	2	1	1	1	1	1
16	18	1	1	1	1	1	1
16	18	2	1	1	1	1	1
16	19	1	1	1	1	1	1
16	19	2	1	1	1	1	1
16	20	1	1	1	1	1	1
16	20	2	1	1	1	1	1
16	21	1	1	1	1	1	1
16	21	2	1	1	1	1	1
32	1	1	0	0	0	0	0
32	1	2	0	0	0	0	0
32	1	3	0	0	0	0	0
32	1	4	0	0	0	0	0
32	1	5	0	0	0	0	0
32	2	1	0	0	0	0	0
32	2	2	0	0	0	0	0
32	2	3	0	0	0	0	0
32	2	4	0	0	0	0	0
32	2	5	0	0	0	0	0
32	3	1	0	0	0	0	0
32	3	2	0	0	0	0	0
32	3	3	0	0	0	0	0
32	3	4	0	0	0	0	0
32	3	5	0	0	0	0	0
32	4	1	0	0	0	0	0
32	4	2	0	0	0	0	0
32	4	3	0	0	0	0	0
32	4	4	0	0	0	0	0
32	4	5	0	0	0	0	0
