hof-0.30-acknowledgements 18.43
hof-0.30-administratively 20.67
hof-0.30-Australopithecus 17.31
hof-0.30-bloodthirstiness 19.55
hof-0.30-cinematographers 31.28
hof-0.30-counterespionage 15.08
hof-0.30-Czechoslovakians 30.16
hof-0.30-departmentalized 23.46
hof-0.30-disqualification 21.22
hof-0.30-enthusiastically 20.11
hof-0.30-flibbertigibbets 19.55
hof-0.30-gastrointestinal 29.60
hof-0.30-hospitalizations 22.34
hof-0.30-hydroelectricity 20.67
hof-0.30-intellectualized 27.37
hof-0.30-lightheartedness 21.78
hof-0.30-melodramatically 24.58
hof-0.30-multimillionaire 15.64
hof-0.30-nationalizations 26.81
hof-0.30-neurotransmitter 20.11
hof-0.30-overcompensating 20.11
hof-0.30-photojournalists 20.67
hof-0.30-predetermination 22.90
hof-0.30-rambunctiousness 17.87
hof-0.30-sentimentalizing 18.43
hof-0.30-synchronizations 30.72
hof-0.30-teleconferencing 24.58
hof-0.30-transcendentally 22.90
hof-0.30-unscrupulousness 27.93
hof-0.30-whatchamacallits 24.02
hof-0.45-acknowledgements 24.58
hof-0.45-administratively 26.25
hof-0.45-Australopithecus 26.81
hof-0.45-bloodthirstiness 30.16
hof-0.45-cinematographers 39.66
hof-0.45-counterespionage 29.05
hof-0.45-Czechoslovakians 40.22
hof-0.45-departmentalized 34.63
hof-0.45-disqualification 31.28
hof-0.45-enthusiastically 39.10
hof-0.45-flibbertigibbets 32.96
hof-0.45-gastrointestinal 38.54
hof-0.45-hospitalizations 27.37
hof-0.45-hydroelectricity 25.13
hof-0.45-intellectualized 33.51
hof-0.45-lightheartedness 27.93
hof-0.45-melodramatically 36.87
hof-0.45-multimillionaire 20.67
hof-0.45-nationalizations 43.01
hof-0.45-neurotransmitter 32.96
hof-0.45-overcompensating 28.49
hof-0.45-photojournalists 22.34
hof-0.45-predetermination 33.51
hof-0.45-rambunctiousness 24.02
hof-0.45-sentimentalizing 29.05
hof-0.45-synchronizations 37.98
hof-0.45-teleconferencing 39.10
hof-0.45-transcendentally 34.07
hof-0.45-unscrupulousness 36.31
hof-0.45-whatchamacallits 27.93
hof-0.60-acknowledgements 43.01
hof-0.60-administratively 39.10
hof-0.60-Australopithecus 36.31
hof-0.60-bloodthirstiness 43.01
hof-0.60-cinematographers 53.07
hof-0.60-counterespionage 35.75
hof-0.60-Czechoslovakians 53.63
hof-0.60-departmentalized 43.57
hof-0.60-disqualification 49.16
hof-0.60-enthusiastically 46.36
hof-0.60-flibbertigibbets 42.45
hof-0.60-gastrointestinal 46.92
hof-0.60-hospitalizations 38.54
hof-0.60-hydroelectricity 47.48
hof-0.60-intellectualized 49.16
hof-0.60-lightheartedness 34.63
hof-0.60-melodramatically 44.69
hof-0.60-multimillionaire 58.65
hof-0.60-nationalizations 51.39
hof-0.60-neurotransmitter 46.92
hof-0.60-overcompensating 48.60
hof-0.60-photojournalists 34.63
hof-0.60-predetermination 41.89
hof-0.60-rambunctiousness 33.51
hof-0.60-sentimentalizing 34.63
hof-0.60-synchronizations 49.72
hof-0.60-teleconferencing 55.86
hof-0.60-transcendentally 40.22
hof-0.60-unscrupulousness 43.57
hof-0.60-whatchamacallits 41.89
hof-0.75-acknowledgements 58.65
hof-0.75-administratively 50.83
hof-0.75-Australopithecus 49.16
hof-0.75-bloodthirstiness 55.86
hof-0.75-cinematographers 64.80
hof-0.75-counterespionage 46.36
hof-0.75-Czechoslovakians 59.21
hof-0.75-departmentalized 60.33
hof-0.75-disqualification 61.45
hof-0.75-enthusiastically 60.33
hof-0.75-flibbertigibbets 54.74
hof-0.75-gastrointestinal 53.63
hof-0.75-hospitalizations 52.51
hof-0.75-hydroelectricity 54.18
hof-0.75-intellectualized 60.33
hof-0.75-lightheartedness 47.48
hof-0.75-melodramatically 55.30
hof-0.75-multimillionaire 77.09
hof-0.75-nationalizations 59.77
hof-0.75-neurotransmitter 62.56
hof-0.75-overcompensating 55.30
hof-0.75-photojournalists 57.54
hof-0.75-predetermination 55.30
hof-0.75-rambunctiousness 44.13
hof-0.75-sentimentalizing 55.30
hof-0.75-synchronizations 68.71
hof-0.75-teleconferencing 69.83
hof-0.75-transcendentally 62.01
hof-0.75-unscrupulousness 57.54
hof-0.75-whatchamacallits 54.74
hof-0.90-acknowledgements 74.30
hof-0.90-administratively 67.59
hof-0.90-Australopithecus 81.56
hof-0.90-bloodthirstiness 68.15
hof-0.90-cinematographers 74.86
hof-0.90-counterespionage 69.83
hof-0.90-Czechoslovakians 78.21
hof-0.90-departmentalized 75.97
hof-0.90-disqualification 68.15
hof-0.90-enthusiastically 78.77
hof-0.90-flibbertigibbets 86.03
hof-0.90-gastrointestinal 72.06
hof-0.90-hospitalizations 68.15
hof-0.90-hydroelectricity 68.15
hof-0.90-intellectualized 78.77
hof-0.90-lightheartedness 70.39
hof-0.90-melodramatically 70.39
hof-0.90-multimillionaire 82.12
hof-0.90-nationalizations 65.92
hof-0.90-neurotransmitter 87.15
hof-0.90-overcompensating 90.50
hof-0.90-photojournalists 75.97
hof-0.90-predetermination 83.79
hof-0.90-rambunctiousness 78.21
hof-0.90-sentimentalizing 68.71
hof-0.90-synchronizations 89.38
hof-0.90-teleconferencing 80.44
hof-0.90-transcendentally 81.56
hof-0.90-unscrupulousness 72.62
hof-0.90-whatchamacallits 71.50
