N1 3 1 1	-37.0000
N1 4 1 1	-37.0000
N1 6 1 1	-37.0000
N1 11 1 1	-37.0000
N1 14 1 1	-37.0000
N1 14 1 2	-37.0000
N1 14 1 3	-37.0000
N1 14 1 4	-37.0000
N1 15 1 1	-37.0000
N1 15 1 2	-37.0000
N1 15 1 3	-37.0000
N1 15 1 4	-37.0000
N1 15 1 5	-37.0000
N1 15 2 1	-37.0000
N1 15 2 2	-37.0000
N1 15 2 3	-37.0000
N1 15 2 4	-37.0000
N1 15 2 5	-37.0000
N1 15 3 1	-37.0000
N1 15 3 2	-37.0000
N1 15 3 3	-37.0000
N1 15 3 4	12.0000
N1 15 3 5	-37.0000
N1 15 4 1	-37.0000
N1 15 4 2	-37.0000
N1 15 4 3	-37.0000
N1 15 4 4	-37.0000
N1 15 4 5	-37.0000
N1 15 5 1	-37.0000
N1 15 5 2	12.0000
N1 15 5 3	-37.0000
N1 15 5 4	-37.0000
N1 15 5 5	12.0000
N1 16 1 1	-37.0000
N1 16 1 2	12.0000
N1 32 1 1	61.0000
N1 32 1 2	-37.0000
N1 32 1 3	61.0000
N1 32 1 4	-37.0000
N1 32 1 5	-37.0000
N1 32 2 1	61.0000
N1 32 2 2	61.0000
N1 32 2 3	-37.0000
N1 32 2 4	-37.0000
N1 32 2 5	61.0000
N1 32 3 1	61.0000
N1 32 3 2	-37.0000
N1 32 3 3	-37.0000
N1 32 3 4	-37.0000
N1 32 3 5	-37.0000
N1 32 4 1	-37.0000
N1 32 4 2	-37.0000
N1 32 4 3	61.0000
N1 32 4 4	-37.0000
N1 32 4 5	61.0000
N1 33 1 1	-37.0000
N1 33 2 1	-37.0000
N1 33 3 1	-37.0000
N1 34 1 1	-37.0000
N1 34 2 1	-37.0000
N1 34 3 1	-37.0000
