<?xml version='1.0' encoding='UTF-8' ?>
<svg xmlns='http://www.w3.org/2000/svg' xmlns:xlink='http://www.w3.org/1999/xlink' viewBox='0 0 504.00 288.00'>
<defs>
  <style type='text/css'><![CDATA[
    line, polyline, polygon, path, rect, circle {
      fill: none;
      stroke: #000000;
      stroke-linecap: round;
      stroke-linejoin: round;
      stroke-miterlimit: 10.00;
    }
  ]]></style>
</defs>
<rect width='100%' height='100%' style='stroke: none; fill: #FFFFFF;'/>
<rect x='0.000000000000064' y='0.00' width='504.00' height='288.00' style='stroke-width: 1.07; stroke: #FFFFFF; fill: #FFFFFF;' />
<defs>
  <clipPath id='cpMjguMjN8NDM0LjI5fDI1Ni41MXwyMy4xOQ=='>
    <rect x='28.23' y='23.19' width='406.05' height='233.32' />
  </clipPath>
</defs>
<rect x='28.23' y='23.19' width='406.05' height='233.32' style='stroke-width: 1.07; stroke: none; fill: #EBEBEB;' clip-path='url(#cpMjguMjN8NDM0LjI5fDI1Ni41MXwyMy4xOQ==)' />
<polyline points='28.23,76.81 434.29,76.81 ' style='stroke-width: 0.53; stroke: #FFFFFF; stroke-linecap: butt;' clip-path='url(#cpMjguMjN8NDM0LjI5fDI1Ni41MXwyMy4xOQ==)' />
<polyline points='28.23,141.36 434.29,141.36 ' style='stroke-width: 0.53; stroke: #FFFFFF; stroke-linecap: butt;' clip-path='url(#cpMjguMjN8NDM0LjI5fDI1Ni41MXwyMy4xOQ==)' />
<polyline points='28.23,205.92 434.29,205.92 ' style='stroke-width: 0.53; stroke: #FFFFFF; stroke-linecap: butt;' clip-path='url(#cpMjguMjN8NDM0LjI5fDI1Ni41MXwyMy4xOQ==)' />
<polyline points='110.61,256.51 110.61,23.19 ' style='stroke-width: 0.53; stroke: #FFFFFF; stroke-linecap: butt;' clip-path='url(#cpMjguMjN8NDM0LjI5fDI1Ni41MXwyMy4xOQ==)' />
<polyline points='241.04,256.51 241.04,23.19 ' style='stroke-width: 0.53; stroke: #FFFFFF; stroke-linecap: butt;' clip-path='url(#cpMjguMjN8NDM0LjI5fDI1Ni41MXwyMy4xOQ==)' />
<polyline points='371.48,256.51 371.48,23.19 ' style='stroke-width: 0.53; stroke: #FFFFFF; stroke-linecap: butt;' clip-path='url(#cpMjguMjN8NDM0LjI5fDI1Ni41MXwyMy4xOQ==)' />
<polyline points='28.23,44.54 434.29,44.54 ' style='stroke-width: 1.07; stroke: #FFFFFF; stroke-linecap: butt;' clip-path='url(#cpMjguMjN8NDM0LjI5fDI1Ni41MXwyMy4xOQ==)' />
<polyline points='28.23,109.09 434.29,109.09 ' style='stroke-width: 1.07; stroke: #FFFFFF; stroke-linecap: butt;' clip-path='url(#cpMjguMjN8NDM0LjI5fDI1Ni41MXwyMy4xOQ==)' />
<polyline points='28.23,173.64 434.29,173.64 ' style='stroke-width: 1.07; stroke: #FFFFFF; stroke-linecap: butt;' clip-path='url(#cpMjguMjN8NDM0LjI5fDI1Ni41MXwyMy4xOQ==)' />
<polyline points='28.23,238.19 434.29,238.19 ' style='stroke-width: 1.07; stroke: #FFFFFF; stroke-linecap: butt;' clip-path='url(#cpMjguMjN8NDM0LjI5fDI1Ni41MXwyMy4xOQ==)' />
<polyline points='45.39,256.51 45.39,23.19 ' style='stroke-width: 1.07; stroke: #FFFFFF; stroke-linecap: butt;' clip-path='url(#cpMjguMjN8NDM0LjI5fDI1Ni41MXwyMy4xOQ==)' />
<polyline points='175.82,256.51 175.82,23.19 ' style='stroke-width: 1.07; stroke: #FFFFFF; stroke-linecap: butt;' clip-path='url(#cpMjguMjN8NDM0LjI5fDI1Ni41MXwyMy4xOQ==)' />
<polyline points='306.26,256.51 306.26,23.19 ' style='stroke-width: 1.07; stroke: #FFFFFF; stroke-linecap: butt;' clip-path='url(#cpMjguMjN8NDM0LjI5fDI1Ni41MXwyMy4xOQ==)' />
<circle cx='415.83' cy='160.25' r='1.95' style='stroke-width: 0.71; stroke: #00B0F6; fill: #00B0F6;' clip-path='url(#cpMjguMjN8NDM0LjI5fDI1Ni41MXwyMy4xOQ==)' />
<circle cx='241.04' cy='159.53' r='1.95' style='stroke-width: 0.71; stroke: #00BFC4; fill: #00BFC4;' clip-path='url(#cpMjguMjN8NDM0LjI5fDI1Ni41MXwyMy4xOQ==)' />
<circle cx='241.04' cy='180.54' r='1.95' style='stroke-width: 0.71; stroke: #00BFC4; fill: #00BFC4;' clip-path='url(#cpMjguMjN8NDM0LjI5fDI1Ni41MXwyMy4xOQ==)' />
<circle cx='241.04' cy='162.97' r='1.95' style='stroke-width: 0.71; stroke: #00BFC4; fill: #00BFC4;' clip-path='url(#cpMjguMjN8NDM0LjI5fDI1Ni41MXwyMy4xOQ==)' />
<circle cx='241.04' cy='169.07' r='1.95' style='stroke-width: 0.71; stroke: #00BFC4; fill: #00BFC4;' clip-path='url(#cpMjguMjN8NDM0LjI5fDI1Ni41MXwyMy4xOQ==)' />
<circle cx='225.39' cy='43.92' r='1.95' style='stroke-width: 0.71; stroke: #E76BF3; fill: #E76BF3;' clip-path='url(#cpMjguMjN8NDM0LjI5fDI1Ni41MXwyMy4xOQ==)' />
<circle cx='225.39' cy='36.90' r='1.95' style='stroke-width: 0.71; stroke: #E76BF3; fill: #E76BF3;' clip-path='url(#cpMjguMjN8NDM0LjI5fDI1Ni41MXwyMy4xOQ==)' />
<circle cx='225.39' cy='56.33' r='1.95' style='stroke-width: 0.71; stroke: #E76BF3; fill: #E76BF3;' clip-path='url(#cpMjguMjN8NDM0LjI5fDI1Ni41MXwyMy4xOQ==)' />
<circle cx='225.39' cy='39.47' r='1.95' style='stroke-width: 0.71; stroke: #E76BF3; fill: #E76BF3;' clip-path='url(#cpMjguMjN8NDM0LjI5fDI1Ni41MXwyMy4xOQ==)' />
<circle cx='225.39' cy='37.92' r='1.95' style='stroke-width: 0.71; stroke: #E76BF3; fill: #E76BF3;' clip-path='url(#cpMjguMjN8NDM0LjI5fDI1Ni41MXwyMy4xOQ==)' />
<circle cx='222.78' cy='110.45' r='1.95' style='stroke-width: 0.71; stroke: #E76BF3; fill: #E76BF3;' clip-path='url(#cpMjguMjN8NDM0LjI5fDI1Ni41MXwyMy4xOQ==)' />
<circle cx='222.78' cy='102.02' r='1.95' style='stroke-width: 0.71; stroke: #E76BF3; fill: #E76BF3;' clip-path='url(#cpMjguMjN8NDM0LjI5fDI1Ni41MXwyMy4xOQ==)' />
<circle cx='222.78' cy='95.06' r='1.95' style='stroke-width: 0.71; stroke: #E76BF3; fill: #E76BF3;' clip-path='url(#cpMjguMjN8NDM0LjI5fDI1Ni41MXwyMy4xOQ==)' />
<circle cx='222.78' cy='116.98' r='1.95' style='stroke-width: 0.71; stroke: #E76BF3; fill: #E76BF3;' clip-path='url(#cpMjguMjN8NDM0LjI5fDI1Ni41MXwyMy4xOQ==)' />
<circle cx='222.78' cy='110.31' r='1.95' style='stroke-width: 0.71; stroke: #E76BF3; fill: #E76BF3;' clip-path='url(#cpMjguMjN8NDM0LjI5fDI1Ni41MXwyMy4xOQ==)' />
<circle cx='320.61' cy='159.44' r='1.95' style='stroke-width: 0.71; stroke: #E76BF3; fill: #E76BF3;' clip-path='url(#cpMjguMjN8NDM0LjI5fDI1Ni41MXwyMy4xOQ==)' />
<circle cx='320.61' cy='158.21' r='1.95' style='stroke-width: 0.71; stroke: #E76BF3; fill: #E76BF3;' clip-path='url(#cpMjguMjN8NDM0LjI5fDI1Ni41MXwyMy4xOQ==)' />
<circle cx='320.61' cy='185.99' r='1.95' style='stroke-width: 0.71; stroke: #E76BF3; fill: #E76BF3;' clip-path='url(#cpMjguMjN8NDM0LjI5fDI1Ni41MXwyMy4xOQ==)' />
<circle cx='320.61' cy='174.45' r='1.95' style='stroke-width: 0.71; stroke: #E76BF3; fill: #E76BF3;' clip-path='url(#cpMjguMjN8NDM0LjI5fDI1Ni41MXwyMy4xOQ==)' />
<circle cx='320.61' cy='171.69' r='1.95' style='stroke-width: 0.71; stroke: #E76BF3; fill: #E76BF3;' clip-path='url(#cpMjguMjN8NDM0LjI5fDI1Ni41MXwyMy4xOQ==)' />
<circle cx='353.22' cy='160.60' r='1.95' style='stroke-width: 0.71; stroke: #E76BF3; fill: #E76BF3;' clip-path='url(#cpMjguMjN8NDM0LjI5fDI1Ni41MXwyMy4xOQ==)' />
<circle cx='353.22' cy='185.30' r='1.95' style='stroke-width: 0.71; stroke: #E76BF3; fill: #E76BF3;' clip-path='url(#cpMjguMjN8NDM0LjI5fDI1Ni41MXwyMy4xOQ==)' />
<circle cx='353.22' cy='157.86' r='1.95' style='stroke-width: 0.71; stroke: #E76BF3; fill: #E76BF3;' clip-path='url(#cpMjguMjN8NDM0LjI5fDI1Ni41MXwyMy4xOQ==)' />
<circle cx='353.22' cy='159.22' r='1.95' style='stroke-width: 0.71; stroke: #E76BF3; fill: #E76BF3;' clip-path='url(#cpMjguMjN8NDM0LjI5fDI1Ni41MXwyMy4xOQ==)' />
<circle cx='353.22' cy='187.12' r='1.95' style='stroke-width: 0.71; stroke: #E76BF3; fill: #E76BF3;' clip-path='url(#cpMjguMjN8NDM0LjI5fDI1Ni41MXwyMy4xOQ==)' />
<circle cx='268.44' cy='237.73' r='1.95' style='stroke-width: 0.71; stroke: #E76BF3; fill: #E76BF3;' clip-path='url(#cpMjguMjN8NDM0LjI5fDI1Ni41MXwyMy4xOQ==)' />
<circle cx='268.44' cy='241.74' r='1.95' style='stroke-width: 0.71; stroke: #E76BF3; fill: #E76BF3;' clip-path='url(#cpMjguMjN8NDM0LjI5fDI1Ni41MXwyMy4xOQ==)' />
<circle cx='268.44' cy='225.10' r='1.95' style='stroke-width: 0.71; stroke: #E76BF3; fill: #E76BF3;' clip-path='url(#cpMjguMjN8NDM0LjI5fDI1Ni41MXwyMy4xOQ==)' />
<circle cx='268.44' cy='239.90' r='1.95' style='stroke-width: 0.71; stroke: #E76BF3; fill: #E76BF3;' clip-path='url(#cpMjguMjN8NDM0LjI5fDI1Ni41MXwyMy4xOQ==)' />
<circle cx='268.44' cy='227.35' r='1.95' style='stroke-width: 0.71; stroke: #E76BF3; fill: #E76BF3;' clip-path='url(#cpMjguMjN8NDM0LjI5fDI1Ni41MXwyMy4xOQ==)' />
<circle cx='271.04' cy='230.52' r='1.95' style='stroke-width: 0.71; stroke: #9590FF; fill: #9590FF;' clip-path='url(#cpMjguMjN8NDM0LjI5fDI1Ni41MXwyMy4xOQ==)' />
<circle cx='271.04' cy='228.15' r='1.95' style='stroke-width: 0.71; stroke: #9590FF; fill: #9590FF;' clip-path='url(#cpMjguMjN8NDM0LjI5fDI1Ni41MXwyMy4xOQ==)' />
<circle cx='298.44' cy='177.25' r='1.95' style='stroke-width: 0.71; stroke: #00BF7D; fill: #00BF7D;' clip-path='url(#cpMjguMjN8NDM0LjI5fDI1Ni41MXwyMy4xOQ==)' />
<circle cx='132.78' cy='38.56' r='1.95' style='stroke-width: 0.71; stroke: #FF62BC; fill: #FF62BC;' clip-path='url(#cpMjguMjN8NDM0LjI5fDI1Ni41MXwyMy4xOQ==)' />
<circle cx='132.78' cy='60.55' r='1.95' style='stroke-width: 0.71; stroke: #FF62BC; fill: #FF62BC;' clip-path='url(#cpMjguMjN8NDM0LjI5fDI1Ni41MXwyMy4xOQ==)' />
<circle cx='132.78' cy='33.79' r='1.95' style='stroke-width: 0.71; stroke: #FF62BC; fill: #FF62BC;' clip-path='url(#cpMjguMjN8NDM0LjI5fDI1Ni41MXwyMy4xOQ==)' />
<circle cx='132.78' cy='60.44' r='1.95' style='stroke-width: 0.71; stroke: #FF62BC; fill: #FF62BC;' clip-path='url(#cpMjguMjN8NDM0LjI5fDI1Ni41MXwyMy4xOQ==)' />
<circle cx='132.78' cy='53.97' r='1.95' style='stroke-width: 0.71; stroke: #FF62BC; fill: #FF62BC;' clip-path='url(#cpMjguMjN8NDM0LjI5fDI1Ni41MXwyMy4xOQ==)' />
<circle cx='130.17' cy='95.96' r='1.95' style='stroke-width: 0.71; stroke: #FF62BC; fill: #FF62BC;' clip-path='url(#cpMjguMjN8NDM0LjI5fDI1Ni41MXwyMy4xOQ==)' />
<circle cx='130.17' cy='105.48' r='1.95' style='stroke-width: 0.71; stroke: #FF62BC; fill: #FF62BC;' clip-path='url(#cpMjguMjN8NDM0LjI5fDI1Ni41MXwyMy4xOQ==)' />
<circle cx='130.17' cy='112.98' r='1.95' style='stroke-width: 0.71; stroke: #FF62BC; fill: #FF62BC;' clip-path='url(#cpMjguMjN8NDM0LjI5fDI1Ni41MXwyMy4xOQ==)' />
<circle cx='130.17' cy='111.16' r='1.95' style='stroke-width: 0.71; stroke: #FF62BC; fill: #FF62BC;' clip-path='url(#cpMjguMjN8NDM0LjI5fDI1Ni41MXwyMy4xOQ==)' />
<circle cx='130.17' cy='124.02' r='1.95' style='stroke-width: 0.71; stroke: #FF62BC; fill: #FF62BC;' clip-path='url(#cpMjguMjN8NDM0LjI5fDI1Ni41MXwyMy4xOQ==)' />
<circle cx='182.35' cy='158.36' r='1.95' style='stroke-width: 0.71; stroke: #FF62BC; fill: #FF62BC;' clip-path='url(#cpMjguMjN8NDM0LjI5fDI1Ni41MXwyMy4xOQ==)' />
<circle cx='182.35' cy='175.84' r='1.95' style='stroke-width: 0.71; stroke: #FF62BC; fill: #FF62BC;' clip-path='url(#cpMjguMjN8NDM0LjI5fDI1Ni41MXwyMy4xOQ==)' />
<circle cx='182.35' cy='158.87' r='1.95' style='stroke-width: 0.71; stroke: #FF62BC; fill: #FF62BC;' clip-path='url(#cpMjguMjN8NDM0LjI5fDI1Ni41MXwyMy4xOQ==)' />
<circle cx='182.35' cy='161.13' r='1.95' style='stroke-width: 0.71; stroke: #FF62BC; fill: #FF62BC;' clip-path='url(#cpMjguMjN8NDM0LjI5fDI1Ni41MXwyMy4xOQ==)' />
<circle cx='182.35' cy='169.12' r='1.95' style='stroke-width: 0.71; stroke: #FF62BC; fill: #FF62BC;' clip-path='url(#cpMjguMjN8NDM0LjI5fDI1Ni41MXwyMy4xOQ==)' />
<circle cx='143.22' cy='222.99' r='1.95' style='stroke-width: 0.71; stroke: #FF62BC; fill: #FF62BC;' clip-path='url(#cpMjguMjN8NDM0LjI5fDI1Ni41MXwyMy4xOQ==)' />
<circle cx='143.22' cy='234.36' r='1.95' style='stroke-width: 0.71; stroke: #FF62BC; fill: #FF62BC;' clip-path='url(#cpMjguMjN8NDM0LjI5fDI1Ni41MXwyMy4xOQ==)' />
<circle cx='143.22' cy='243.57' r='1.95' style='stroke-width: 0.71; stroke: #FF62BC; fill: #FF62BC;' clip-path='url(#cpMjguMjN8NDM0LjI5fDI1Ni41MXwyMy4xOQ==)' />
<circle cx='143.22' cy='243.14' r='1.95' style='stroke-width: 0.71; stroke: #FF62BC; fill: #FF62BC;' clip-path='url(#cpMjguMjN8NDM0LjI5fDI1Ni41MXwyMy4xOQ==)' />
<circle cx='143.22' cy='241.47' r='1.95' style='stroke-width: 0.71; stroke: #FF62BC; fill: #FF62BC;' clip-path='url(#cpMjguMjN8NDM0LjI5fDI1Ni41MXwyMy4xOQ==)' />
<circle cx='205.83' cy='35.35' r='1.95' style='stroke-width: 0.71; stroke: #D89000; fill: #D89000;' clip-path='url(#cpMjguMjN8NDM0LjI5fDI1Ni41MXwyMy4xOQ==)' />
<circle cx='203.22' cy='123.97' r='1.95' style='stroke-width: 0.71; stroke: #D89000; fill: #D89000;' clip-path='url(#cpMjguMjN8NDM0LjI5fDI1Ni41MXwyMy4xOQ==)' />
<circle cx='254.09' cy='230.16' r='1.95' style='stroke-width: 0.71; stroke: #D89000; fill: #D89000;' clip-path='url(#cpMjguMjN8NDM0LjI5fDI1Ni41MXwyMy4xOQ==)' />
<circle cx='205.83' cy='38.81' r='1.95' style='stroke-width: 0.71; stroke: #F8766D; fill: #F8766D;' clip-path='url(#cpMjguMjN8NDM0LjI5fDI1Ni41MXwyMy4xOQ==)' />
<circle cx='203.22' cy='119.70' r='1.95' style='stroke-width: 0.71; stroke: #F8766D; fill: #F8766D;' clip-path='url(#cpMjguMjN8NDM0LjI5fDI1Ni41MXwyMy4xOQ==)' />
<circle cx='254.09' cy='245.90' r='1.95' style='stroke-width: 0.71; stroke: #F8766D; fill: #F8766D;' clip-path='url(#cpMjguMjN8NDM0LjI5fDI1Ni41MXwyMy4xOQ==)' />
<circle cx='351.92' cy='173.18' r='1.95' style='stroke-width: 0.71; stroke: #39B600; fill: #39B600;' clip-path='url(#cpMjguMjN8NDM0LjI5fDI1Ni41MXwyMy4xOQ==)' />
<circle cx='351.92' cy='167.97' r='1.95' style='stroke-width: 0.71; stroke: #A3A500; fill: #A3A500;' clip-path='url(#cpMjguMjN8NDM0LjI5fDI1Ni41MXwyMy4xOQ==)' />
<defs>
  <clipPath id='cpMC4wMHw1MDQuMDB8Mjg4LjAwfDAuMDA='>
    <rect x='0.00' y='0.00' width='504.00' height='288.00' />
  </clipPath>
</defs>
<g clip-path='url(#cpMC4wMHw1MDQuMDB8Mjg4LjAwfDAuMDA=)'><text x='18.41' y='47.69' style='font-size: 8.80px; fill: #4D4D4D; font-family: Arial;' textLength='4.89px' lengthAdjust='spacingAndGlyphs'>1</text></g>
<g clip-path='url(#cpMC4wMHw1MDQuMDB8Mjg4LjAwfDAuMDA=)'><text x='18.41' y='112.24' style='font-size: 8.80px; fill: #4D4D4D; font-family: Arial;' textLength='4.89px' lengthAdjust='spacingAndGlyphs'>2</text></g>
<g clip-path='url(#cpMC4wMHw1MDQuMDB8Mjg4LjAwfDAuMDA=)'><text x='18.41' y='176.79' style='font-size: 8.80px; fill: #4D4D4D; font-family: Arial;' textLength='4.89px' lengthAdjust='spacingAndGlyphs'>3</text></g>
<g clip-path='url(#cpMC4wMHw1MDQuMDB8Mjg4LjAwfDAuMDA=)'><text x='18.41' y='241.34' style='font-size: 8.80px; fill: #4D4D4D; font-family: Arial;' textLength='4.89px' lengthAdjust='spacingAndGlyphs'>4</text></g>
<polyline points='25.49,44.54 28.23,44.54 ' style='stroke-width: 1.07; stroke: #333333; stroke-linecap: butt;' clip-path='url(#cpMC4wMHw1MDQuMDB8Mjg4LjAwfDAuMDA=)' />
<polyline points='25.49,109.09 28.23,109.09 ' style='stroke-width: 1.07; stroke: #333333; stroke-linecap: butt;' clip-path='url(#cpMC4wMHw1MDQuMDB8Mjg4LjAwfDAuMDA=)' />
<polyline points='25.49,173.64 28.23,173.64 ' style='stroke-width: 1.07; stroke: #333333; stroke-linecap: butt;' clip-path='url(#cpMC4wMHw1MDQuMDB8Mjg4LjAwfDAuMDA=)' />
<polyline points='25.49,238.19 28.23,238.19 ' style='stroke-width: 1.07; stroke: #333333; stroke-linecap: butt;' clip-path='url(#cpMC4wMHw1MDQuMDB8Mjg4LjAwfDAuMDA=)' />
<polyline points='45.39,259.25 45.39,256.51 ' style='stroke-width: 1.07; stroke: #333333; stroke-linecap: butt;' clip-path='url(#cpMC4wMHw1MDQuMDB8Mjg4LjAwfDAuMDA=)' />
<polyline points='175.82,259.25 175.82,256.51 ' style='stroke-width: 1.07; stroke: #333333; stroke-linecap: butt;' clip-path='url(#cpMC4wMHw1MDQuMDB8Mjg4LjAwfDAuMDA=)' />
<polyline points='306.26,259.25 306.26,256.51 ' style='stroke-width: 1.07; stroke: #333333; stroke-linecap: butt;' clip-path='url(#cpMC4wMHw1MDQuMDB8Mjg4LjAwfDAuMDA=)' />
<g clip-path='url(#cpMC4wMHw1MDQuMDB8Mjg4LjAwfDAuMDA=)'><text x='42.94' y='267.74' style='font-size: 8.80px; fill: #4D4D4D; font-family: Arial;' textLength='4.89px' lengthAdjust='spacingAndGlyphs'>0</text></g>
<g clip-path='url(#cpMC4wMHw1MDQuMDB8Mjg4LjAwfDAuMDA=)'><text x='168.48' y='267.74' style='font-size: 8.80px; fill: #4D4D4D; font-family: Arial;' textLength='14.68px' lengthAdjust='spacingAndGlyphs'>100</text></g>
<g clip-path='url(#cpMC4wMHw1MDQuMDB8Mjg4LjAwfDAuMDA=)'><text x='298.92' y='267.74' style='font-size: 8.80px; fill: #4D4D4D; font-family: Arial;' textLength='14.68px' lengthAdjust='spacingAndGlyphs'>200</text></g>
<g clip-path='url(#cpMC4wMHw1MDQuMDB8Mjg4LjAwfDAuMDA=)'><text x='224.23' y='280.21' style='font-size: 11.00px; font-family: Arial;' textLength='14.06px' lengthAdjust='spacingAndGlyphs'>col</text></g>
<g clip-path='url(#cpMC4wMHw1MDQuMDB8Mjg4LjAwfDAuMDA=)'><text transform='translate(13.35,148.41) rotate(-90)' style='font-size: 11.00px; font-family: Arial;' textLength='17.12px' lengthAdjust='spacingAndGlyphs'>line</text></g>
<rect x='445.25' y='40.13' width='53.27' height='199.43' style='stroke-width: 1.07; stroke: none; fill: #FFFFFF;' clip-path='url(#cpMC4wMHw1MDQuMDB8Mjg4LjAwfDAuMDA=)' />
<g clip-path='url(#cpMC4wMHw1MDQuMDB8Mjg4LjAwfDAuMDA=)'><text x='450.73' y='54.64' style='font-size: 11.00px; font-family: Arial;' textLength='39.75px' lengthAdjust='spacingAndGlyphs'>opname</text></g>
<rect x='450.73' y='61.28' width='17.28' height='17.28' style='stroke-width: 1.07; stroke: #FFFFFF; fill: #F2F2F2;' clip-path='url(#cpMC4wMHw1MDQuMDB8Mjg4LjAwfDAuMDA=)' />
<circle cx='459.37' cy='69.92' r='1.95' style='stroke-width: 0.71; stroke: #F8766D; fill: #F8766D;' clip-path='url(#cpMC4wMHw1MDQuMDB8Mjg4LjAwfDAuMDA=)' />
<rect x='450.73' y='78.56' width='17.28' height='17.28' style='stroke-width: 1.07; stroke: #FFFFFF; fill: #F2F2F2;' clip-path='url(#cpMC4wMHw1MDQuMDB8Mjg4LjAwfDAuMDA=)' />
<circle cx='459.37' cy='87.20' r='1.95' style='stroke-width: 0.71; stroke: #D89000; fill: #D89000;' clip-path='url(#cpMC4wMHw1MDQuMDB8Mjg4LjAwfDAuMDA=)' />
<rect x='450.73' y='95.84' width='17.28' height='17.28' style='stroke-width: 1.07; stroke: #FFFFFF; fill: #F2F2F2;' clip-path='url(#cpMC4wMHw1MDQuMDB8Mjg4LjAwfDAuMDA=)' />
<circle cx='459.37' cy='104.48' r='1.95' style='stroke-width: 0.71; stroke: #A3A500; fill: #A3A500;' clip-path='url(#cpMC4wMHw1MDQuMDB8Mjg4LjAwfDAuMDA=)' />
<rect x='450.73' y='113.12' width='17.28' height='17.28' style='stroke-width: 1.07; stroke: #FFFFFF; fill: #F2F2F2;' clip-path='url(#cpMC4wMHw1MDQuMDB8Mjg4LjAwfDAuMDA=)' />
<circle cx='459.37' cy='121.76' r='1.95' style='stroke-width: 0.71; stroke: #39B600; fill: #39B600;' clip-path='url(#cpMC4wMHw1MDQuMDB8Mjg4LjAwfDAuMDA=)' />
<rect x='450.73' y='130.40' width='17.28' height='17.28' style='stroke-width: 1.07; stroke: #FFFFFF; fill: #F2F2F2;' clip-path='url(#cpMC4wMHw1MDQuMDB8Mjg4LjAwfDAuMDA=)' />
<circle cx='459.37' cy='139.04' r='1.95' style='stroke-width: 0.71; stroke: #00BF7D; fill: #00BF7D;' clip-path='url(#cpMC4wMHw1MDQuMDB8Mjg4LjAwfDAuMDA=)' />
<rect x='450.73' y='147.68' width='17.28' height='17.28' style='stroke-width: 1.07; stroke: #FFFFFF; fill: #F2F2F2;' clip-path='url(#cpMC4wMHw1MDQuMDB8Mjg4LjAwfDAuMDA=)' />
<circle cx='459.37' cy='156.32' r='1.95' style='stroke-width: 0.71; stroke: #00BFC4; fill: #00BFC4;' clip-path='url(#cpMC4wMHw1MDQuMDB8Mjg4LjAwfDAuMDA=)' />
<rect x='450.73' y='164.96' width='17.28' height='17.28' style='stroke-width: 1.07; stroke: #FFFFFF; fill: #F2F2F2;' clip-path='url(#cpMC4wMHw1MDQuMDB8Mjg4LjAwfDAuMDA=)' />
<circle cx='459.37' cy='173.60' r='1.95' style='stroke-width: 0.71; stroke: #00B0F6; fill: #00B0F6;' clip-path='url(#cpMC4wMHw1MDQuMDB8Mjg4LjAwfDAuMDA=)' />
<rect x='450.73' y='182.24' width='17.28' height='17.28' style='stroke-width: 1.07; stroke: #FFFFFF; fill: #F2F2F2;' clip-path='url(#cpMC4wMHw1MDQuMDB8Mjg4LjAwfDAuMDA=)' />
<circle cx='459.37' cy='190.88' r='1.95' style='stroke-width: 0.71; stroke: #9590FF; fill: #9590FF;' clip-path='url(#cpMC4wMHw1MDQuMDB8Mjg4LjAwfDAuMDA=)' />
<rect x='450.73' y='199.52' width='17.28' height='17.28' style='stroke-width: 1.07; stroke: #FFFFFF; fill: #F2F2F2;' clip-path='url(#cpMC4wMHw1MDQuMDB8Mjg4LjAwfDAuMDA=)' />
<circle cx='459.37' cy='208.16' r='1.95' style='stroke-width: 0.71; stroke: #E76BF3; fill: #E76BF3;' clip-path='url(#cpMC4wMHw1MDQuMDB8Mjg4LjAwfDAuMDA=)' />
<rect x='450.73' y='216.80' width='17.28' height='17.28' style='stroke-width: 1.07; stroke: #FFFFFF; fill: #F2F2F2;' clip-path='url(#cpMC4wMHw1MDQuMDB8Mjg4LjAwfDAuMDA=)' />
<circle cx='459.37' cy='225.44' r='1.95' style='stroke-width: 0.71; stroke: #FF62BC; fill: #FF62BC;' clip-path='url(#cpMC4wMHw1MDQuMDB8Mjg4LjAwfDAuMDA=)' />
<g clip-path='url(#cpMC4wMHw1MDQuMDB8Mjg4LjAwfDAuMDA=)'><text x='473.49' y='73.07' style='font-size: 8.80px; font-family: Arial;' textLength='15.16px' lengthAdjust='spacingAndGlyphs'>INC</text></g>
<g clip-path='url(#cpMC4wMHw1MDQuMDB8Mjg4LjAwfDAuMDA=)'><text x='473.49' y='90.35' style='font-size: 8.80px; font-family: Arial;' textLength='15.16px' lengthAdjust='spacingAndGlyphs'>IRC</text></g>
<g clip-path='url(#cpMC4wMHw1MDQuMDB8Mjg4LjAwfDAuMDA=)'><text x='473.49' y='107.63' style='font-size: 8.80px; font-family: Arial;' textLength='17.11px' lengthAdjust='spacingAndGlyphs'>PFP</text></g>
<g clip-path='url(#cpMC4wMHw1MDQuMDB8Mjg4LjAwfDAuMDA=)'><text x='473.49' y='124.91' style='font-size: 8.80px; font-family: Arial;' textLength='19.07px' lengthAdjust='spacingAndGlyphs'>POC</text></g>
<g clip-path='url(#cpMC4wMHw1MDQuMDB8Mjg4LjAwfDAuMDA=)'><text x='473.49' y='142.19' style='font-size: 8.80px; font-family: Arial;' textLength='18.09px' lengthAdjust='spacingAndGlyphs'>PRE</text></g>
<g clip-path='url(#cpMC4wMHw1MDQuMDB8Mjg4LjAwfDAuMDA=)'><text x='473.49' y='159.47' style='font-size: 8.80px; font-family: Arial;' textLength='19.07px' lengthAdjust='spacingAndGlyphs'>RAO</text></g>
<g clip-path='url(#cpMC4wMHw1MDQuMDB8Mjg4LjAwfDAuMDA=)'><text x='473.49' y='176.75' style='font-size: 8.80px; font-family: Arial;' textLength='18.09px' lengthAdjust='spacingAndGlyphs'>RLO</text></g>
<g clip-path='url(#cpMC4wMHw1MDQuMDB8Mjg4LjAwfDAuMDA=)'><text x='473.49' y='194.03' style='font-size: 8.80px; font-family: Arial;' textLength='19.56px' lengthAdjust='spacingAndGlyphs'>RNO</text></g>
<g clip-path='url(#cpMC4wMHw1MDQuMDB8Mjg4LjAwfDAuMDA=)'><text x='473.49' y='211.31' style='font-size: 8.80px; font-family: Arial;' textLength='19.56px' lengthAdjust='spacingAndGlyphs'>RRO</text></g>
<g clip-path='url(#cpMC4wMHw1MDQuMDB8Mjg4LjAwfDAuMDA=)'><text x='473.49' y='228.59' style='font-size: 8.80px; font-family: Arial;' textLength='18.58px' lengthAdjust='spacingAndGlyphs'>RSC</text></g>
<g clip-path='url(#cpMC4wMHw1MDQuMDB8Mjg4LjAwfDAuMDA=)'><text x='28.23' y='14.93' style='font-size: 13.20px; font-family: Arial;' textLength='177.56px' lengthAdjust='spacingAndGlyphs'>Sniffer Individuals by Operator</text></g>
</svg>
