"","GEMT","GEMT_C-","GEMT_C+","GEMT_KBG","GEMT_KBG5","EMT","EMT_C-","EMT_C+","EMT_KBG","EMT_KBG5","Random"
"GEMT",0,0,0,5,0,5,5,5,5,0,5
"GEMT_C-",0,0,0,3,0,5,5,5,5,0,5
"GEMT_C+",0,0,0,3,0,4,5,4,5,0,4
"GEMT_KBG",0,0,0,0,0,2,2,1,0,0,0
"GEMT_KBG5",0,0,0,3,0,5,5,5,5,0,5
"EMT",0,0,0,0,0,0,0,0,0,0,0
"EMT_C-",0,0,0,0,0,0,0,0,0,0,0
"EMT_C+",0,0,0,0,0,0,0,0,0,0,0
"EMT_KBG",0,0,0,0,0,1,1,1,0,0,0
"EMT_KBG5",0,0,0,3,0,5,5,5,5,0,5
"Random",0,0,0,0,0,0,0,0,0,0,0
