hof-0.30-acknowledgements 32.51
hof-0.30-administratively 33.21
hof-0.30-Australopithecus 30.76
hof-0.30-bloodthirstiness 24.47
hof-0.30-cinematographers 26.57
hof-0.30-counterespionage 34.96
hof-0.30-Czechoslovakians 28.67
hof-0.30-departmentalized 33.56
hof-0.30-disqualification 32.51
hof-0.30-enthusiastically 25.87
hof-0.30-flibbertigibbets 29.02
hof-0.30-gastrointestinal 30.06
hof-0.30-hospitalizations 26.92
hof-0.30-hydroelectricity 33.21
hof-0.30-intellectualized 27.97
hof-0.30-lightheartedness 30.41
hof-0.30-melodramatically 29.72
hof-0.30-multimillionaire 29.37
hof-0.30-nationalizations 29.37
hof-0.30-neurotransmitter 26.57
hof-0.30-overcompensating 28.67
hof-0.30-photojournalists 28.67
hof-0.30-predetermination 28.32
hof-0.30-rambunctiousness 32.16
hof-0.30-sentimentalizing 29.72
hof-0.30-synchronizations 31.11
hof-0.30-teleconferencing 27.27
hof-0.30-transcendentally 26.22
hof-0.30-unscrupulousness 29.02
hof-0.30-whatchamacallits 38.81
hof-0.45-acknowledgements 45.80
hof-0.45-administratively 43.00
hof-0.45-Australopithecus 40.90
hof-0.45-bloodthirstiness 40.90
hof-0.45-cinematographers 47.55
hof-0.45-counterespionage 49.65
hof-0.45-Czechoslovakians 45.10
hof-0.45-departmentalized 43.70
hof-0.45-disqualification 50.34
hof-0.45-enthusiastically 40.55
hof-0.45-flibbertigibbets 43.35
hof-0.45-gastrointestinal 45.10
hof-0.45-hospitalizations 42.65
hof-0.45-hydroelectricity 43.35
hof-0.45-intellectualized 40.20
hof-0.45-lightheartedness 47.55
hof-0.45-melodramatically 45.10
hof-0.45-multimillionaire 47.55
hof-0.45-nationalizations 41.60
hof-0.45-neurotransmitter 44.40
hof-0.45-overcompensating 45.45
hof-0.45-photojournalists 44.40
hof-0.45-predetermination 46.15
hof-0.45-rambunctiousness 43.00
hof-0.45-sentimentalizing 43.70
hof-0.45-synchronizations 41.25
hof-0.45-teleconferencing 43.70
hof-0.45-transcendentally 38.46
hof-0.45-unscrupulousness 47.90
hof-0.45-whatchamacallits 53.84
hof-0.60-acknowledgements 59.44
hof-0.60-administratively 58.04
hof-0.60-Australopithecus 51.74
hof-0.60-bloodthirstiness 58.04
hof-0.60-cinematographers 59.79
hof-0.60-counterespionage 60.48
hof-0.60-Czechoslovakians 53.84
hof-0.60-departmentalized 61.18
hof-0.60-disqualification 63.98
hof-0.60-enthusiastically 59.79
hof-0.60-flibbertigibbets 65.73
hof-0.60-gastrointestinal 60.13
hof-0.60-hospitalizations 58.39
hof-0.60-hydroelectricity 58.04
hof-0.60-intellectualized 52.79
hof-0.60-lightheartedness 60.83
hof-0.60-melodramatically 54.89
hof-0.60-multimillionaire 59.44
hof-0.60-nationalizations 57.34
hof-0.60-neurotransmitter 58.04
hof-0.60-overcompensating 56.29
hof-0.60-photojournalists 57.69
hof-0.60-predetermination 57.69
hof-0.60-rambunctiousness 57.69
hof-0.60-sentimentalizing 57.69
hof-0.60-synchronizations 54.54
hof-0.60-teleconferencing 62.93
hof-0.60-transcendentally 55.59
hof-0.60-unscrupulousness 60.13
hof-0.60-whatchamacallits 65.73
hof-0.75-acknowledgements 76.57
hof-0.75-administratively 73.42
hof-0.75-Australopithecus 67.13
hof-0.75-bloodthirstiness 75.17
hof-0.75-cinematographers 74.82
hof-0.75-counterespionage 74.47
hof-0.75-Czechoslovakians 76.22
hof-0.75-departmentalized 68.53
hof-0.75-disqualification 77.27
hof-0.75-enthusiastically 76.57
hof-0.75-flibbertigibbets 76.22
hof-0.75-gastrointestinal 72.72
hof-0.75-hospitalizations 77.62
hof-0.75-hydroelectricity 76.22
hof-0.75-intellectualized 68.18
hof-0.75-lightheartedness 76.22
hof-0.75-melodramatically 72.02
hof-0.75-multimillionaire 70.62
hof-0.75-nationalizations 75.87
hof-0.75-neurotransmitter 71.67
hof-0.75-overcompensating 75.17
hof-0.75-photojournalists 74.12
hof-0.75-predetermination 73.77
hof-0.75-rambunctiousness 71.67
hof-0.75-sentimentalizing 73.07
hof-0.75-synchronizations 72.37
hof-0.75-teleconferencing 75.87
hof-0.75-transcendentally 71.32
hof-0.75-unscrupulousness 75.17
hof-0.75-whatchamacallits 78.32
hof-0.90-acknowledgements 88.81
hof-0.90-administratively 87.76
hof-0.90-Australopithecus 85.66
hof-0.90-bloodthirstiness 85.31
hof-0.90-cinematographers 91.25
hof-0.90-counterespionage 90.90
hof-0.90-Czechoslovakians 88.46
hof-0.90-departmentalized 92.65
hof-0.90-disqualification 89.51
hof-0.90-enthusiastically 89.51
hof-0.90-flibbertigibbets 88.11
hof-0.90-gastrointestinal 87.41
hof-0.90-hospitalizations 87.06
hof-0.90-hydroelectricity 92.30
hof-0.90-intellectualized 88.11
hof-0.90-lightheartedness 87.41
hof-0.90-melodramatically 89.86
hof-0.90-multimillionaire 87.76
hof-0.90-nationalizations 90.55
hof-0.90-neurotransmitter 87.41
hof-0.90-overcompensating 89.16
hof-0.90-photojournalists 86.01
hof-0.90-predetermination 90.55
hof-0.90-rambunctiousness 89.16
hof-0.90-sentimentalizing 83.91
hof-0.90-synchronizations 91.60
hof-0.90-teleconferencing 87.76
hof-0.90-transcendentally 85.31
hof-0.90-unscrupulousness 90.90
hof-0.90-whatchamacallits 90.20
