hof-0.30-acknowledgements 27.27
hof-0.30-administratively 29.02
hof-0.30-Australopithecus 29.37
hof-0.30-bloodthirstiness 30.06
hof-0.30-cinematographers 27.27
hof-0.30-counterespionage 29.02
hof-0.30-Czechoslovakians 30.76
hof-0.30-departmentalized 31.81
hof-0.30-disqualification 34.26
hof-0.30-enthusiastically 28.32
hof-0.30-flibbertigibbets 31.46
hof-0.30-gastrointestinal 36.36
hof-0.30-hospitalizations 33.21
hof-0.30-hydroelectricity 28.32
hof-0.30-intellectualized 32.86
hof-0.30-lightheartedness 30.76
hof-0.30-melodramatically 30.76
hof-0.30-multimillionaire 38.11
hof-0.30-nationalizations 28.32
hof-0.30-neurotransmitter 30.76
hof-0.30-overcompensating 33.21
hof-0.30-photojournalists 32.86
hof-0.30-predetermination 32.86
hof-0.30-rambunctiousness 31.46
hof-0.30-sentimentalizing 36.71
hof-0.30-synchronizations 31.11
hof-0.30-teleconferencing 28.32
hof-0.30-transcendentally 34.26
hof-0.30-unscrupulousness 33.56
hof-0.30-whatchamacallits 27.62
hof-0.45-acknowledgements 45.10
hof-0.45-administratively 46.15
hof-0.45-Australopithecus 46.15
hof-0.45-bloodthirstiness 39.86
hof-0.45-cinematographers 40.55
hof-0.45-counterespionage 45.45
hof-0.45-Czechoslovakians 41.95
hof-0.45-departmentalized 42.65
hof-0.45-disqualification 46.85
hof-0.45-enthusiastically 43.70
hof-0.45-flibbertigibbets 47.55
hof-0.45-gastrointestinal 47.90
hof-0.45-hospitalizations 49.65
hof-0.45-hydroelectricity 48.25
hof-0.45-intellectualized 52.44
hof-0.45-lightheartedness 44.40
hof-0.45-melodramatically 44.05
hof-0.45-multimillionaire 53.49
hof-0.45-nationalizations 46.50
hof-0.45-neurotransmitter 43.35
hof-0.45-overcompensating 45.10
hof-0.45-photojournalists 51.74
hof-0.45-predetermination 44.75
hof-0.45-rambunctiousness 48.60
hof-0.45-sentimentalizing 48.25
hof-0.45-synchronizations 44.05
hof-0.45-teleconferencing 48.95
hof-0.45-transcendentally 46.50
hof-0.45-unscrupulousness 50.69
hof-0.45-whatchamacallits 48.25
hof-0.60-acknowledgements 55.59
hof-0.60-administratively 55.24
hof-0.60-Australopithecus 58.04
hof-0.60-bloodthirstiness 54.89
hof-0.60-cinematographers 60.13
hof-0.60-counterespionage 57.34
hof-0.60-Czechoslovakians 55.59
hof-0.60-departmentalized 60.83
hof-0.60-disqualification 56.29
hof-0.60-enthusiastically 56.99
hof-0.60-flibbertigibbets 63.98
hof-0.60-gastrointestinal 60.48
hof-0.60-hospitalizations 60.48
hof-0.60-hydroelectricity 61.53
hof-0.60-intellectualized 64.33
hof-0.60-lightheartedness 62.23
hof-0.60-melodramatically 61.88
hof-0.60-multimillionaire 66.08
hof-0.60-nationalizations 59.09
hof-0.60-neurotransmitter 57.69
hof-0.60-overcompensating 58.04
hof-0.60-photojournalists 64.33
hof-0.60-predetermination 58.39
hof-0.60-rambunctiousness 60.48
hof-0.60-sentimentalizing 61.53
hof-0.60-synchronizations 61.53
hof-0.60-teleconferencing 62.58
hof-0.60-transcendentally 60.13
hof-0.60-unscrupulousness 62.58
hof-0.60-whatchamacallits 63.28
hof-0.75-acknowledgements 72.72
hof-0.75-administratively 67.48
hof-0.75-Australopithecus 71.32
hof-0.75-bloodthirstiness 73.07
hof-0.75-cinematographers 75.87
hof-0.75-counterespionage 76.57
hof-0.75-Czechoslovakians 75.87
hof-0.75-departmentalized 75.52
hof-0.75-disqualification 68.18
hof-0.75-enthusiastically 67.13
hof-0.75-flibbertigibbets 75.17
hof-0.75-gastrointestinal 77.97
hof-0.75-hospitalizations 78.67
hof-0.75-hydroelectricity 72.37
hof-0.75-intellectualized 77.27
hof-0.75-lightheartedness 76.57
hof-0.75-melodramatically 77.27
hof-0.75-multimillionaire 75.87
hof-0.75-nationalizations 76.22
hof-0.75-neurotransmitter 71.32
hof-0.75-overcompensating 69.23
hof-0.75-photojournalists 79.37
hof-0.75-predetermination 69.58
hof-0.75-rambunctiousness 76.57
hof-0.75-sentimentalizing 76.22
hof-0.75-synchronizations 73.07
hof-0.75-teleconferencing 78.67
hof-0.75-transcendentally 76.22
hof-0.75-unscrupulousness 79.72
hof-0.75-whatchamacallits 79.02
hof-0.90-acknowledgements 86.71
hof-0.90-administratively 88.81
hof-0.90-Australopithecus 90.90
hof-0.90-bloodthirstiness 87.06
hof-0.90-cinematographers 90.90
hof-0.90-counterespionage 89.16
hof-0.90-Czechoslovakians 89.86
hof-0.90-departmentalized 91.25
hof-0.90-disqualification 90.90
hof-0.90-enthusiastically 83.56
hof-0.90-flibbertigibbets 91.60
hof-0.90-gastrointestinal 89.86
hof-0.90-hospitalizations 90.55
hof-0.90-hydroelectricity 87.76
hof-0.90-intellectualized 90.20
hof-0.90-lightheartedness 88.46
hof-0.90-melodramatically 91.95
hof-0.90-multimillionaire 89.51
hof-0.90-nationalizations 90.20
hof-0.90-neurotransmitter 89.51
hof-0.90-overcompensating 78.67
hof-0.90-photojournalists 90.90
hof-0.90-predetermination 86.36
hof-0.90-rambunctiousness 88.11
hof-0.90-sentimentalizing 93.70
hof-0.90-synchronizations 89.51
hof-0.90-teleconferencing 90.55
hof-0.90-transcendentally 88.46
hof-0.90-unscrupulousness 91.95
hof-0.90-whatchamacallits 89.51
