hof-0.30-acknowledgements 36.01
hof-0.30-administratively 36.01
hof-0.30-Australopithecus 32.16
hof-0.30-bloodthirstiness 37.41
hof-0.30-cinematographers 36.71
hof-0.30-counterespionage 24.82
hof-0.30-Czechoslovakians 34.61
hof-0.30-departmentalized 35.31
hof-0.30-disqualification 32.86
hof-0.30-enthusiastically 32.86
hof-0.30-flibbertigibbets 32.86
hof-0.30-gastrointestinal 30.41
hof-0.30-hospitalizations 28.32
hof-0.30-hydroelectricity 34.61
hof-0.30-intellectualized 31.11
hof-0.30-lightheartedness 37.41
hof-0.30-melodramatically 36.36
hof-0.30-multimillionaire 37.41
hof-0.30-nationalizations 30.41
hof-0.30-neurotransmitter 34.61
hof-0.30-overcompensating 29.72
hof-0.30-photojournalists 28.32
hof-0.30-predetermination 28.32
hof-0.30-rambunctiousness 33.91
hof-0.30-sentimentalizing 40.55
hof-0.30-synchronizations 31.11
hof-0.30-teleconferencing 32.86
hof-0.30-transcendentally 36.71
hof-0.30-unscrupulousness 34.26
hof-0.30-whatchamacallits 33.21
hof-0.45-acknowledgements 52.09
hof-0.45-administratively 49.65
hof-0.45-Australopithecus 47.20
hof-0.45-bloodthirstiness 52.44
hof-0.45-cinematographers 49.30
hof-0.45-counterespionage 44.05
hof-0.45-Czechoslovakians 50.00
hof-0.45-departmentalized 45.10
hof-0.45-disqualification 45.45
hof-0.45-enthusiastically 48.25
hof-0.45-flibbertigibbets 45.45
hof-0.45-gastrointestinal 44.75
hof-0.45-hospitalizations 43.35
hof-0.45-hydroelectricity 47.55
hof-0.45-intellectualized 47.20
hof-0.45-lightheartedness 53.84
hof-0.45-melodramatically 52.44
hof-0.45-multimillionaire 53.14
hof-0.45-nationalizations 48.25
hof-0.45-neurotransmitter 53.49
hof-0.45-overcompensating 44.05
hof-0.45-photojournalists 43.70
hof-0.45-predetermination 52.09
hof-0.45-rambunctiousness 46.85
hof-0.45-sentimentalizing 48.95
hof-0.45-synchronizations 46.50
hof-0.45-teleconferencing 53.14
hof-0.45-transcendentally 51.39
hof-0.45-unscrupulousness 50.34
hof-0.45-whatchamacallits 47.20
hof-0.60-acknowledgements 68.18
hof-0.60-administratively 65.38
hof-0.60-Australopithecus 57.69
hof-0.60-bloodthirstiness 66.08
hof-0.60-cinematographers 67.48
hof-0.60-counterespionage 56.99
hof-0.60-Czechoslovakians 60.13
hof-0.60-departmentalized 61.18
hof-0.60-disqualification 62.93
hof-0.60-enthusiastically 59.79
hof-0.60-flibbertigibbets 64.33
hof-0.60-gastrointestinal 63.98
hof-0.60-hospitalizations 55.94
hof-0.60-hydroelectricity 60.83
hof-0.60-intellectualized 60.48
hof-0.60-lightheartedness 64.33
hof-0.60-melodramatically 66.08
hof-0.60-multimillionaire 67.83
hof-0.60-nationalizations 68.18
hof-0.60-neurotransmitter 67.48
hof-0.60-overcompensating 55.59
hof-0.60-photojournalists 59.44
hof-0.60-predetermination 60.48
hof-0.60-rambunctiousness 62.23
hof-0.60-sentimentalizing 61.88
hof-0.60-synchronizations 55.94
hof-0.60-teleconferencing 62.58
hof-0.60-transcendentally 63.28
hof-0.60-unscrupulousness 61.88
hof-0.60-whatchamacallits 62.58
hof-0.75-acknowledgements 81.46
hof-0.75-administratively 74.82
hof-0.75-Australopithecus 73.07
hof-0.75-bloodthirstiness 79.02
hof-0.75-cinematographers 81.46
hof-0.75-counterespionage 72.02
hof-0.75-Czechoslovakians 69.58
hof-0.75-departmentalized 73.77
hof-0.75-disqualification 79.37
hof-0.75-enthusiastically 75.52
hof-0.75-flibbertigibbets 82.51
hof-0.75-gastrointestinal 75.87
hof-0.75-hospitalizations 70.62
hof-0.75-hydroelectricity 72.72
hof-0.75-intellectualized 73.77
hof-0.75-lightheartedness 75.52
hof-0.75-melodramatically 76.57
hof-0.75-multimillionaire 79.37
hof-0.75-nationalizations 82.51
hof-0.75-neurotransmitter 80.41
hof-0.75-overcompensating 71.32
hof-0.75-photojournalists 78.67
hof-0.75-predetermination 75.52
hof-0.75-rambunctiousness 78.67
hof-0.75-sentimentalizing 79.02
hof-0.75-synchronizations 71.32
hof-0.75-teleconferencing 79.02
hof-0.75-transcendentally 78.32
hof-0.75-unscrupulousness 76.57
hof-0.75-whatchamacallits 80.06
hof-0.90-acknowledgements 89.86
hof-0.90-administratively 91.60
hof-0.90-Australopithecus 89.16
hof-0.90-bloodthirstiness 90.90
hof-0.90-cinematographers 93.35
hof-0.90-counterespionage 84.26
hof-0.90-Czechoslovakians 85.66
hof-0.90-departmentalized 88.81
hof-0.90-disqualification 90.90
hof-0.90-enthusiastically 88.11
hof-0.90-flibbertigibbets 91.95
hof-0.90-gastrointestinal 91.25
hof-0.90-hospitalizations 86.36
hof-0.90-hydroelectricity 85.31
hof-0.90-intellectualized 86.71
hof-0.90-lightheartedness 87.06
hof-0.90-melodramatically 91.95
hof-0.90-multimillionaire 87.06
hof-0.90-nationalizations 93.00
hof-0.90-neurotransmitter 93.35
hof-0.90-overcompensating 88.81
hof-0.90-photojournalists 95.10
hof-0.90-predetermination 88.81
hof-0.90-rambunctiousness 90.90
hof-0.90-sentimentalizing 92.65
hof-0.90-synchronizations 89.16
hof-0.90-teleconferencing 89.86
hof-0.90-transcendentally 93.35
hof-0.90-unscrupulousness 91.95
hof-0.90-whatchamacallits 93.70
