PRE 3 1 1 160 1
POC 4 1 1 221 1
PFP 6 1 1 221 1
RLO 11 1 1 267 1
RLO 11 2 1 287 1
RRO 15 1 1 217 1
RRO 15 1 2 217 1
RRO 15 1 3 217 1
RRO 15 1 4 217 1
RRO 15 1 5 217 1
RRO 15 2 1 223 1
RRO 15 2 2 223 1
RRO 15 2 3 223 1
RRO 15 2 4 223 1
RRO 15 2 5 223 1
RRO 15 3 1 227 1
RRO 15 3 2 227 1
RRO 15 3 3 227 1
RRO 15 3 4 227 1
RRO 15 3 5 227 1
RRO 15 4 1 265 1
RRO 15 4 2 265 1
RRO 15 4 3 265 1
RRO 15 4 4 265 1
RRO 15 4 5 265 1
RRO 15 5 1 279 1
RRO 15 5 2 279 1
RRO 15 5 3 279 1
RRO 15 5 4 279 1
RRO 15 5 5 279 1
RRO 15 6 1 299 1
RRO 15 6 2 299 1
RRO 15 6 3 299 1
RRO 15 6 4 299 1
RRO 15 6 5 299 1
RRO 15 7 1 320 1
RRO 15 7 2 320 1
RRO 15 7 3 320 1
RRO 15 7 4 320 1
RRO 15 7 5 320 1
RRO 15 8 1 342 1
RRO 15 8 2 342 1
RRO 15 8 3 342 1
RRO 15 8 4 342 1
RRO 15 8 5 342 1
RRO 15 9 1 355 1
RRO 15 9 2 355 1
RRO 15 9 3 355 1
RRO 15 9 4 355 1
RRO 15 9 5 355 1
RRO 15 10 1 359 1
RRO 15 10 2 359 1
RRO 15 10 3 359 1
RRO 15 10 4 359 1
RRO 15 10 5 359 1
RRO 15 11 1 397 1
RRO 15 11 2 397 1
RRO 15 11 3 397 1
RRO 15 11 4 397 1
RRO 15 11 5 397 1
RNO 16 1 1 219 1
RNO 16 1 2 219 1
RNO 16 2 1 267 1
RNO 16 2 2 267 1
RNO 16 3 1 399 1
RNO 16 3 2 399 1
RSC 32 1 1 105 1
RSC 32 1 2 105 1
RSC 32 1 3 105 1
RSC 32 1 4 105 1
RSC 32 1 5 105 1
PRE 3 2 1 157 2
POC 4 2 1 217 2
PFP 6 2 1 217 2
RLO 11 3 1 263 2
RLO 11 4 1 283 2
RRO 15 12 1 174 2
RRO 15 12 2 174 2
RRO 15 12 3 174 2
RRO 15 12 4 174 2
RRO 15 12 5 174 2
RRO 15 13 1 212 2
RRO 15 13 2 212 2
RRO 15 13 3 212 2
RRO 15 13 4 212 2
RRO 15 13 5 212 2
RRO 15 14 1 218 2
RRO 15 14 2 218 2
RRO 15 14 3 218 2
RRO 15 14 4 218 2
RRO 15 14 5 218 2
RRO 15 15 1 222 2
RRO 15 15 2 222 2
RRO 15 15 3 222 2
RRO 15 15 4 222 2
RRO 15 15 5 222 2
RRO 15 16 1 260 2
RRO 15 16 2 260 2
RRO 15 16 3 260 2
RRO 15 16 4 260 2
RRO 15 16 5 260 2
RRO 15 17 1 274 2
RRO 15 17 2 274 2
RRO 15 17 3 274 2
RRO 15 17 4 274 2
RRO 15 17 5 274 2
RRO 15 18 1 294 2
RRO 15 18 2 294 2
RRO 15 18 3 294 2
RRO 15 18 4 294 2
RRO 15 18 5 294 2
RRO 15 19 1 315 2
RRO 15 19 2 315 2
RRO 15 19 3 315 2
RRO 15 19 4 315 2
RRO 15 19 5 315 2
RRO 15 20 1 337 2
RRO 15 20 2 337 2
RRO 15 20 3 337 2
RRO 15 20 4 337 2
RRO 15 20 5 337 2
RRO 15 21 1 350 2
RRO 15 21 2 350 2
RRO 15 21 3 350 2
RRO 15 21 4 350 2
RRO 15 21 5 350 2
RRO 15 22 1 354 2
RRO 15 22 2 354 2
RRO 15 22 3 354 2
RRO 15 22 4 354 2
RRO 15 22 5 354 2
RNO 16 4 1 215 2
RNO 16 4 2 215 2
RNO 16 5 1 263 2
RNO 16 5 2 263 2
RNO 16 6 1 395 2
RNO 16 6 2 395 2
RSC 32 2 1 102 2
RSC 32 2 2 102 2
RSC 32 2 3 102 2
RSC 32 2 4 102 2
RSC 32 2 5 102 2
PRE 3 3 1 253 3
POC 4 3 1 304 3
PFP 6 3 1 304 3
RLO 11 5 1 357 3
RLO 11 6 1 389 3
RLO 11 7 1 419 3
RAO 14 1 1 176 3
RAO 14 1 2 176 3
RAO 14 1 3 176 3
RAO 14 1 4 176 3
RRO 15 23 1 348 3
RRO 15 23 2 348 3
RRO 15 23 3 348 3
RRO 15 23 4 348 3
RRO 15 23 5 348 3
RRO 15 24 1 375 3
RRO 15 24 2 375 3
RRO 15 24 3 375 3
RRO 15 24 4 375 3
RRO 15 24 5 375 3
RRO 15 25 1 406 3
RRO 15 25 2 406 3
RRO 15 25 3 406 3
RRO 15 25 4 406 3
RRO 15 25 5 406 3
RRO 15 26 1 441 3
RRO 15 26 2 441 3
RRO 15 26 3 441 3
RRO 15 26 4 441 3
RRO 15 26 5 441 3
RRO 15 27 1 473 3
RRO 15 27 2 473 3
RRO 15 27 3 473 3
RRO 15 27 4 473 3
RRO 15 27 5 473 3
RRO 15 28 1 505 3
RRO 15 28 2 505 3
RRO 15 28 3 505 3
RRO 15 28 4 505 3
RRO 15 28 5 505 3
RRO 15 29 1 531 3
RRO 15 29 2 531 3
RRO 15 29 3 531 3
RRO 15 29 4 531 3
RRO 15 29 5 531 3
RRO 15 30 1 571 3
RRO 15 30 2 571 3
RRO 15 30 3 571 3
RRO 15 30 4 571 3
RRO 15 30 5 571 3
RSC 32 3 1 131 3
RSC 32 3 2 131 3
RSC 32 3 3 131 3
RSC 32 3 4 131 3
RSC 32 3 5 131 3
RRO 15 31 1 282 4
RRO 15 31 2 282 4
RRO 15 31 3 282 4
RRO 15 31 4 282 4
RRO 15 31 5 282 4
RNO 16 7 1 285 4
RNO 16 7 2 285 4
RSC 32 4 1 131 4
RSC 32 4 2 131 4
RSC 32 4 3 131 4
RSC 32 4 4 131 4
RSC 32 4 5 131 4
IRC 33 1 1 260 4
INC 34 1 1 260 4
RRO 15 32 1 272 5
RRO 15 32 2 272 5
RRO 15 32 3 272 5
RRO 15 32 4 272 5
RRO 15 32 5 272 5
RNO 16 8 1 275 5
RNO 16 8 2 275 5
RSC 32 5 1 128 5
RSC 32 5 2 128 5
RSC 32 5 3 128 5
RSC 32 5 4 128 5
RSC 32 5 5 128 5
IRC 33 2 1 257 5
INC 34 2 1 257 5
RAF 13 1 1 150 6
RAF 13 1 2 150 6
RAF 13 1 3 150 6
RAF 13 1 4 150 6
RAF 13 1 5 150 6
RAF 13 1 6 150 6
RAF 13 1 7 150 6
RAF 13 1 8 150 6
RAF 13 1 9 150 6
RAF 13 1 10 150 6
RAF 13 1 11 150 6
RAF 13 1 12 150 6
RAF 13 1 13 150 6
RAF 13 1 14 150 6
RAF 13 1 15 150 6
RAF 13 2 1 171 6
RAF 13 2 2 171 6
RAF 13 2 3 171 6
RAF 13 2 4 171 6
RAF 13 2 5 171 6
RAF 13 2 6 171 6
RAF 13 2 7 171 6
RAF 13 2 8 171 6
RAF 13 2 9 171 6
RAF 13 2 10 171 6
RAF 13 2 11 171 6
RAF 13 2 12 171 6
RAF 13 2 13 171 6
RAF 13 2 14 171 6
RAF 13 2 15 171 6
RAF 13 3 1 192 6
RAF 13 3 2 192 6
RAF 13 3 3 192 6
RAF 13 3 4 192 6
RAF 13 3 5 192 6
RAF 13 3 6 192 6
RAF 13 3 7 192 6
RAF 13 3 8 192 6
RAF 13 3 9 192 6
RAF 13 3 10 192 6
RAF 13 3 11 192 6
RAF 13 3 12 192 6
RAF 13 3 13 192 6
RAF 13 3 14 192 6
RAF 13 3 15 192 6
RRO 15 33 1 331 6
RRO 15 33 2 331 6
RRO 15 33 3 331 6
RRO 15 33 4 331 6
RRO 15 33 5 331 6
RNO 16 9 1 334 6
RNO 16 9 2 334 6
RGR 19 1 1 286 6
RGR 19 1 2 286 6
RGR 19 2 1 286 6
RGR 19 2 2 286 6
RSC 32 6 1 143 6
RSC 32 6 2 143 6
RSC 32 6 3 143 6
RSC 32 6 4 143 6
RSC 32 6 5 143 6
