RRO 15 1 1 138 1
RRO 15 1 2 138 1
RRO 15 1 3 138 1
RRO 15 1 4 138 1
RRO 15 1 5 138 1
RSC 32 1 1 67 1
RSC 32 1 2 67 1
RSC 32 1 3 67 1
RSC 32 1 4 67 1
RSC 32 1 5 67 1
IRC 33 1 1 123 1
INC 34 1 1 123 1
RRO 15 2 1 136 2
RRO 15 2 2 136 2
RRO 15 2 3 136 2
RRO 15 2 4 136 2
RRO 15 2 5 136 2
RSC 32 2 1 65 2
RSC 32 2 2 65 2
RSC 32 2 3 65 2
RSC 32 2 4 65 2
RSC 32 2 5 65 2
IRC 33 2 1 121 2
INC 34 2 1 121 2
PRE 3 1 1 194 3
POC 4 1 1 235 3
PFP 6 1 1 235 3
RLO 11 1 1 284 3
RAO 14 1 1 150 3
RAO 14 1 2 150 3
RAO 14 1 3 150 3
RAO 14 1 4 150 3
RRO 15 3 1 211 3
RRO 15 3 2 211 3
RRO 15 3 3 211 3
RRO 15 3 4 211 3
RRO 15 3 5 211 3
RRO 15 4 1 236 3
RRO 15 4 2 236 3
RRO 15 4 3 236 3
RRO 15 4 4 236 3
RRO 15 4 5 236 3
RSC 32 3 1 105 3
RSC 32 3 2 105 3
RSC 32 3 3 105 3
RSC 32 3 4 105 3
RSC 32 3 5 105 3
RRO 15 5 1 171 4
RRO 15 5 2 171 4
RRO 15 5 3 171 4
RRO 15 5 4 171 4
RRO 15 5 5 171 4
RNO 16 1 1 173 4
RNO 16 1 2 173 4
RSC 32 4 1 75 4
RSC 32 4 2 75 4
RSC 32 4 3 75 4
RSC 32 4 4 75 4
RSC 32 4 5 75 4
IRC 33 3 1 160 4
INC 34 3 1 160 4
