2018-11-05 12:02:05   [67012271 ms] MUTANT_N {ORDER (OPERATOR, LOCATION, ATTRIBUTE)+}, FITNESS, [COMPARISON RESULTS]
2018-11-05 12:02:05   [67012271 ms] MUTANT_0{1 (RRO, 22, 2)}, 87.0, [1]
2018-11-05 12:02:05   [67012271 ms] MUTANT_1{1 (RRO, 6, 5)}, 87.0, [1]
2018-11-05 12:02:05   [67012271 ms] MUTANT_2{1 (RRO, 2, 4)}, 87.0, [1]
2018-11-05 12:02:05   [67012271 ms] MUTANT_3{1 (RGR, 1, 2)}, 277.0, [0]
2018-11-05 12:02:05   [67012271 ms] MUTANT_4{1 (RRO, 17, 1)}, 277.0, [0]
2018-11-05 12:02:05   [67012271 ms] MUTANT_5{1 (RRO, 27, 3)}, 277.0, [0]
2018-11-05 12:02:05   [67012271 ms] MUTANT_6{1 (RRO, 31, 4)}, 277.0, [0]
2018-11-05 12:02:05   [67012272 ms] MUTANT_7{1 (RRO, 26, 3)}, 277.0, [0]
2018-11-05 12:02:05   [67012272 ms] MUTANT_8{1 (RRO, 21, 2)}, 87.0, [1]
2018-11-05 12:02:05   [67012272 ms] MUTANT_9{1 (RRO, 7, 5)}, 277.0, [0]
2018-11-05 12:02:05   [67012272 ms] MUTANT_10{1 (RRO, 32, 4)}, 277.0, [0]
2018-11-05 12:02:05   [67012272 ms] MUTANT_11{1 (RAF, 3, 5)}, 87.0, [1]
2018-11-05 12:02:05   [67012272 ms] MUTANT_12{1 (RNO, 6, 1)}, 87.0, [1]
2018-11-05 12:02:05   [67012272 ms] MUTANT_13{1 (RSC, 6, 1)}, 87.0, [1]
2018-11-05 12:02:05   [67012272 ms] MUTANT_14{1 (RRO, 5, 5)}, 277.0, [0]
2018-11-05 12:02:05   [67012272 ms] MUTANT_15{1 (RAF, 1, 5)}, 87.0, [1]
2018-11-05 12:02:05   [67012272 ms] MUTANT_16{1 (RNO, 9, 2)}, 87.0, [1]
2018-11-05 12:02:05   [67012272 ms] MUTANT_17{1 (RNO, 4, 1)}, 87.0, [1]
2018-11-05 12:02:05   [67012272 ms] MUTANT_18{1 (RAF, 2, 11)}, 87.0, [1]
2018-11-05 12:02:05   [67012273 ms] MUTANT_19{1 (RRO, 20, 2)}, 87.0, [1]
2018-11-05 12:02:05   [67012273 ms] MUTANT_20{1 (RRO, 28, 3)}, 87.0, [1]
2018-11-05 12:02:05   [67012273 ms] MUTANT_21{1 (RRO, 24, 2)}, 87.0, [1]
2018-11-05 12:02:05   [67012273 ms] MUTANT_22{1 (RRO, 4, 4)}, 87.0, [1]
2018-11-05 12:02:05   [67012273 ms] MUTANT_23{1 (RRO, 3, 4)}, 277.0, [0]
2018-11-05 12:02:05   [67012273 ms] MUTANT_24{1 (RRO, 30, 4)}, 277.0, [0]
2018-11-05 12:02:05   [67012273 ms] MUTANT_25{1 (RRO, 33, 5)}, 87.0, [1]
2018-11-05 12:02:05   [67012273 ms] MUTANT_26{1 (RGR, 2, 2)}, 87.0, [1]
2018-11-05 12:02:05   [67012273 ms] MUTANT_27{1 (RRO, 25, 2)}, 277.0, [0]
2018-11-05 12:02:05   [67012273 ms] MUTANT_28{1 (RNO, 8, 2)}, 87.0, [1]
2018-11-05 12:02:05   [67012273 ms] MUTANT_29{1 (RNO, 5, 1)}, 87.0, [1]
2018-11-05 12:02:05   [67012274 ms] MUTANT_30{1 (RAF, 3, 11)}, 87.0, [1]
2018-11-05 12:02:05   [67012274 ms] MUTANT_31{1 (RRO, 30, 3)}, 277.0, [0]
2018-11-05 12:02:05   [67012274 ms] MUTANT_32{1 (RRO, 10, 5)}, 87.0, [1]
2018-11-05 12:02:05   [67012274 ms] MUTANT_33{1 (RRO, 23, 3)}, 277.0, [0]
2018-11-05 12:02:05   [67012274 ms] MUTANT_34{1 (RAF, 1, 12)}, 87.0, [1]
2018-11-05 12:02:05   [67012274 ms] MUTANT_35{1 (RRO, 1, 3)}, 182.0, [3]
2018-11-05 12:02:05   [67012274 ms] MUTANT_36{1 (RRO, 14, 1)}, 87.0, [1]
2018-11-05 12:02:05   [67012274 ms] MUTANT_37{1 (RNO, 8, 1)}, 87.0, [1]
2018-11-05 12:02:05   [67012274 ms] MUTANT_38{1 (RRO, 5, 4)}, 277.0, [0]
2018-11-05 12:02:05   [67012274 ms] MUTANT_39{1 (RAF, 2, 4)}, 87.0, [1]
2018-11-05 12:02:05   [67012274 ms] MUTANT_40{1 (RSC, 4, 1)}, 87.0, [1]
2018-11-05 12:02:05   [67012274 ms] MUTANT_41{1 (RNO, 9, 1)}, 87.0, [1]
2018-11-05 12:02:05   [67012275 ms] MUTANT_42{1 (RAO, 1, 2)}, 277.0, [0]
2018-11-05 12:02:05   [67012275 ms] MUTANT_43{1 (RSC, 3, 1)}, 87.0, [1]
2018-11-05 12:02:05   [67012275 ms] MUTANT_44{1 (RRO, 29, 3)}, 277.0, [0]
2018-11-05 12:02:05   [67012275 ms] MUTANT_45{1 (RRO, 2, 3)}, 87.0, [1]
2018-11-05 12:02:05   [67012275 ms] MUTANT_46{1 (RRO, 19, 2)}, 277.0, [0]
2018-11-05 12:02:05   [67012275 ms] MUTANT_47{1 (RRO, 26, 2)}, 277.0, [0]
2018-11-05 12:02:05   [67012275 ms] MUTANT_48{1 (RRO, 22, 3)}, 87.0, [1]
2018-11-05 12:02:05   [67012275 ms] MUTANT_49{1 (RRO, 17, 2)}, 87.0, [1]
2018-11-05 12:02:05   [67012275 ms] MUTANT_50{1 (RRO, 8, 5)}, 87.0, [1]
2018-11-05 12:02:05   [67012275 ms] MUTANT_51{1 (RAF, 3, 4)}, 277.0, [0]
2018-11-05 12:02:05   [67012275 ms] MUTANT_52{1 (RSC, 5, 1)}, 87.0, [1]
2018-11-05 12:02:05   [67012275 ms] MUTANT_53{1 (RRO, 16, 1)}, 87.0, [1]
2018-11-05 12:02:05   [67012276 ms] MUTANT_54{1 (RGR, 2, 1)}, 87.0, [1]
2018-11-05 12:02:05   [67012276 ms] MUTANT_55{1 (RNO, 7, 1)}, 277.0, [0]
2018-11-05 12:02:05   [67012276 ms] MUTANT_56{1 (RRO, 15, 1)}, 87.0, [1]
2018-11-05 12:02:05   [67012276 ms] MUTANT_57{1 (RAF, 1, 6)}, 87.0, [1]
2018-11-05 12:02:05   [67012276 ms] MUTANT_58{1 (RAF, 2, 10)}, 87.0, [1]
2018-11-05 12:02:05   [67012276 ms] MUTANT_59{1 (RLO, 3, 1)}, 87.0, [1]
2018-11-05 12:02:05   [67012276 ms] MUTANT_60{1 (RRO, 24, 1)}, 87.0, [1]
2018-11-05 12:02:05   [67012276 ms] MUTANT_61{1 (RGR, 1, 1)}, 87.0, [1]
2018-11-05 12:02:05   [67012276 ms] MUTANT_62{1 (RRO, 6, 4)}, 87.0, [1]
2018-11-05 12:02:05   [67012276 ms] MUTANT_63{1 (RRO, 27, 2)}, 87.0, [1]
2018-11-05 12:02:05   [67012276 ms] MUTANT_64{1 (RRO, 3, 3)}, 87.0, [1]
2018-11-05 12:02:05   [67012276 ms] MUTANT_65{1 (RRO, 9, 4)}, 277.0, [0]
2018-11-05 12:02:05   [67012277 ms] MUTANT_66{1 (RRO, 28, 5)}, 87.0, [1]
2018-11-05 12:02:05   [67012277 ms] MUTANT_67{1 (IRC, 2, 1)}, 87.0, [1]
2018-11-05 12:02:05   [67012277 ms] MUTANT_68{1 (RRO, 24, 4)}, 87.0, [1]
2018-11-05 12:02:05   [67012277 ms] MUTANT_69{1 (RNO, 2, 2)}, 87.0, [1]
2018-11-05 12:02:05   [67012277 ms] MUTANT_70{1 (RAF, 3, 10)}, 87.0, [1]
2018-11-05 12:02:05   [67012277 ms] MUTANT_71{1 (RLO, 2, 1)}, 87.0, [1]
2018-11-05 12:02:05   [67012277 ms] MUTANT_72{1 (RSC, 1, 1)}, 277.0, [0]
2018-11-05 12:02:05   [67012277 ms] MUTANT_73{1 (RAF, 1, 13)}, 87.0, [1]
2018-11-05 12:02:05   [67012277 ms] MUTANT_74{1 (RSC, 4, 2)}, 277.0, [0]
2018-11-05 12:02:05   [67012277 ms] MUTANT_75{1 (RRO, 4, 3)}, 277.0, [0]
2018-11-05 12:02:05   [67012277 ms] MUTANT_76{1 (RRO, 12, 5)}, 87.0, [1]
2018-11-05 12:02:05   [67012277 ms] MUTANT_77{1 (RAF, 2, 3)}, 87.0, [1]
2018-11-05 12:02:05   [67012278 ms] MUTANT_78{1 (RRO, 25, 4)}, 277.0, [0]
2018-11-05 12:02:05   [67012278 ms] MUTANT_79{1 (RRO, 14, 5)}, 87.0, [1]
2018-11-05 12:02:05   [67012278 ms] MUTANT_80{1 (RRO, 2, 2)}, 277.0, [0]
2018-11-05 12:02:05   [67012278 ms] MUTANT_81{1 (RRO, 7, 4)}, 87.0, [1]
2018-11-05 12:02:05   [67012278 ms] MUTANT_82{1 (RSC, 6, 2)}, 277.0, [0]
2018-11-05 12:02:05   [67012278 ms] MUTANT_83{1 (RRO, 15, 5)}, 87.0, [1]
2018-11-05 12:02:05   [67012278 ms] MUTANT_84{1 (RRO, 6, 3)}, 87.0, [1]
2018-11-05 12:02:05   [67012278 ms] MUTANT_85{1 (RRO, 23, 1)}, 87.0, [1]
2018-11-05 12:02:05   [67012278 ms] MUTANT_86{1 (RNO, 4, 2)}, 277.0, [0]
2018-11-05 12:02:05   [67012278 ms] MUTANT_87{1 (RLO, 1, 1)}, 277.0, [0]
2018-11-05 12:02:05   [67012278 ms] MUTANT_88{1 (RSC, 2, 1)}, 277.0, [0]
2018-11-05 12:02:05   [67012279 ms] MUTANT_89{1 (RRO, 29, 5)}, 87.0, [1]
2018-11-05 12:02:05   [67012279 ms] MUTANT_90{1 (RNO, 3, 2)}, 277.0, [0]
2018-11-05 12:02:05   [67012279 ms] MUTANT_91{1 (RRO, 22, 1)}, 87.0, [1]
2018-11-05 12:02:05   [67012279 ms] MUTANT_92{1 (RRO, 11, 5)}, 277.0, [0]
2018-11-05 12:02:05   [67012279 ms] MUTANT_93{1 (RAF, 3, 3)}, 87.0, [1]
2018-11-05 12:02:05   [67012279 ms] MUTANT_94{1 (RSC, 5, 2)}, 87.0, [1]
2018-11-05 12:02:05   [67012279 ms] MUTANT_95{1 (RRO, 5, 3)}, 87.0, [1]
2018-11-05 12:02:05   [67012279 ms] MUTANT_96{1 (RAF, 1, 7)}, 87.0, [1]
2018-11-05 12:02:05   [67012279 ms] MUTANT_97{1 (RRO, 8, 4)}, 87.0, [1]
2018-11-05 12:02:05   [67012279 ms] MUTANT_98{1 (RRO, 21, 1)}, 277.0, [0]
2018-11-05 12:02:05   [67012279 ms] MUTANT_99{1 (RAF, 2, 9)}, 87.0, [1]
2018-11-05 12:02:05   [67012279 ms] MUTANT_100{1 (RNO, 1, 1)}, 87.0, [1]
2018-11-05 12:02:05   [67012280 ms] MUTANT_101{1 (RSC, 1, 2)}, 277.0, [0]
2018-11-05 12:02:05   [67012280 ms] MUTANT_102{1 (RNO, 6, 2)}, 277.0, [0]
2018-11-05 12:02:05   [67012280 ms] MUTANT_103{1 (RSC, 5, 3)}, 277.0, [0]
2018-11-05 12:02:05   [67012280 ms] MUTANT_104{1 (RRO, 4, 2)}, 87.0, [1]
2018-11-05 12:02:05   [67012280 ms] MUTANT_105{1 (RNO, 5, 2)}, 87.0, [1]
2018-11-05 12:02:05   [67012280 ms] MUTANT_106{1 (RRO, 12, 4)}, 87.0, [1]
2018-11-05 12:02:05   [67012280 ms] MUTANT_107{1 (RRO, 8, 3)}, 87.0, [1]
2018-11-05 12:02:05   [67012280 ms] MUTANT_108{1 (RRO, 3, 2)}, 277.0, [0]
2018-11-05 12:02:05   [67012280 ms] MUTANT_109{1 (RNO, 2, 1)}, 277.0, [0]
2018-11-05 12:02:05   [67012280 ms] MUTANT_110{1 (RAF, 3, 9)}, 277.0, [0]
2018-11-05 12:02:05   [67012280 ms] MUTANT_111{1 (RRO, 24, 3)}, 277.0, [0]
2018-11-05 12:02:05   [67012280 ms] MUTANT_112{1 (RNO, 7, 2)}, 87.0, [1]
2018-11-05 12:02:05   [67012281 ms] MUTANT_113{1 (RAF, 1, 1)}, 87.0, [1]
2018-11-05 12:02:05   [67012281 ms] MUTANT_114{1 (RSC, 2, 2)}, 87.0, [1]
2018-11-05 12:02:05   [67012281 ms] MUTANT_115{1 (RRO, 27, 4)}, 277.0, [0]
2018-11-05 12:02:05   [67012281 ms] MUTANT_116{1 (RRO, 32, 5)}, 87.0, [1]
2018-11-05 12:02:05   [67012281 ms] MUTANT_117{1 (INC, 1, 1)}, 87.0, [1]
2018-11-05 12:02:05   [67012281 ms] MUTANT_118{1 (RRO, 1, 1)}, 182.0, [3]
2018-11-05 12:02:05   [67012281 ms] MUTANT_119{1 (INC, 2, 1)}, 87.0, [1]
2018-11-05 12:02:05   [67012281 ms] MUTANT_120{1 (RAF, 1, 14)}, 87.0, [1]
2018-11-05 12:02:05   [67012281 ms] MUTANT_121{1 (RNO, 3, 1)}, 87.0, [1]
2018-11-05 12:02:05   [67012281 ms] MUTANT_122{1 (RRO, 11, 4)}, 87.0, [1]
2018-11-05 12:02:05   [67012281 ms] MUTANT_123{1 (RRO, 19, 1)}, 277.0, [0]
2018-11-05 12:02:05   [67012282 ms] MUTANT_124{1 (RAF, 2, 15)}, 87.0, [1]
2018-11-05 12:02:05   [67012282 ms] MUTANT_125{1 (RRO, 25, 3)}, 87.0, [1]
2018-11-05 12:02:05   [67012282 ms] MUTANT_126{1 (RRO, 5, 2)}, 87.0, [1]
2018-11-05 12:02:05   [67012282 ms] MUTANT_127{1 (RAF, 2, 2)}, 87.0, [1]
2018-11-05 12:02:05   [67012282 ms] MUTANT_128{1 (RRO, 7, 3)}, 87.0, [1]
2018-11-05 12:02:05   [67012282 ms] MUTANT_129{1 (RRO, 2, 1)}, 87.0, [1]
2018-11-05 12:02:05   [67012282 ms] MUTANT_130{1 (RRO, 20, 1)}, 87.0, [1]
2018-11-05 12:02:05   [67012282 ms] MUTANT_131{1 (IRC, 1, 1)}, 87.0, [1]
2018-11-05 12:02:05   [67012282 ms] MUTANT_132{1 (RSC, 6, 3)}, 87.0, [1]
2018-11-05 12:02:05   [67012282 ms] MUTANT_133{1 (RRO, 23, 2)}, 277.0, [0]
2018-11-05 12:02:05   [67012282 ms] MUTANT_134{1 (RRO, 28, 4)}, 87.0, [1]
2018-11-05 12:02:05   [67012283 ms] MUTANT_135{1 (RRO, 10, 4)}, 87.0, [1]
2018-11-05 12:02:05   [67012283 ms] MUTANT_136{1 (RAF, 3, 15)}, 87.0, [1]
2018-11-05 12:02:05   [67012283 ms] MUTANT_137{1 (RAO, 1, 1)}, 277.0, [0]
2018-11-05 12:02:05   [67012283 ms] MUTANT_138{1 (RSC, 3, 2)}, 277.0, [0]
2018-11-05 12:02:05   [67012283 ms] MUTANT_139{1 (RRO, 13, 5)}, 87.0, [1]
2018-11-05 12:02:05   [67012283 ms] MUTANT_140{1 (RRO, 31, 5)}, 87.0, [1]
2018-11-05 12:02:05   [67012283 ms] MUTANT_141{1 (RRO, 21, 5)}, 87.0, [1]
2018-11-05 12:02:05   [67012283 ms] MUTANT_142{1 (RAF, 1, 8)}, 87.0, [1]
2018-11-05 12:02:05   [67012283 ms] MUTANT_143{1 (RSC, 6, 4)}, 87.0, [1]
2018-11-05 12:02:05   [67012283 ms] MUTANT_144{1 (RRO, 32, 1)}, 277.0, [0]
2018-11-05 12:02:05   [67012283 ms] MUTANT_145{1 (RAF, 2, 8)}, 87.0, [1]
2018-11-05 12:02:05   [67012283 ms] MUTANT_146{1 (RRO, 11, 3)}, 87.0, [1]
2018-11-05 12:02:05   [67012284 ms] MUTANT_147{1 (PFP, 1, 1)}, 87.0, [1]
2018-11-05 12:02:05   [67012284 ms] MUTANT_148{1 (RRO, 6, 2)}, 87.0, [1]
2018-11-05 12:02:05   [67012284 ms] MUTANT_149{1 (RSC, 5, 4)}, 277.0, [0]
2018-11-05 12:02:05   [67012284 ms] MUTANT_150{1 (RRO, 3, 1)}, 277.0, [0]
2018-11-05 12:02:05   [67012284 ms] MUTANT_151{1 (RRO, 13, 3)}, 182.0, [3]
2018-11-05 12:02:05   [67012284 ms] MUTANT_152{1 (RRO, 8, 2)}, 277.0, [0]
2018-11-05 12:02:05   [67012284 ms] MUTANT_153{1 (RAF, 3, 8)}, 87.0, [1]
2018-11-05 12:02:05   [67012284 ms] MUTANT_154{1 (RRO, 19, 5)}, 87.0, [1]
2018-11-05 12:02:05   [67012284 ms] MUTANT_155{1 (RRO, 18, 4)}, 87.0, [1]
2018-11-05 12:02:05   [67012284 ms] MUTANT_156{1 (RRO, 10, 3)}, 277.0, [0]
2018-11-05 12:02:05   [67012284 ms] MUTANT_157{1 (RRO, 5, 1)}, 87.0, [1]
2018-11-05 12:02:05   [67012285 ms] MUTANT_158{1 (RSC, 4, 3)}, 87.0, [1]
2018-11-05 12:02:05   [67012285 ms] MUTANT_159{1 (RAF, 1, 2)}, 87.0, [1]
2018-11-05 12:02:05   [67012285 ms] MUTANT_160{1 (RSC, 3, 3)}, 87.0, [1]
2018-11-05 12:02:05   [67012285 ms] MUTANT_161{1 (RAF, 1, 15)}, 87.0, [1]
2018-11-05 12:02:05   [67012285 ms] MUTANT_162{1 (RRO, 31, 1)}, 87.0, [1]
2018-11-05 12:02:05   [67012285 ms] MUTANT_163{1 (RAF, 2, 14)}, 87.0, [1]
2018-11-05 12:02:05   [67012285 ms] MUTANT_164{1 (RRO, 20, 5)}, 87.0, [1]
2018-11-05 12:02:05   [67012285 ms] MUTANT_165{1 (RRO, 24, 5)}, 87.0, [1]
2018-11-05 12:02:05   [67012285 ms] MUTANT_166{1 (RAF, 2, 1)}, 87.0, [1]
2018-11-05 12:02:05   [67012285 ms] MUTANT_167{1 (RRO, 14, 3)}, 87.0, [1]
2018-11-05 12:02:05   [67012285 ms] MUTANT_168{1 (RRO, 4, 1)}, 277.0, [0]
2018-11-05 12:02:05   [67012285 ms] MUTANT_169{1 (RRO, 17, 4)}, 87.0, [1]
2018-11-05 12:02:05   [67012286 ms] MUTANT_170{1 (RRO, 7, 2)}, 277.0, [0]
2018-11-05 12:02:05   [67012286 ms] MUTANT_171{1 (RRO, 11, 2)}, 87.0, [1]
2018-11-05 12:02:05   [67012286 ms] MUTANT_172{1 (RRO, 25, 5)}, 277.0, [0]
2018-11-05 12:02:05   [67012286 ms] MUTANT_173{1 (RAF, 3, 14)}, 87.0, [1]
2018-11-05 12:02:05   [67012286 ms] MUTANT_174{1 (RAF, 3, 1)}, 87.0, [1]
2018-11-05 12:02:05   [67012286 ms] MUTANT_175{1 (RRO, 6, 1)}, 87.0, [1]
2018-11-05 12:02:05   [67012286 ms] MUTANT_176{1 (RRO, 17, 5)}, 87.0, [1]
2018-11-05 12:02:05   [67012286 ms] MUTANT_177{1 (RRO, 7, 1)}, 87.0, [1]
2018-11-05 12:02:05   [67012286 ms] MUTANT_178{1 (RRO, 10, 2)}, 87.0, [1]
2018-11-05 12:02:05   [67012286 ms] MUTANT_179{1 (RAF, 1, 9)}, 87.0, [1]
2018-11-05 12:02:05   [67012286 ms] MUTANT_180{1 (RRO, 16, 5)}, 87.0, [1]
2018-11-05 12:02:05   [67012286 ms] MUTANT_181{1 (RSC, 6, 5)}, 87.0, [1]
2018-11-05 12:02:05   [67012287 ms] MUTANT_182{1 (RSC, 3, 4)}, 277.0, [0]
2018-11-05 12:02:05   [67012287 ms] MUTANT_183{1 (RAF, 2, 7)}, 87.0, [1]
2018-11-05 12:02:05   [67012287 ms] MUTANT_184{1 (RRO, 9, 2)}, 277.0, [0]
2018-11-05 12:02:05   [67012287 ms] MUTANT_185{1 (PRE, 3, 1)}, 87.0, [1]
2018-11-05 12:02:05   [67012287 ms] MUTANT_186{1 (RRO, 14, 4)}, 87.0, [1]
2018-11-05 12:02:05   [67012287 ms] MUTANT_187{1 (RRO, 27, 5)}, 87.0, [1]
2018-11-05 12:02:05   [67012287 ms] MUTANT_188{1 (RRO, 26, 5)}, 277.0, [0]
2018-11-05 12:02:05   [67012287 ms] MUTANT_189{1 (RRO, 18, 5)}, 87.0, [1]
2018-11-05 12:02:05   [67012287 ms] MUTANT_190{1 (RAF, 3, 7)}, 277.0, [0]
2018-11-05 12:02:05   [67012287 ms] MUTANT_191{1 (RNO, 1, 2)}, 87.0, [1]
2018-11-05 12:02:05   [67012287 ms] MUTANT_192{1 (RSC, 1, 3)}, 87.0, [1]
2018-11-05 12:02:05   [67012287 ms] MUTANT_193{1 (RRO, 15, 4)}, 87.0, [1]
2018-11-05 12:02:05   [67012288 ms] MUTANT_194{1 (RAF, 1, 3)}, 87.0, [1]
2018-11-05 12:02:05   [67012288 ms] MUTANT_195{1 (RRO, 12, 3)}, 87.0, [1]
2018-11-05 12:02:05   [67012288 ms] MUTANT_196{1 (RSC, 4, 4)}, 87.0, [1]
2018-11-05 12:02:05   [67012288 ms] MUTANT_197{1 (RRO, 10, 1)}, 87.0, [1]
2018-11-05 12:02:05   [67012288 ms] MUTANT_198{1 (PRE, 1, 1)}, 87.0, [1]
2018-11-05 12:02:05   [67012288 ms] MUTANT_199{1 (POC, 3, 1)}, 87.0, [1]
2018-11-05 12:02:05   [67012288 ms] MUTANT_200{1 (RRO, 29, 2)}, 277.0, [0]
2018-11-05 12:02:05   [67012288 ms] MUTANT_201{1 (RAF, 2, 13)}, 87.0, [1]
2018-11-05 12:02:05   [67012288 ms] MUTANT_202{1 (RRO, 19, 3)}, 87.0, [1]
2018-11-05 12:02:05   [67012288 ms] MUTANT_203{1 (RRO, 23, 4)}, 277.0, [0]
2018-11-05 12:02:05   [67012288 ms] MUTANT_204{1 (RSC, 3, 5)}, 87.0, [1]
2018-11-05 12:02:05   [67012288 ms] MUTANT_205{1 (RSC, 4, 5)}, 87.0, [1]
2018-11-05 12:02:05   [67012289 ms] MUTANT_206{1 (RRO, 30, 2)}, 87.0, [1]
2018-11-05 12:02:05   [67012289 ms] MUTANT_207{1 (RRO, 20, 3)}, 87.0, [1]
2018-11-05 12:02:05   [67012289 ms] MUTANT_208{1 (POC, 2, 1)}, 87.0, [1]
2018-11-05 12:02:05   [67012289 ms] MUTANT_209{1 (RRO, 18, 3)}, 87.0, [1]
2018-11-05 12:02:05   [67012289 ms] MUTANT_210{1 (RRO, 33, 3)}, 277.0, [0]
2018-11-05 12:02:05   [67012289 ms] MUTANT_211{1 (RRO, 28, 2)}, 87.0, [1]
2018-11-05 12:02:05   [67012289 ms] MUTANT_212{1 (RRO, 15, 2)}, 182.0, [3]
2018-11-05 12:02:05   [67012289 ms] MUTANT_213{1 (RAO, 1, 3)}, 87.0, [1]
2018-11-05 12:02:05   [67012289 ms] MUTANT_214{1 (RAF, 3, 13)}, 87.0, [1]
2018-11-05 12:02:05   [67012289 ms] MUTANT_215{1 (RAF, 1, 10)}, 87.0, [1]
2018-11-05 12:02:05   [67012289 ms] MUTANT_216{1 (RRO, 32, 3)}, 87.0, [1]
2018-11-05 12:02:05   [67012289 ms] MUTANT_217{1 (RSC, 1, 4)}, 277.0, [0]
2018-11-05 12:02:05   [67012290 ms] MUTANT_218{1 (RRO, 1, 5)}, 87.0, [1]
2018-11-05 12:02:05   [67012290 ms] MUTANT_219{1 (RLO, 4, 1)}, 277.0, [0]
2018-11-05 12:02:05   [67012290 ms] MUTANT_220{1 (RRO, 27, 1)}, 87.0, [1]
2018-11-05 12:02:05   [67012290 ms] MUTANT_221{1 (RRO, 26, 1)}, 87.0, [1]
2018-11-05 12:02:05   [67012290 ms] MUTANT_222{1 (RSC, 5, 5)}, 87.0, [1]
2018-11-05 12:02:05   [67012290 ms] MUTANT_223{1 (RRO, 22, 4)}, 277.0, [0]
2018-11-05 12:02:05   [67012290 ms] MUTANT_224{1 (RRO, 8, 1)}, 87.0, [1]
2018-11-05 12:02:05   [67012290 ms] MUTANT_225{1 (RAF, 2, 6)}, 87.0, [1]
2018-11-05 12:02:05   [67012290 ms] MUTANT_226{1 (RLO, 5, 1)}, 277.0, [0]
2018-11-05 12:02:05   [67012290 ms] MUTANT_227{1 (RRO, 21, 4)}, 277.0, [0]
2018-11-05 12:02:05   [67012290 ms] MUTANT_228{1 (RRO, 13, 1)}, 87.0, [1]
2018-11-05 12:02:05   [67012291 ms] MUTANT_229{1 (PRE, 2, 1)}, 87.0, [1]
2018-11-05 12:02:05   [67012291 ms] MUTANT_230{1 (RRO, 9, 1)}, 87.0, [1]
2018-11-05 12:02:05   [67012291 ms] MUTANT_231{1 (RRO, 2, 5)}, 277.0, [0]
2018-11-05 12:02:05   [67012291 ms] MUTANT_232{1 (RSC, 2, 4)}, 87.0, [1]
2018-11-05 12:02:05   [67012291 ms] MUTANT_233{1 (RRO, 16, 2)}, 182.0, [3]
2018-11-05 12:02:05   [67012291 ms] MUTANT_234{1 (RRO, 20, 4)}, 277.0, [0]
2018-11-05 12:02:05   [67012291 ms] MUTANT_235{1 (RAF, 3, 6)}, 277.0, [0]
2018-11-05 12:02:05   [67012291 ms] MUTANT_236{1 (PFP, 3, 1)}, 87.0, [1]
2018-11-05 12:02:05   [67012291 ms] MUTANT_237{1 (RRO, 15, 3)}, 87.0, [1]
2018-11-05 12:02:05   [67012291 ms] MUTANT_238{1 (RRO, 16, 3)}, 87.0, [1]
2018-11-05 12:02:05   [67012291 ms] MUTANT_239{1 (RAF, 1, 4)}, 87.0, [1]
2018-11-05 12:02:05   [67012291 ms] MUTANT_240{1 (RAF, 2, 12)}, 87.0, [1]
2018-11-05 12:02:05   [67012292 ms] MUTANT_241{1 (RRO, 3, 5)}, 182.0, [3]
2018-11-05 12:02:05   [67012292 ms] MUTANT_242{1 (RSC, 1, 5)}, 277.0, [0]
2018-11-05 12:02:05   [67012292 ms] MUTANT_243{1 (RRO, 23, 5)}, 277.0, [0]
2018-11-05 12:02:05   [67012292 ms] MUTANT_244{1 (RLO, 6, 1)}, 277.0, [0]
2018-11-05 12:02:05   [67012292 ms] MUTANT_245{1 (RRO, 30, 1)}, 277.0, [0]
2018-11-05 12:02:05   [67012292 ms] MUTANT_246{1 (RRO, 12, 1)}, 182.0, [3]
2018-11-05 12:02:05   [67012292 ms] MUTANT_247{1 (RRO, 31, 2)}, 87.0, [1]
2018-11-05 12:02:05   [67012292 ms] MUTANT_248{1 (POC, 1, 1)}, 87.0, [1]
2018-11-05 12:02:05   [67012292 ms] MUTANT_249{1 (RSC, 2, 5)}, 277.0, [0]
2018-11-05 12:02:05   [67012292 ms] MUTANT_250{1 (RAO, 1, 4)}, 87.0, [1]
2018-11-05 12:02:05   [67012292 ms] MUTANT_251{1 (RAF, 3, 12)}, 277.0, [0]
2018-11-05 12:02:05   [67012293 ms] MUTANT_252{1 (RRO, 13, 2)}, 182.0, [3]
2018-11-05 12:02:05   [67012293 ms] MUTANT_253{1 (RRO, 17, 3)}, 277.0, [0]
2018-11-05 12:02:05   [67012293 ms] MUTANT_254{1 (RAF, 1, 11)}, 87.0, [1]
2018-11-05 12:02:05   [67012293 ms] MUTANT_255{1 (RRO, 11, 1)}, 87.0, [1]
2018-11-05 12:02:05   [67012293 ms] MUTANT_256{1 (RRO, 19, 4)}, 277.0, [0]
2018-11-05 12:02:05   [67012293 ms] MUTANT_257{1 (RRO, 32, 2)}, 87.0, [1]
2018-11-05 12:02:05   [67012293 ms] MUTANT_258{1 (PFP, 2, 1)}, 87.0, [1]
2018-11-05 12:02:05   [67012293 ms] MUTANT_259{1 (RAF, 2, 5)}, 87.0, [1]
2018-11-05 12:02:05   [67012293 ms] MUTANT_260{1 (RLO, 7, 1)}, 87.0, [1]
2018-11-05 12:02:05   [67012293 ms] MUTANT_261{1 (RRO, 22, 5)}, 87.0, [1]
2018-11-05 12:02:05   [67012293 ms] MUTANT_262{1 (RRO, 4, 5)}, 87.0, [1]
