hof-0.30-acknowledgements 19.55
hof-0.30-administratively 24.58
hof-0.30-Australopithecus 18.43
hof-0.30-bloodthirstiness 24.02
hof-0.30-cinematographers 22.90
hof-0.30-counterespionage 22.90
hof-0.30-Czechoslovakians 26.25
hof-0.30-departmentalized 24.58
hof-0.30-disqualification 18.99
hof-0.30-enthusiastically 25.13
hof-0.30-flibbertigibbets 18.99
hof-0.30-gastrointestinal 22.90
hof-0.30-hospitalizations 18.99
hof-0.30-hydroelectricity 21.78
hof-0.30-intellectualized 29.60
hof-0.30-lightheartedness 15.64
hof-0.30-melodramatically 15.08
hof-0.30-multimillionaire 22.90
hof-0.30-nationalizations 24.02
hof-0.30-neurotransmitter 22.34
hof-0.30-overcompensating 21.78
hof-0.30-photojournalists 28.49
hof-0.30-predetermination 17.31
hof-0.30-rambunctiousness 22.34
hof-0.30-sentimentalizing 24.02
hof-0.30-synchronizations 26.25
hof-0.30-teleconferencing 27.37
hof-0.30-transcendentally 22.34
hof-0.30-unscrupulousness 19.55
hof-0.30-whatchamacallits 22.90
hof-0.45-acknowledgements 33.51
hof-0.45-administratively 36.87
hof-0.45-Australopithecus 30.72
hof-0.45-bloodthirstiness 36.31
hof-0.45-cinematographers 31.28
hof-0.45-counterespionage 41.34
hof-0.45-Czechoslovakians 34.07
hof-0.45-departmentalized 35.19
hof-0.45-disqualification 25.13
hof-0.45-enthusiastically 35.19
hof-0.45-flibbertigibbets 25.69
hof-0.45-gastrointestinal 37.43
hof-0.45-hospitalizations 29.60
hof-0.45-hydroelectricity 36.31
hof-0.45-intellectualized 36.87
hof-0.45-lightheartedness 31.84
hof-0.45-melodramatically 25.69
hof-0.45-multimillionaire 35.19
hof-0.45-nationalizations 35.75
hof-0.45-neurotransmitter 27.93
hof-0.45-overcompensating 28.49
hof-0.45-photojournalists 46.36
hof-0.45-predetermination 32.40
hof-0.45-rambunctiousness 27.93
hof-0.45-sentimentalizing 32.40
hof-0.45-synchronizations 43.57
hof-0.45-teleconferencing 37.98
hof-0.45-transcendentally 31.84
hof-0.45-unscrupulousness 27.37
hof-0.45-whatchamacallits 29.05
hof-0.60-acknowledgements 43.57
hof-0.60-administratively 45.25
hof-0.60-Australopithecus 49.72
hof-0.60-bloodthirstiness 46.92
hof-0.60-cinematographers 48.60
hof-0.60-counterespionage 55.30
hof-0.60-Czechoslovakians 51.95
hof-0.60-departmentalized 48.60
hof-0.60-disqualification 36.31
hof-0.60-enthusiastically 44.13
hof-0.60-flibbertigibbets 45.25
hof-0.60-gastrointestinal 48.60
hof-0.60-hospitalizations 46.92
hof-0.60-hydroelectricity 43.57
hof-0.60-intellectualized 47.48
hof-0.60-lightheartedness 40.78
hof-0.60-melodramatically 44.13
hof-0.60-multimillionaire 46.92
hof-0.60-nationalizations 43.01
hof-0.60-neurotransmitter 41.34
hof-0.60-overcompensating 52.51
hof-0.60-photojournalists 58.65
hof-0.60-predetermination 43.01
hof-0.60-rambunctiousness 43.57
hof-0.60-sentimentalizing 55.86
hof-0.60-synchronizations 51.39
hof-0.60-teleconferencing 46.36
hof-0.60-transcendentally 51.39
hof-0.60-unscrupulousness 41.34
hof-0.60-whatchamacallits 41.89
hof-0.75-acknowledgements 51.95
hof-0.75-administratively 54.18
hof-0.75-Australopithecus 67.03
hof-0.75-bloodthirstiness 67.59
hof-0.75-cinematographers 67.03
hof-0.75-counterespionage 64.80
hof-0.75-Czechoslovakians 63.12
hof-0.75-departmentalized 67.03
hof-0.75-disqualification 49.16
hof-0.75-enthusiastically 57.54
hof-0.75-flibbertigibbets 54.74
hof-0.75-gastrointestinal 56.42
hof-0.75-hospitalizations 59.77
hof-0.75-hydroelectricity 54.18
hof-0.75-intellectualized 55.86
hof-0.75-lightheartedness 59.77
hof-0.75-melodramatically 63.12
hof-0.75-multimillionaire 63.12
hof-0.75-nationalizations 63.68
hof-0.75-neurotransmitter 58.65
hof-0.75-overcompensating 69.27
hof-0.75-photojournalists 67.59
hof-0.75-predetermination 59.77
hof-0.75-rambunctiousness 62.01
hof-0.75-sentimentalizing 70.39
hof-0.75-synchronizations 62.01
hof-0.75-teleconferencing 60.33
hof-0.75-transcendentally 69.83
hof-0.75-unscrupulousness 55.30
hof-0.75-whatchamacallits 62.56
hof-0.90-acknowledgements 72.62
hof-0.90-administratively 72.62
hof-0.90-Australopithecus 79.32
hof-0.90-bloodthirstiness 83.24
hof-0.90-cinematographers 83.24
hof-0.90-counterespionage 79.88
hof-0.90-Czechoslovakians 81.00
hof-0.90-departmentalized 91.62
hof-0.90-disqualification 80.44
hof-0.90-enthusiastically 80.44
hof-0.90-flibbertigibbets 86.03
hof-0.90-gastrointestinal 69.83
hof-0.90-hospitalizations 77.09
hof-0.90-hydroelectricity 73.18
hof-0.90-intellectualized 79.88
hof-0.90-lightheartedness 89.38
hof-0.90-melodramatically 85.47
hof-0.90-multimillionaire 75.97
hof-0.90-nationalizations 84.35
hof-0.90-neurotransmitter 82.12
hof-0.90-overcompensating 83.79
hof-0.90-photojournalists 89.38
hof-0.90-predetermination 78.77
hof-0.90-rambunctiousness 79.32
hof-0.90-sentimentalizing 88.82
hof-0.90-synchronizations 78.77
hof-0.90-teleconferencing 81.56
hof-0.90-transcendentally 87.15
hof-0.90-unscrupulousness 65.36
hof-0.90-whatchamacallits 87.15
