hof-0.30-acknowledgements 36.06
hof-0.30-administratively 16.39
hof-0.30-Australopithecus 27.86
hof-0.30-bloodthirstiness 24.59
hof-0.30-cinematographers 24.59
hof-0.30-counterespionage 27.86
hof-0.30-Czechoslovakians 29.50
hof-0.30-departmentalized 19.67
hof-0.30-disqualification 16.39
hof-0.30-enthusiastically 32.78
hof-0.30-flibbertigibbets 26.22
hof-0.30-gastrointestinal 31.14
hof-0.30-hospitalizations 47.54
hof-0.30-hydroelectricity 22.95
hof-0.30-intellectualized 37.70
hof-0.30-lightheartedness 16.39
hof-0.30-melodramatically 21.31
hof-0.30-multimillionaire 22.95
hof-0.30-nationalizations 26.22
hof-0.30-neurotransmitter 24.59
hof-0.30-overcompensating 21.31
hof-0.30-photojournalists 16.39
hof-0.30-predetermination 42.62
hof-0.30-rambunctiousness 37.70
hof-0.30-sentimentalizing 22.95
hof-0.30-synchronizations 29.50
hof-0.30-teleconferencing 16.39
hof-0.30-transcendentally 16.39
hof-0.30-unscrupulousness 16.39
hof-0.30-whatchamacallits 22.95
hof-0.45-acknowledgements 59.01
hof-0.45-administratively 42.62
hof-0.45-Australopithecus 34.42
hof-0.45-bloodthirstiness 36.06
hof-0.45-cinematographers 29.50
hof-0.45-counterespionage 34.42
hof-0.45-Czechoslovakians 40.98
hof-0.45-departmentalized 50.81
hof-0.45-disqualification 26.22
hof-0.45-enthusiastically 44.26
hof-0.45-flibbertigibbets 40.98
hof-0.45-gastrointestinal 39.34
hof-0.45-hospitalizations 59.01
hof-0.45-hydroelectricity 50.81
hof-0.45-intellectualized 55.73
hof-0.45-lightheartedness 29.50
hof-0.45-melodramatically 34.42
hof-0.45-multimillionaire 32.78
hof-0.45-nationalizations 32.78
hof-0.45-neurotransmitter 36.06
hof-0.45-overcompensating 34.42
hof-0.45-photojournalists 24.59
hof-0.45-predetermination 65.57
hof-0.45-rambunctiousness 54.09
hof-0.45-sentimentalizing 44.26
hof-0.45-synchronizations 54.09
hof-0.45-teleconferencing 26.22
hof-0.45-transcendentally 29.50
hof-0.45-unscrupulousness 31.14
hof-0.45-whatchamacallits 37.70
hof-0.60-acknowledgements 73.77
hof-0.60-administratively 55.73
hof-0.60-Australopithecus 57.37
hof-0.60-bloodthirstiness 49.18
hof-0.60-cinematographers 60.65
hof-0.60-counterespionage 44.26
hof-0.60-Czechoslovakians 55.73
hof-0.60-departmentalized 70.49
hof-0.60-disqualification 34.42
hof-0.60-enthusiastically 60.65
hof-0.60-flibbertigibbets 49.18
hof-0.60-gastrointestinal 44.26
hof-0.60-hospitalizations 65.57
hof-0.60-hydroelectricity 59.01
hof-0.60-intellectualized 62.29
hof-0.60-lightheartedness 36.06
hof-0.60-melodramatically 65.57
hof-0.60-multimillionaire 42.62
hof-0.60-nationalizations 40.98
hof-0.60-neurotransmitter 52.45
hof-0.60-overcompensating 49.18
hof-0.60-photojournalists 39.34
hof-0.60-predetermination 70.49
hof-0.60-rambunctiousness 65.57
hof-0.60-sentimentalizing 52.45
hof-0.60-synchronizations 59.01
hof-0.60-teleconferencing 36.06
hof-0.60-transcendentally 54.09
hof-0.60-unscrupulousness 44.26
hof-0.60-whatchamacallits 57.37
hof-0.75-acknowledgements 85.24
hof-0.75-administratively 62.29
hof-0.75-Australopithecus 68.85
hof-0.75-bloodthirstiness 59.01
hof-0.75-cinematographers 80.32
hof-0.75-counterespionage 54.09
hof-0.75-Czechoslovakians 57.37
hof-0.75-departmentalized 75.40
hof-0.75-disqualification 73.77
hof-0.75-enthusiastically 67.21
hof-0.75-flibbertigibbets 65.57
hof-0.75-gastrointestinal 60.65
hof-0.75-hospitalizations 77.04
hof-0.75-hydroelectricity 78.68
hof-0.75-intellectualized 70.49
hof-0.75-lightheartedness 54.09
hof-0.75-melodramatically 75.40
hof-0.75-multimillionaire 55.73
hof-0.75-nationalizations 77.04
hof-0.75-neurotransmitter 63.93
hof-0.75-overcompensating 63.93
hof-0.75-photojournalists 40.98
hof-0.75-predetermination 86.88
hof-0.75-rambunctiousness 78.68
hof-0.75-sentimentalizing 73.77
hof-0.75-synchronizations 63.93
hof-0.75-teleconferencing 65.57
hof-0.75-transcendentally 80.32
hof-0.75-unscrupulousness 57.37
hof-0.75-whatchamacallits 72.13
hof-0.90-acknowledgements 91.80
hof-0.90-administratively 73.77
hof-0.90-Australopithecus 80.32
hof-0.90-bloodthirstiness 63.93
hof-0.90-cinematographers 83.60
hof-0.90-counterespionage 54.09
hof-0.90-Czechoslovakians 67.21
hof-0.90-departmentalized 86.88
hof-0.90-disqualification 81.96
hof-0.90-enthusiastically 75.40
hof-0.90-flibbertigibbets 73.77
hof-0.90-gastrointestinal 60.65
hof-0.90-hospitalizations 91.80
hof-0.90-hydroelectricity 90.16
hof-0.90-intellectualized 88.52
hof-0.90-lightheartedness 88.52
hof-0.90-melodramatically 83.60
hof-0.90-multimillionaire 62.29
hof-0.90-nationalizations 78.68
hof-0.90-neurotransmitter 72.13
hof-0.90-overcompensating 75.40
hof-0.90-photojournalists 57.37
hof-0.90-predetermination 88.52
hof-0.90-rambunctiousness 83.60
hof-0.90-sentimentalizing 81.96
hof-0.90-synchronizations 72.13
hof-0.90-teleconferencing 83.60
hof-0.90-transcendentally 88.52
hof-0.90-unscrupulousness 62.29
hof-0.90-whatchamacallits 72.13
