op0	loc0	attr0	test0	test1	test2	test3	test4
1	1	1	1	1	1	1	1
1	2	1	0	0	0	0	0
2	1	1	0	0	0	0	0
2	1	2	0	0	0	0	0
2	2	1	0	0	0	0	0
2	2	2	0	0	0	0	0
3	1	1	1	1	1	1	1
3	2	1	1	1	1	1	1
3	3	1	1	1	1	1	1
4	1	1	1	1	1	1	1
4	2	1	0	0	0	0	0
4	3	1	1	1	1	1	1
6	1	1	1	0	1	1	1
6	2	1	0	0	0	0	0
6	3	1	0	0	0	0	0
7	1	1	0	0	0	0	0
7	1	2	0	0	0	0	0
8	1	1	0	0	0	0	0
8	1	2	0	0	0	0	0
9	1	1	1	1	1	1	1
10	1	1	0	0	0	0	0
11	1	1	1	1	1	1	1
11	2	1	1	1	1	1	1
11	3	1	1	1	1	1	1
11	4	1	1	1	1	1	1
12	1	1	0	0	0	0	0
12	1	2	0	0	0	0	0
12	1	3	0	0	0	0	0
12	1	4	0	0	0	0	0
12	2	1	0	0	0	0	0
12	2	2	0	0	0	0	0
12	2	3	0	0	0	0	0
12	2	4	0	0	0	0	0
12	3	1	0	0	0	0	0
12	3	2	0	0	0	0	0
12	3	3	0	0	0	0	0
12	3	4	0	0	0	0	0
12	4	1	0	0	0	0	0
12	4	2	0	0	0	0	0
12	4	3	0	0	0	0	0
12	4	4	0	0	0	0	0
12	5	1	0	0	0	0	0
12	5	2	0	0	0	0	0
12	5	3	0	0	0	0	0
12	5	4	1	1	1	1	1
14	1	1	0	0	0	0	0
14	1	2	0	0	0	0	0
14	1	3	0	0	0	0	0
14	1	4	0	0	0	0	0
15	1	1	1	1	1	1	1
15	1	2	1	1	1	1	1
15	1	3	1	1	1	1	1
15	1	4	1	1	1	1	1
15	1	5	1	1	1	1	1
15	2	1	1	1	1	1	1
15	2	2	1	1	1	1	1
15	2	3	1	1	1	1	1
15	2	4	1	1	1	1	1
15	2	5	1	1	1	1	1
15	3	1	1	1	1	1	1
15	3	2	1	1	1	1	1
15	3	3	1	1	1	1	1
15	3	4	1	1	1	1	1
15	3	5	1	1	1	1	1
15	4	1	1	1	1	1	1
15	4	2	1	1	1	1	1
15	4	3	1	1	1	1	1
15	4	4	1	1	1	1	1
15	4	5	1	1	1	1	1
15	5	1	1	1	1	1	1
15	5	2	1	1	1	1	1
15	5	3	1	1	1	1	1
15	5	4	1	1	1	1	1
15	5	5	1	1	1	1	1
15	6	1	1	1	1	1	1
15	6	2	1	1	1	1	1
15	6	3	1	1	1	1	1
15	6	4	1	1	1	1	1
15	6	5	1	1	1	1	1
15	7	1	1	1	1	1	1
15	7	2	1	1	1	1	1
15	7	3	1	1	1	1	1
15	7	4	1	1	1	1	1
15	7	5	1	1	1	1	1
16	1	1	0	0	0	0	0
16	1	2	0	0	0	0	0
19	1	1	0	0	0	0	0
19	1	2	0	0	0	0	0
32	1	1	1	0	1	1	1
32	1	2	0	0	0	0	0
32	1	3	1	0	1	1	1
32	1	4	0	0	0	0	0
32	1	5	0	0	0	0	0
32	2	1	1	1	2	1	1
32	2	2	0	0	0	0	0
32	2	3	1	1	2	1	1
32	2	4	0	0	0	0	0
32	2	5	0	0	0	0	0
32	3	1	0	0	0	0	0
32	3	2	0	0	0	0	0
32	3	3	0	0	0	0	0
32	3	4	0	0	0	0	0
32	3	5	0	0	0	0	0
32	4	1	0	0	0	0	0
32	4	2	0	0	0	0	0
32	4	3	0	0	0	0	0
32	4	4	0	0	0	0	0
32	4	5	0	0	0	0	0
32	5	1	0	0	0	0	0
32	5	2	0	0	0	0	0
32	5	3	0	0	0	0	0
32	5	4	0	0	0	0	0
32	5	5	0	0	0	0	0
32	6	1	0	0	0	0	0
32	6	2	0	0	0	0	0
32	6	3	0	0	0	0	0
32	6	4	0	0	0	0	0
32	6	5	0	0	0	0	0
33	1	1	1	1	1	1	1
34	1	1	1	1	1	1	1
