"","parameter","seed","tech","result"
"1",0.3,"acknowledgements","GEMT",30
"2",0.3,"administratively","GEMT",28.33
"3",0.3,"Australopithecus","GEMT",30
"4",0.3,"bloodthirstiness","GEMT",26.66
"5",0.3,"cinematographers","GEMT",31.66
"6",0.3,"counterespionage","GEMT",29.16
"7",0.3,"Czechoslovakians","GEMT",35
"8",0.3,"departmentalized","GEMT",23.33
"9",0.3,"disqualification","GEMT",30
"10",0.3,"enthusiastically","GEMT",25.83
"11",0.3,"flibbertigibbets","GEMT",30.83
"12",0.3,"gastrointestinal","GEMT",25
"13",0.3,"hospitalizations","GEMT",26.66
"14",0.3,"hydroelectricity","GEMT",21.66
"15",0.3,"intellectualized","GEMT",22.5
"16",0.3,"lightheartedness","GEMT",30
"17",0.3,"melodramatically","GEMT",27.5
"18",0.3,"multimillionaire","GEMT",24.16
"19",0.3,"nationalizations","GEMT",27.5
"20",0.3,"neurotransmitter","GEMT",28.33
"21",0.3,"overcompensating","GEMT",31.66
"22",0.3,"photojournalists","GEMT",31.66
"23",0.3,"predetermination","GEMT",30.83
"24",0.3,"rambunctiousness","GEMT",24.16
"25",0.3,"sentimentalizing","GEMT",22.5
"26",0.3,"synchronizations","GEMT",33.33
"27",0.3,"teleconferencing","GEMT",28.33
"28",0.3,"transcendentally","GEMT",30.83
"29",0.3,"unscrupulousness","GEMT",26.66
"30",0.3,"whatchamacallits","GEMT",26.66
"31",0.45,"acknowledgements","GEMT",45
"32",0.45,"administratively","GEMT",41.66
"33",0.45,"Australopithecus","GEMT",49.16
"34",0.45,"bloodthirstiness","GEMT",43.33
"35",0.45,"cinematographers","GEMT",42.5
"36",0.45,"counterespionage","GEMT",40
"37",0.45,"Czechoslovakians","GEMT",45.83
"38",0.45,"departmentalized","GEMT",40.83
"39",0.45,"disqualification","GEMT",40
"40",0.45,"enthusiastically","GEMT",39.16
"41",0.45,"flibbertigibbets","GEMT",45.83
"42",0.45,"gastrointestinal","GEMT",42.5
"43",0.45,"hospitalizations","GEMT",44.16
"44",0.45,"hydroelectricity","GEMT",42.5
"45",0.45,"intellectualized","GEMT",34.16
"46",0.45,"lightheartedness","GEMT",43.33
"47",0.45,"melodramatically","GEMT",42.5
"48",0.45,"multimillionaire","GEMT",37.5
"49",0.45,"nationalizations","GEMT",44.16
"50",0.45,"neurotransmitter","GEMT",40
"51",0.45,"overcompensating","GEMT",44.16
"52",0.45,"photojournalists","GEMT",45
"53",0.45,"predetermination","GEMT",40.83
"54",0.45,"rambunctiousness","GEMT",35
"55",0.45,"sentimentalizing","GEMT",32.5
"56",0.45,"synchronizations","GEMT",49.16
"57",0.45,"teleconferencing","GEMT",46.66
"58",0.45,"transcendentally","GEMT",40.83
"59",0.45,"unscrupulousness","GEMT",41.66
"60",0.45,"whatchamacallits","GEMT",42.5
"61",0.6,"acknowledgements","GEMT",60.83
"62",0.6,"administratively","GEMT",56.66
"63",0.6,"Australopithecus","GEMT",61.66
"64",0.6,"bloodthirstiness","GEMT",55
"65",0.6,"cinematographers","GEMT",59.16
"66",0.6,"counterespionage","GEMT",50.83
"67",0.6,"Czechoslovakians","GEMT",60.83
"68",0.6,"departmentalized","GEMT",57.5
"69",0.6,"disqualification","GEMT",56.66
"70",0.6,"enthusiastically","GEMT",50.83
"71",0.6,"flibbertigibbets","GEMT",63.33
"72",0.6,"gastrointestinal","GEMT",55.83
"73",0.6,"hospitalizations","GEMT",58.33
"74",0.6,"hydroelectricity","GEMT",55.83
"75",0.6,"intellectualized","GEMT",50.83
"76",0.6,"lightheartedness","GEMT",56.66
"77",0.6,"melodramatically","GEMT",56.66
"78",0.6,"multimillionaire","GEMT",52.5
"79",0.6,"nationalizations","GEMT",55
"80",0.6,"neurotransmitter","GEMT",54.16
"81",0.6,"overcompensating","GEMT",65.83
"82",0.6,"photojournalists","GEMT",58.33
"83",0.6,"predetermination","GEMT",60.83
"84",0.6,"rambunctiousness","GEMT",51.66
"85",0.6,"sentimentalizing","GEMT",54.16
"86",0.6,"synchronizations","GEMT",62.5
"87",0.6,"teleconferencing","GEMT",60.83
"88",0.6,"transcendentally","GEMT",56.66
"89",0.6,"unscrupulousness","GEMT",54.16
"90",0.6,"whatchamacallits","GEMT",63.33
"91",0.75,"acknowledgements","GEMT",70
"92",0.75,"administratively","GEMT",75
"93",0.75,"Australopithecus","GEMT",73.33
"94",0.75,"bloodthirstiness","GEMT",70.83
"95",0.75,"cinematographers","GEMT",75
"96",0.75,"counterespionage","GEMT",66.66
"97",0.75,"Czechoslovakians","GEMT",77.5
"98",0.75,"departmentalized","GEMT",69.16
"99",0.75,"disqualification","GEMT",72.5
"100",0.75,"enthusiastically","GEMT",67.5
"101",0.75,"flibbertigibbets","GEMT",73.33
"102",0.75,"gastrointestinal","GEMT",68.33
"103",0.75,"hospitalizations","GEMT",67.5
"104",0.75,"hydroelectricity","GEMT",69.16
"105",0.75,"intellectualized","GEMT",66.66
"106",0.75,"lightheartedness","GEMT",75
"107",0.75,"melodramatically","GEMT",71.66
"108",0.75,"multimillionaire","GEMT",68.33
"109",0.75,"nationalizations","GEMT",65
"110",0.75,"neurotransmitter","GEMT",68.33
"111",0.75,"overcompensating","GEMT",78.33
"112",0.75,"photojournalists","GEMT",72.5
"113",0.75,"predetermination","GEMT",71.66
"114",0.75,"rambunctiousness","GEMT",68.33
"115",0.75,"sentimentalizing","GEMT",70
"116",0.75,"synchronizations","GEMT",74.16
"117",0.75,"teleconferencing","GEMT",75.83
"118",0.75,"transcendentally","GEMT",70.83
"119",0.75,"unscrupulousness","GEMT",70.83
"120",0.75,"whatchamacallits","GEMT",80
"121",0.9,"acknowledgements","GEMT",89.16
"122",0.9,"administratively","GEMT",84.16
"123",0.9,"Australopithecus","GEMT",89.16
"124",0.9,"bloodthirstiness","GEMT",86.66
"125",0.9,"cinematographers","GEMT",90
"126",0.9,"counterespionage","GEMT",84.16
"127",0.9,"Czechoslovakians","GEMT",90.83
"128",0.9,"departmentalized","GEMT",85.83
"129",0.9,"disqualification","GEMT",89.16
"130",0.9,"enthusiastically","GEMT",79.16
"131",0.9,"flibbertigibbets","GEMT",90
"132",0.9,"gastrointestinal","GEMT",84.16
"133",0.9,"hospitalizations","GEMT",84.16
"134",0.9,"hydroelectricity","GEMT",90
"135",0.9,"intellectualized","GEMT",87.5
"136",0.9,"lightheartedness","GEMT",90.83
"137",0.9,"melodramatically","GEMT",86.66
"138",0.9,"multimillionaire","GEMT",88.33
"139",0.9,"nationalizations","GEMT",86.66
"140",0.9,"neurotransmitter","GEMT",80
"141",0.9,"overcompensating","GEMT",92.5
"142",0.9,"photojournalists","GEMT",83.33
"143",0.9,"predetermination","GEMT",85.83
"144",0.9,"rambunctiousness","GEMT",92.5
"145",0.9,"sentimentalizing","GEMT",88.33
"146",0.9,"synchronizations","GEMT",88.33
"147",0.9,"teleconferencing","GEMT",85.83
"148",0.9,"transcendentally","GEMT",90.83
"149",0.9,"unscrupulousness","GEMT",90.83
"150",0.9,"whatchamacallits","GEMT",91.66
"151",0.3,"acknowledgements","GEMT_C-",30
"152",0.3,"administratively","GEMT_C-",28.33
"153",0.3,"Australopithecus","GEMT_C-",30
"154",0.3,"bloodthirstiness","GEMT_C-",26.66
"155",0.3,"cinematographers","GEMT_C-",31.66
"156",0.3,"counterespionage","GEMT_C-",29.16
"157",0.3,"Czechoslovakians","GEMT_C-",35
"158",0.3,"departmentalized","GEMT_C-",23.33
"159",0.3,"disqualification","GEMT_C-",30
"160",0.3,"enthusiastically","GEMT_C-",25.83
"161",0.3,"flibbertigibbets","GEMT_C-",30.83
"162",0.3,"gastrointestinal","GEMT_C-",25
"163",0.3,"hospitalizations","GEMT_C-",26.66
"164",0.3,"hydroelectricity","GEMT_C-",21.66
"165",0.3,"intellectualized","GEMT_C-",22.5
"166",0.3,"lightheartedness","GEMT_C-",30
"167",0.3,"melodramatically","GEMT_C-",27.5
"168",0.3,"multimillionaire","GEMT_C-",24.16
"169",0.3,"nationalizations","GEMT_C-",27.5
"170",0.3,"neurotransmitter","GEMT_C-",28.33
"171",0.3,"overcompensating","GEMT_C-",31.66
"172",0.3,"photojournalists","GEMT_C-",31.66
"173",0.3,"predetermination","GEMT_C-",30.83
"174",0.3,"rambunctiousness","GEMT_C-",24.16
"175",0.3,"sentimentalizing","GEMT_C-",22.5
"176",0.3,"synchronizations","GEMT_C-",33.33
"177",0.3,"teleconferencing","GEMT_C-",28.33
"178",0.3,"transcendentally","GEMT_C-",30.83
"179",0.3,"unscrupulousness","GEMT_C-",26.66
"180",0.3,"whatchamacallits","GEMT_C-",26.66
"181",0.45,"acknowledgements","GEMT_C-",45
"182",0.45,"administratively","GEMT_C-",41.66
"183",0.45,"Australopithecus","GEMT_C-",49.16
"184",0.45,"bloodthirstiness","GEMT_C-",43.33
"185",0.45,"cinematographers","GEMT_C-",42.5
"186",0.45,"counterespionage","GEMT_C-",40
"187",0.45,"Czechoslovakians","GEMT_C-",45.83
"188",0.45,"departmentalized","GEMT_C-",40.83
"189",0.45,"disqualification","GEMT_C-",40
"190",0.45,"enthusiastically","GEMT_C-",39.16
"191",0.45,"flibbertigibbets","GEMT_C-",45.83
"192",0.45,"gastrointestinal","GEMT_C-",42.5
"193",0.45,"hospitalizations","GEMT_C-",44.16
"194",0.45,"hydroelectricity","GEMT_C-",42.5
"195",0.45,"intellectualized","GEMT_C-",34.16
"196",0.45,"lightheartedness","GEMT_C-",43.33
"197",0.45,"melodramatically","GEMT_C-",42.5
"198",0.45,"multimillionaire","GEMT_C-",37.5
"199",0.45,"nationalizations","GEMT_C-",44.16
"200",0.45,"neurotransmitter","GEMT_C-",40
"201",0.45,"overcompensating","GEMT_C-",44.16
"202",0.45,"photojournalists","GEMT_C-",45
"203",0.45,"predetermination","GEMT_C-",40.83
"204",0.45,"rambunctiousness","GEMT_C-",35
"205",0.45,"sentimentalizing","GEMT_C-",32.5
"206",0.45,"synchronizations","GEMT_C-",49.16
"207",0.45,"teleconferencing","GEMT_C-",46.66
"208",0.45,"transcendentally","GEMT_C-",40.83
"209",0.45,"unscrupulousness","GEMT_C-",41.66
"210",0.45,"whatchamacallits","GEMT_C-",42.5
"211",0.6,"acknowledgements","GEMT_C-",60.83
"212",0.6,"administratively","GEMT_C-",56.66
"213",0.6,"Australopithecus","GEMT_C-",61.66
"214",0.6,"bloodthirstiness","GEMT_C-",55
"215",0.6,"cinematographers","GEMT_C-",59.16
"216",0.6,"counterespionage","GEMT_C-",50.83
"217",0.6,"Czechoslovakians","GEMT_C-",60.83
"218",0.6,"departmentalized","GEMT_C-",57.5
"219",0.6,"disqualification","GEMT_C-",56.66
"220",0.6,"enthusiastically","GEMT_C-",50.83
"221",0.6,"flibbertigibbets","GEMT_C-",63.33
"222",0.6,"gastrointestinal","GEMT_C-",55.83
"223",0.6,"hospitalizations","GEMT_C-",58.33
"224",0.6,"hydroelectricity","GEMT_C-",55.83
"225",0.6,"intellectualized","GEMT_C-",50.83
"226",0.6,"lightheartedness","GEMT_C-",56.66
"227",0.6,"melodramatically","GEMT_C-",56.66
"228",0.6,"multimillionaire","GEMT_C-",52.5
"229",0.6,"nationalizations","GEMT_C-",55
"230",0.6,"neurotransmitter","GEMT_C-",54.16
"231",0.6,"overcompensating","GEMT_C-",65.83
"232",0.6,"photojournalists","GEMT_C-",58.33
"233",0.6,"predetermination","GEMT_C-",60.83
"234",0.6,"rambunctiousness","GEMT_C-",51.66
"235",0.6,"sentimentalizing","GEMT_C-",54.16
"236",0.6,"synchronizations","GEMT_C-",62.5
"237",0.6,"teleconferencing","GEMT_C-",60.83
"238",0.6,"transcendentally","GEMT_C-",56.66
"239",0.6,"unscrupulousness","GEMT_C-",54.16
"240",0.6,"whatchamacallits","GEMT_C-",63.33
"241",0.75,"acknowledgements","GEMT_C-",70
"242",0.75,"administratively","GEMT_C-",75
"243",0.75,"Australopithecus","GEMT_C-",73.33
"244",0.75,"bloodthirstiness","GEMT_C-",70.83
"245",0.75,"cinematographers","GEMT_C-",75
"246",0.75,"counterespionage","GEMT_C-",66.66
"247",0.75,"Czechoslovakians","GEMT_C-",77.5
"248",0.75,"departmentalized","GEMT_C-",69.16
"249",0.75,"disqualification","GEMT_C-",72.5
"250",0.75,"enthusiastically","GEMT_C-",67.5
"251",0.75,"flibbertigibbets","GEMT_C-",73.33
"252",0.75,"gastrointestinal","GEMT_C-",68.33
"253",0.75,"hospitalizations","GEMT_C-",67.5
"254",0.75,"hydroelectricity","GEMT_C-",69.16
"255",0.75,"intellectualized","GEMT_C-",66.66
"256",0.75,"lightheartedness","GEMT_C-",75
"257",0.75,"melodramatically","GEMT_C-",71.66
"258",0.75,"multimillionaire","GEMT_C-",68.33
"259",0.75,"nationalizations","GEMT_C-",65
"260",0.75,"neurotransmitter","GEMT_C-",68.33
"261",0.75,"overcompensating","GEMT_C-",78.33
"262",0.75,"photojournalists","GEMT_C-",72.5
"263",0.75,"predetermination","GEMT_C-",71.66
"264",0.75,"rambunctiousness","GEMT_C-",68.33
"265",0.75,"sentimentalizing","GEMT_C-",70
"266",0.75,"synchronizations","GEMT_C-",74.16
"267",0.75,"teleconferencing","GEMT_C-",75.83
"268",0.75,"transcendentally","GEMT_C-",70.83
"269",0.75,"unscrupulousness","GEMT_C-",70.83
"270",0.75,"whatchamacallits","GEMT_C-",80
"271",0.9,"acknowledgements","GEMT_C-",89.16
"272",0.9,"administratively","GEMT_C-",84.16
"273",0.9,"Australopithecus","GEMT_C-",89.16
"274",0.9,"bloodthirstiness","GEMT_C-",86.66
"275",0.9,"cinematographers","GEMT_C-",90
"276",0.9,"counterespionage","GEMT_C-",84.16
"277",0.9,"Czechoslovakians","GEMT_C-",90.83
"278",0.9,"departmentalized","GEMT_C-",85.83
"279",0.9,"disqualification","GEMT_C-",89.16
"280",0.9,"enthusiastically","GEMT_C-",79.16
"281",0.9,"flibbertigibbets","GEMT_C-",90
"282",0.9,"gastrointestinal","GEMT_C-",84.16
"283",0.9,"hospitalizations","GEMT_C-",84.16
"284",0.9,"hydroelectricity","GEMT_C-",90
"285",0.9,"intellectualized","GEMT_C-",87.5
"286",0.9,"lightheartedness","GEMT_C-",90.83
"287",0.9,"melodramatically","GEMT_C-",86.66
"288",0.9,"multimillionaire","GEMT_C-",88.33
"289",0.9,"nationalizations","GEMT_C-",86.66
"290",0.9,"neurotransmitter","GEMT_C-",80
"291",0.9,"overcompensating","GEMT_C-",92.5
"292",0.9,"photojournalists","GEMT_C-",83.33
"293",0.9,"predetermination","GEMT_C-",85.83
"294",0.9,"rambunctiousness","GEMT_C-",92.5
"295",0.9,"sentimentalizing","GEMT_C-",88.33
"296",0.9,"synchronizations","GEMT_C-",88.33
"297",0.9,"teleconferencing","GEMT_C-",85.83
"298",0.9,"transcendentally","GEMT_C-",90.83
"299",0.9,"unscrupulousness","GEMT_C-",90.83
"300",0.9,"whatchamacallits","GEMT_C-",91.66
"301",0.3,"acknowledgements","GEMT_C+",30
"302",0.3,"administratively","GEMT_C+",28.33
"303",0.3,"Australopithecus","GEMT_C+",30
"304",0.3,"bloodthirstiness","GEMT_C+",26.66
"305",0.3,"cinematographers","GEMT_C+",31.66
"306",0.3,"counterespionage","GEMT_C+",29.16
"307",0.3,"Czechoslovakians","GEMT_C+",35
"308",0.3,"departmentalized","GEMT_C+",23.33
"309",0.3,"disqualification","GEMT_C+",30
"310",0.3,"enthusiastically","GEMT_C+",25.83
"311",0.3,"flibbertigibbets","GEMT_C+",30.83
"312",0.3,"gastrointestinal","GEMT_C+",25
"313",0.3,"hospitalizations","GEMT_C+",26.66
"314",0.3,"hydroelectricity","GEMT_C+",21.66
"315",0.3,"intellectualized","GEMT_C+",22.5
"316",0.3,"lightheartedness","GEMT_C+",30
"317",0.3,"melodramatically","GEMT_C+",27.5
"318",0.3,"multimillionaire","GEMT_C+",24.16
"319",0.3,"nationalizations","GEMT_C+",27.5
"320",0.3,"neurotransmitter","GEMT_C+",28.33
"321",0.3,"overcompensating","GEMT_C+",31.66
"322",0.3,"photojournalists","GEMT_C+",31.66
"323",0.3,"predetermination","GEMT_C+",30.83
"324",0.3,"rambunctiousness","GEMT_C+",24.16
"325",0.3,"sentimentalizing","GEMT_C+",22.5
"326",0.3,"synchronizations","GEMT_C+",33.33
"327",0.3,"teleconferencing","GEMT_C+",28.33
"328",0.3,"transcendentally","GEMT_C+",30.83
"329",0.3,"unscrupulousness","GEMT_C+",26.66
"330",0.3,"whatchamacallits","GEMT_C+",26.66
"331",0.45,"acknowledgements","GEMT_C+",45
"332",0.45,"administratively","GEMT_C+",41.66
"333",0.45,"Australopithecus","GEMT_C+",49.16
"334",0.45,"bloodthirstiness","GEMT_C+",43.33
"335",0.45,"cinematographers","GEMT_C+",42.5
"336",0.45,"counterespionage","GEMT_C+",40
"337",0.45,"Czechoslovakians","GEMT_C+",45.83
"338",0.45,"departmentalized","GEMT_C+",40.83
"339",0.45,"disqualification","GEMT_C+",40
"340",0.45,"enthusiastically","GEMT_C+",39.16
"341",0.45,"flibbertigibbets","GEMT_C+",45.83
"342",0.45,"gastrointestinal","GEMT_C+",42.5
"343",0.45,"hospitalizations","GEMT_C+",44.16
"344",0.45,"hydroelectricity","GEMT_C+",42.5
"345",0.45,"intellectualized","GEMT_C+",34.16
"346",0.45,"lightheartedness","GEMT_C+",43.33
"347",0.45,"melodramatically","GEMT_C+",42.5
"348",0.45,"multimillionaire","GEMT_C+",37.5
"349",0.45,"nationalizations","GEMT_C+",44.16
"350",0.45,"neurotransmitter","GEMT_C+",40
"351",0.45,"overcompensating","GEMT_C+",44.16
"352",0.45,"photojournalists","GEMT_C+",45
"353",0.45,"predetermination","GEMT_C+",40.83
"354",0.45,"rambunctiousness","GEMT_C+",35
"355",0.45,"sentimentalizing","GEMT_C+",32.5
"356",0.45,"synchronizations","GEMT_C+",49.16
"357",0.45,"teleconferencing","GEMT_C+",46.66
"358",0.45,"transcendentally","GEMT_C+",40.83
"359",0.45,"unscrupulousness","GEMT_C+",41.66
"360",0.45,"whatchamacallits","GEMT_C+",42.5
"361",0.6,"acknowledgements","GEMT_C+",60.83
"362",0.6,"administratively","GEMT_C+",56.66
"363",0.6,"Australopithecus","GEMT_C+",61.66
"364",0.6,"bloodthirstiness","GEMT_C+",55
"365",0.6,"cinematographers","GEMT_C+",59.16
"366",0.6,"counterespionage","GEMT_C+",50.83
"367",0.6,"Czechoslovakians","GEMT_C+",60.83
"368",0.6,"departmentalized","GEMT_C+",57.5
"369",0.6,"disqualification","GEMT_C+",56.66
"370",0.6,"enthusiastically","GEMT_C+",50.83
"371",0.6,"flibbertigibbets","GEMT_C+",63.33
"372",0.6,"gastrointestinal","GEMT_C+",55.83
"373",0.6,"hospitalizations","GEMT_C+",58.33
"374",0.6,"hydroelectricity","GEMT_C+",55.83
"375",0.6,"intellectualized","GEMT_C+",50.83
"376",0.6,"lightheartedness","GEMT_C+",56.66
"377",0.6,"melodramatically","GEMT_C+",56.66
"378",0.6,"multimillionaire","GEMT_C+",52.5
"379",0.6,"nationalizations","GEMT_C+",55
"380",0.6,"neurotransmitter","GEMT_C+",54.16
"381",0.6,"overcompensating","GEMT_C+",65.83
"382",0.6,"photojournalists","GEMT_C+",58.33
"383",0.6,"predetermination","GEMT_C+",60.83
"384",0.6,"rambunctiousness","GEMT_C+",51.66
"385",0.6,"sentimentalizing","GEMT_C+",54.16
"386",0.6,"synchronizations","GEMT_C+",62.5
"387",0.6,"teleconferencing","GEMT_C+",60.83
"388",0.6,"transcendentally","GEMT_C+",56.66
"389",0.6,"unscrupulousness","GEMT_C+",54.16
"390",0.6,"whatchamacallits","GEMT_C+",63.33
"391",0.75,"acknowledgements","GEMT_C+",70
"392",0.75,"administratively","GEMT_C+",75
"393",0.75,"Australopithecus","GEMT_C+",73.33
"394",0.75,"bloodthirstiness","GEMT_C+",70.83
"395",0.75,"cinematographers","GEMT_C+",75
"396",0.75,"counterespionage","GEMT_C+",66.66
"397",0.75,"Czechoslovakians","GEMT_C+",77.5
"398",0.75,"departmentalized","GEMT_C+",69.16
"399",0.75,"disqualification","GEMT_C+",72.5
"400",0.75,"enthusiastically","GEMT_C+",67.5
"401",0.75,"flibbertigibbets","GEMT_C+",73.33
"402",0.75,"gastrointestinal","GEMT_C+",68.33
"403",0.75,"hospitalizations","GEMT_C+",67.5
"404",0.75,"hydroelectricity","GEMT_C+",69.16
"405",0.75,"intellectualized","GEMT_C+",66.66
"406",0.75,"lightheartedness","GEMT_C+",75
"407",0.75,"melodramatically","GEMT_C+",71.66
"408",0.75,"multimillionaire","GEMT_C+",68.33
"409",0.75,"nationalizations","GEMT_C+",65
"410",0.75,"neurotransmitter","GEMT_C+",68.33
"411",0.75,"overcompensating","GEMT_C+",78.33
"412",0.75,"photojournalists","GEMT_C+",72.5
"413",0.75,"predetermination","GEMT_C+",71.66
"414",0.75,"rambunctiousness","GEMT_C+",68.33
"415",0.75,"sentimentalizing","GEMT_C+",70
"416",0.75,"synchronizations","GEMT_C+",74.16
"417",0.75,"teleconferencing","GEMT_C+",75.83
"418",0.75,"transcendentally","GEMT_C+",70.83
"419",0.75,"unscrupulousness","GEMT_C+",70.83
"420",0.75,"whatchamacallits","GEMT_C+",80
"421",0.9,"acknowledgements","GEMT_C+",89.16
"422",0.9,"administratively","GEMT_C+",84.16
"423",0.9,"Australopithecus","GEMT_C+",89.16
"424",0.9,"bloodthirstiness","GEMT_C+",86.66
"425",0.9,"cinematographers","GEMT_C+",90
"426",0.9,"counterespionage","GEMT_C+",84.16
"427",0.9,"Czechoslovakians","GEMT_C+",90.83
"428",0.9,"departmentalized","GEMT_C+",85.83
"429",0.9,"disqualification","GEMT_C+",89.16
"430",0.9,"enthusiastically","GEMT_C+",79.16
"431",0.9,"flibbertigibbets","GEMT_C+",90
"432",0.9,"gastrointestinal","GEMT_C+",84.16
"433",0.9,"hospitalizations","GEMT_C+",84.16
"434",0.9,"hydroelectricity","GEMT_C+",90
"435",0.9,"intellectualized","GEMT_C+",87.5
"436",0.9,"lightheartedness","GEMT_C+",90.83
"437",0.9,"melodramatically","GEMT_C+",86.66
"438",0.9,"multimillionaire","GEMT_C+",88.33
"439",0.9,"nationalizations","GEMT_C+",86.66
"440",0.9,"neurotransmitter","GEMT_C+",80
"441",0.9,"overcompensating","GEMT_C+",92.5
"442",0.9,"photojournalists","GEMT_C+",83.33
"443",0.9,"predetermination","GEMT_C+",85.83
"444",0.9,"rambunctiousness","GEMT_C+",92.5
"445",0.9,"sentimentalizing","GEMT_C+",88.33
"446",0.9,"synchronizations","GEMT_C+",88.33
"447",0.9,"teleconferencing","GEMT_C+",85.83
"448",0.9,"transcendentally","GEMT_C+",90.83
"449",0.9,"unscrupulousness","GEMT_C+",90.83
"450",0.9,"whatchamacallits","GEMT_C+",91.66
"451",0.3,"acknowledgements","GEMT_KBG",30
"452",0.3,"administratively","GEMT_KBG",25
"453",0.3,"Australopithecus","GEMT_KBG",30
"454",0.3,"bloodthirstiness","GEMT_KBG",24.16
"455",0.3,"cinematographers","GEMT_KBG",26.66
"456",0.3,"counterespionage","GEMT_KBG",20
"457",0.3,"Czechoslovakians","GEMT_KBG",26.66
"458",0.3,"departmentalized","GEMT_KBG",25.83
"459",0.3,"disqualification","GEMT_KBG",23.33
"460",0.3,"enthusiastically","GEMT_KBG",25.83
"461",0.3,"flibbertigibbets","GEMT_KBG",20.83
"462",0.3,"gastrointestinal","GEMT_KBG",22.5
"463",0.3,"hospitalizations","GEMT_KBG",23.33
"464",0.3,"hydroelectricity","GEMT_KBG",27.5
"465",0.3,"intellectualized","GEMT_KBG",20.83
"466",0.3,"lightheartedness","GEMT_KBG",24.16
"467",0.3,"melodramatically","GEMT_KBG",23.33
"468",0.3,"multimillionaire","GEMT_KBG",25.83
"469",0.3,"nationalizations","GEMT_KBG",18.33
"470",0.3,"neurotransmitter","GEMT_KBG",24.16
"471",0.3,"overcompensating","GEMT_KBG",20.83
"472",0.3,"photojournalists","GEMT_KBG",20.83
"473",0.3,"predetermination","GEMT_KBG",24.16
"474",0.3,"rambunctiousness","GEMT_KBG",23.33
"475",0.3,"sentimentalizing","GEMT_KBG",26.66
"476",0.3,"synchronizations","GEMT_KBG",24.16
"477",0.3,"teleconferencing","GEMT_KBG",26.66
"478",0.3,"transcendentally","GEMT_KBG",23.33
"479",0.3,"unscrupulousness","GEMT_KBG",19.16
"480",0.3,"whatchamacallits","GEMT_KBG",25
"481",0.45,"acknowledgements","GEMT_KBG",42.5
"482",0.45,"administratively","GEMT_KBG",35.83
"483",0.45,"Australopithecus","GEMT_KBG",39.16
"484",0.45,"bloodthirstiness","GEMT_KBG",36.66
"485",0.45,"cinematographers","GEMT_KBG",39.16
"486",0.45,"counterespionage","GEMT_KBG",30.83
"487",0.45,"Czechoslovakians","GEMT_KBG",40
"488",0.45,"departmentalized","GEMT_KBG",39.16
"489",0.45,"disqualification","GEMT_KBG",38.33
"490",0.45,"enthusiastically","GEMT_KBG",35.83
"491",0.45,"flibbertigibbets","GEMT_KBG",30.83
"492",0.45,"gastrointestinal","GEMT_KBG",44.16
"493",0.45,"hospitalizations","GEMT_KBG",35.83
"494",0.45,"hydroelectricity","GEMT_KBG",36.66
"495",0.45,"intellectualized","GEMT_KBG",30.83
"496",0.45,"lightheartedness","GEMT_KBG",36.66
"497",0.45,"melodramatically","GEMT_KBG",32.5
"498",0.45,"multimillionaire","GEMT_KBG",35.83
"499",0.45,"nationalizations","GEMT_KBG",30.83
"500",0.45,"neurotransmitter","GEMT_KBG",38.33
"501",0.45,"overcompensating","GEMT_KBG",37.5
"502",0.45,"photojournalists","GEMT_KBG",39.16
"503",0.45,"predetermination","GEMT_KBG",36.66
"504",0.45,"rambunctiousness","GEMT_KBG",32.5
"505",0.45,"sentimentalizing","GEMT_KBG",36.66
"506",0.45,"synchronizations","GEMT_KBG",32.5
"507",0.45,"teleconferencing","GEMT_KBG",39.16
"508",0.45,"transcendentally","GEMT_KBG",32.5
"509",0.45,"unscrupulousness","GEMT_KBG",34.16
"510",0.45,"whatchamacallits","GEMT_KBG",37.5
"511",0.6,"acknowledgements","GEMT_KBG",54.16
"512",0.6,"administratively","GEMT_KBG",57.5
"513",0.6,"Australopithecus","GEMT_KBG",55.83
"514",0.6,"bloodthirstiness","GEMT_KBG",50.83
"515",0.6,"cinematographers","GEMT_KBG",52.5
"516",0.6,"counterespionage","GEMT_KBG",42.5
"517",0.6,"Czechoslovakians","GEMT_KBG",50.83
"518",0.6,"departmentalized","GEMT_KBG",50
"519",0.6,"disqualification","GEMT_KBG",50
"520",0.6,"enthusiastically","GEMT_KBG",45.83
"521",0.6,"flibbertigibbets","GEMT_KBG",40.83
"522",0.6,"gastrointestinal","GEMT_KBG",53.33
"523",0.6,"hospitalizations","GEMT_KBG",44.16
"524",0.6,"hydroelectricity","GEMT_KBG",49.16
"525",0.6,"intellectualized","GEMT_KBG",45
"526",0.6,"lightheartedness","GEMT_KBG",56.66
"527",0.6,"melodramatically","GEMT_KBG",51.66
"528",0.6,"multimillionaire","GEMT_KBG",44.16
"529",0.6,"nationalizations","GEMT_KBG",51.66
"530",0.6,"neurotransmitter","GEMT_KBG",50.83
"531",0.6,"overcompensating","GEMT_KBG",50
"532",0.6,"photojournalists","GEMT_KBG",47.5
"533",0.6,"predetermination","GEMT_KBG",49.16
"534",0.6,"rambunctiousness","GEMT_KBG",44.16
"535",0.6,"sentimentalizing","GEMT_KBG",49.16
"536",0.6,"synchronizations","GEMT_KBG",43.33
"537",0.6,"teleconferencing","GEMT_KBG",49.16
"538",0.6,"transcendentally","GEMT_KBG",42.5
"539",0.6,"unscrupulousness","GEMT_KBG",47.5
"540",0.6,"whatchamacallits","GEMT_KBG",53.33
"541",0.75,"acknowledgements","GEMT_KBG",63.33
"542",0.75,"administratively","GEMT_KBG",76.66
"543",0.75,"Australopithecus","GEMT_KBG",71.66
"544",0.75,"bloodthirstiness","GEMT_KBG",65
"545",0.75,"cinematographers","GEMT_KBG",66.66
"546",0.75,"counterespionage","GEMT_KBG",59.16
"547",0.75,"Czechoslovakians","GEMT_KBG",63.33
"548",0.75,"departmentalized","GEMT_KBG",64.16
"549",0.75,"disqualification","GEMT_KBG",58.33
"550",0.75,"enthusiastically","GEMT_KBG",55
"551",0.75,"flibbertigibbets","GEMT_KBG",56.66
"552",0.75,"gastrointestinal","GEMT_KBG",65
"553",0.75,"hospitalizations","GEMT_KBG",58.33
"554",0.75,"hydroelectricity","GEMT_KBG",65
"555",0.75,"intellectualized","GEMT_KBG",55
"556",0.75,"lightheartedness","GEMT_KBG",66.66
"557",0.75,"melodramatically","GEMT_KBG",62.5
"558",0.75,"multimillionaire","GEMT_KBG",57.5
"559",0.75,"nationalizations","GEMT_KBG",71.66
"560",0.75,"neurotransmitter","GEMT_KBG",59.16
"561",0.75,"overcompensating","GEMT_KBG",60
"562",0.75,"photojournalists","GEMT_KBG",60
"563",0.75,"predetermination","GEMT_KBG",55.83
"564",0.75,"rambunctiousness","GEMT_KBG",54.16
"565",0.75,"sentimentalizing","GEMT_KBG",60
"566",0.75,"synchronizations","GEMT_KBG",55.83
"567",0.75,"teleconferencing","GEMT_KBG",57.5
"568",0.75,"transcendentally","GEMT_KBG",55
"569",0.75,"unscrupulousness","GEMT_KBG",59.16
"570",0.75,"whatchamacallits","GEMT_KBG",63.33
"571",0.9,"acknowledgements","GEMT_KBG",80.83
"572",0.9,"administratively","GEMT_KBG",88.33
"573",0.9,"Australopithecus","GEMT_KBG",80.83
"574",0.9,"bloodthirstiness","GEMT_KBG",76.66
"575",0.9,"cinematographers","GEMT_KBG",75.83
"576",0.9,"counterespionage","GEMT_KBG",73.33
"577",0.9,"Czechoslovakians","GEMT_KBG",77.5
"578",0.9,"departmentalized","GEMT_KBG",77.5
"579",0.9,"disqualification","GEMT_KBG",71.66
"580",0.9,"enthusiastically","GEMT_KBG",72.5
"581",0.9,"flibbertigibbets","GEMT_KBG",76.66
"582",0.9,"gastrointestinal","GEMT_KBG",79.16
"583",0.9,"hospitalizations","GEMT_KBG",76.66
"584",0.9,"hydroelectricity","GEMT_KBG",76.66
"585",0.9,"intellectualized","GEMT_KBG",69.16
"586",0.9,"lightheartedness","GEMT_KBG",75
"587",0.9,"melodramatically","GEMT_KBG",80.83
"588",0.9,"multimillionaire","GEMT_KBG",77.5
"589",0.9,"nationalizations","GEMT_KBG",86.66
"590",0.9,"neurotransmitter","GEMT_KBG",77.5
"591",0.9,"overcompensating","GEMT_KBG",73.33
"592",0.9,"photojournalists","GEMT_KBG",79.16
"593",0.9,"predetermination","GEMT_KBG",72.5
"594",0.9,"rambunctiousness","GEMT_KBG",71.66
"595",0.9,"sentimentalizing","GEMT_KBG",75
"596",0.9,"synchronizations","GEMT_KBG",69.16
"597",0.9,"teleconferencing","GEMT_KBG",72.5
"598",0.9,"transcendentally","GEMT_KBG",76.66
"599",0.9,"unscrupulousness","GEMT_KBG",76.66
"600",0.9,"whatchamacallits","GEMT_KBG",83.33
"601",0.3,"acknowledgements","GEMT_KBG5",21.66
"602",0.3,"administratively","GEMT_KBG5",22.5
"603",0.3,"Australopithecus","GEMT_KBG5",20
"604",0.3,"bloodthirstiness","GEMT_KBG5",20.83
"605",0.3,"cinematographers","GEMT_KBG5",21.66
"606",0.3,"counterespionage","GEMT_KBG5",20.83
"607",0.3,"Czechoslovakians","GEMT_KBG5",26.66
"608",0.3,"departmentalized","GEMT_KBG5",24.16
"609",0.3,"disqualification","GEMT_KBG5",23.33
"610",0.3,"enthusiastically","GEMT_KBG5",21.66
"611",0.3,"flibbertigibbets","GEMT_KBG5",21.66
"612",0.3,"gastrointestinal","GEMT_KBG5",29.16
"613",0.3,"hospitalizations","GEMT_KBG5",25.83
"614",0.3,"hydroelectricity","GEMT_KBG5",23.33
"615",0.3,"intellectualized","GEMT_KBG5",17.5
"616",0.3,"lightheartedness","GEMT_KBG5",20.83
"617",0.3,"melodramatically","GEMT_KBG5",25.83
"618",0.3,"multimillionaire","GEMT_KBG5",23.33
"619",0.3,"nationalizations","GEMT_KBG5",22.5
"620",0.3,"neurotransmitter","GEMT_KBG5",27.5
"621",0.3,"overcompensating","GEMT_KBG5",23.33
"622",0.3,"photojournalists","GEMT_KBG5",20.83
"623",0.3,"predetermination","GEMT_KBG5",20
"624",0.3,"rambunctiousness","GEMT_KBG5",27.5
"625",0.3,"sentimentalizing","GEMT_KBG5",25.83
"626",0.3,"synchronizations","GEMT_KBG5",20.83
"627",0.3,"teleconferencing","GEMT_KBG5",20.83
"628",0.3,"transcendentally","GEMT_KBG5",22.5
"629",0.3,"unscrupulousness","GEMT_KBG5",23.33
"630",0.3,"whatchamacallits","GEMT_KBG5",19.16
"631",0.45,"acknowledgements","GEMT_KBG5",33.33
"632",0.45,"administratively","GEMT_KBG5",35.83
"633",0.45,"Australopithecus","GEMT_KBG5",32.5
"634",0.45,"bloodthirstiness","GEMT_KBG5",35.83
"635",0.45,"cinematographers","GEMT_KBG5",33.33
"636",0.45,"counterespionage","GEMT_KBG5",26.66
"637",0.45,"Czechoslovakians","GEMT_KBG5",38.33
"638",0.45,"departmentalized","GEMT_KBG5",38.33
"639",0.45,"disqualification","GEMT_KBG5",35
"640",0.45,"enthusiastically","GEMT_KBG5",32.5
"641",0.45,"flibbertigibbets","GEMT_KBG5",30.83
"642",0.45,"gastrointestinal","GEMT_KBG5",46.66
"643",0.45,"hospitalizations","GEMT_KBG5",35.83
"644",0.45,"hydroelectricity","GEMT_KBG5",31.66
"645",0.45,"intellectualized","GEMT_KBG5",30
"646",0.45,"lightheartedness","GEMT_KBG5",35.83
"647",0.45,"melodramatically","GEMT_KBG5",43.33
"648",0.45,"multimillionaire","GEMT_KBG5",36.66
"649",0.45,"nationalizations","GEMT_KBG5",31.66
"650",0.45,"neurotransmitter","GEMT_KBG5",35.83
"651",0.45,"overcompensating","GEMT_KBG5",35
"652",0.45,"photojournalists","GEMT_KBG5",30
"653",0.45,"predetermination","GEMT_KBG5",33.33
"654",0.45,"rambunctiousness","GEMT_KBG5",40
"655",0.45,"sentimentalizing","GEMT_KBG5",35.83
"656",0.45,"synchronizations","GEMT_KBG5",30
"657",0.45,"teleconferencing","GEMT_KBG5",35
"658",0.45,"transcendentally","GEMT_KBG5",31.66
"659",0.45,"unscrupulousness","GEMT_KBG5",33.33
"660",0.45,"whatchamacallits","GEMT_KBG5",34.16
"661",0.6,"acknowledgements","GEMT_KBG5",45.83
"662",0.6,"administratively","GEMT_KBG5",46.66
"663",0.6,"Australopithecus","GEMT_KBG5",50
"664",0.6,"bloodthirstiness","GEMT_KBG5",50
"665",0.6,"cinematographers","GEMT_KBG5",43.33
"666",0.6,"counterespionage","GEMT_KBG5",41.66
"667",0.6,"Czechoslovakians","GEMT_KBG5",48.33
"668",0.6,"departmentalized","GEMT_KBG5",52.5
"669",0.6,"disqualification","GEMT_KBG5",52.5
"670",0.6,"enthusiastically","GEMT_KBG5",45.83
"671",0.6,"flibbertigibbets","GEMT_KBG5",50
"672",0.6,"gastrointestinal","GEMT_KBG5",60
"673",0.6,"hospitalizations","GEMT_KBG5",52.5
"674",0.6,"hydroelectricity","GEMT_KBG5",45.83
"675",0.6,"intellectualized","GEMT_KBG5",44.16
"676",0.6,"lightheartedness","GEMT_KBG5",55.83
"677",0.6,"melodramatically","GEMT_KBG5",53.33
"678",0.6,"multimillionaire","GEMT_KBG5",46.66
"679",0.6,"nationalizations","GEMT_KBG5",50.83
"680",0.6,"neurotransmitter","GEMT_KBG5",49.16
"681",0.6,"overcompensating","GEMT_KBG5",43.33
"682",0.6,"photojournalists","GEMT_KBG5",46.66
"683",0.6,"predetermination","GEMT_KBG5",42.5
"684",0.6,"rambunctiousness","GEMT_KBG5",50
"685",0.6,"sentimentalizing","GEMT_KBG5",50
"686",0.6,"synchronizations","GEMT_KBG5",43.33
"687",0.6,"teleconferencing","GEMT_KBG5",52.5
"688",0.6,"transcendentally","GEMT_KBG5",45
"689",0.6,"unscrupulousness","GEMT_KBG5",46.66
"690",0.6,"whatchamacallits","GEMT_KBG5",44.16
"691",0.75,"acknowledgements","GEMT_KBG5",67.5
"692",0.75,"administratively","GEMT_KBG5",61.66
"693",0.75,"Australopithecus","GEMT_KBG5",61.66
"694",0.75,"bloodthirstiness","GEMT_KBG5",62.5
"695",0.75,"cinematographers","GEMT_KBG5",57.5
"696",0.75,"counterespionage","GEMT_KBG5",55.83
"697",0.75,"Czechoslovakians","GEMT_KBG5",60.83
"698",0.75,"departmentalized","GEMT_KBG5",68.33
"699",0.75,"disqualification","GEMT_KBG5",61.66
"700",0.75,"enthusiastically","GEMT_KBG5",55
"701",0.75,"flibbertigibbets","GEMT_KBG5",64.16
"702",0.75,"gastrointestinal","GEMT_KBG5",69.16
"703",0.75,"hospitalizations","GEMT_KBG5",65
"704",0.75,"hydroelectricity","GEMT_KBG5",56.66
"705",0.75,"intellectualized","GEMT_KBG5",57.5
"706",0.75,"lightheartedness","GEMT_KBG5",66.66
"707",0.75,"melodramatically","GEMT_KBG5",69.16
"708",0.75,"multimillionaire","GEMT_KBG5",61.66
"709",0.75,"nationalizations","GEMT_KBG5",63.33
"710",0.75,"neurotransmitter","GEMT_KBG5",57.5
"711",0.75,"overcompensating","GEMT_KBG5",56.66
"712",0.75,"photojournalists","GEMT_KBG5",58.33
"713",0.75,"predetermination","GEMT_KBG5",57.5
"714",0.75,"rambunctiousness","GEMT_KBG5",59.16
"715",0.75,"sentimentalizing","GEMT_KBG5",68.33
"716",0.75,"synchronizations","GEMT_KBG5",51.66
"717",0.75,"teleconferencing","GEMT_KBG5",60
"718",0.75,"transcendentally","GEMT_KBG5",58.33
"719",0.75,"unscrupulousness","GEMT_KBG5",58.33
"720",0.75,"whatchamacallits","GEMT_KBG5",57.5
"721",0.9,"acknowledgements","GEMT_KBG5",80
"722",0.9,"administratively","GEMT_KBG5",75.83
"723",0.9,"Australopithecus","GEMT_KBG5",78.33
"724",0.9,"bloodthirstiness","GEMT_KBG5",78.33
"725",0.9,"cinematographers","GEMT_KBG5",84.16
"726",0.9,"counterespionage","GEMT_KBG5",80.83
"727",0.9,"Czechoslovakians","GEMT_KBG5",76.66
"728",0.9,"departmentalized","GEMT_KBG5",85
"729",0.9,"disqualification","GEMT_KBG5",79.16
"730",0.9,"enthusiastically","GEMT_KBG5",75
"731",0.9,"flibbertigibbets","GEMT_KBG5",81.66
"732",0.9,"gastrointestinal","GEMT_KBG5",82.5
"733",0.9,"hospitalizations","GEMT_KBG5",77.5
"734",0.9,"hydroelectricity","GEMT_KBG5",76.66
"735",0.9,"intellectualized","GEMT_KBG5",80.83
"736",0.9,"lightheartedness","GEMT_KBG5",80
"737",0.9,"melodramatically","GEMT_KBG5",88.33
"738",0.9,"multimillionaire","GEMT_KBG5",80
"739",0.9,"nationalizations","GEMT_KBG5",77.5
"740",0.9,"neurotransmitter","GEMT_KBG5",73.33
"741",0.9,"overcompensating","GEMT_KBG5",79.16
"742",0.9,"photojournalists","GEMT_KBG5",74.16
"743",0.9,"predetermination","GEMT_KBG5",76.66
"744",0.9,"rambunctiousness","GEMT_KBG5",75.83
"745",0.9,"sentimentalizing","GEMT_KBG5",84.16
"746",0.9,"synchronizations","GEMT_KBG5",72.5
"747",0.9,"teleconferencing","GEMT_KBG5",75.83
"748",0.9,"transcendentally","GEMT_KBG5",76.66
"749",0.9,"unscrupulousness","GEMT_KBG5",78.33
"750",0.9,"whatchamacallits","GEMT_KBG5",75.83
"751",0.3,"acknowledgements","EMT",28.33
"752",0.3,"administratively","EMT",29.16
"753",0.3,"Australopithecus","EMT",26.66
"754",0.3,"bloodthirstiness","EMT",22.5
"755",0.3,"cinematographers","EMT",29.16
"756",0.3,"counterespionage","EMT",22.5
"757",0.3,"Czechoslovakians","EMT",30
"758",0.3,"departmentalized","EMT",30
"759",0.3,"disqualification","EMT",26.66
"760",0.3,"enthusiastically","EMT",28.33
"761",0.3,"flibbertigibbets","EMT",27.5
"762",0.3,"gastrointestinal","EMT",28.33
"763",0.3,"hospitalizations","EMT",30.83
"764",0.3,"hydroelectricity","EMT",27.5
"765",0.3,"intellectualized","EMT",24.16
"766",0.3,"lightheartedness","EMT",17.5
"767",0.3,"melodramatically","EMT",31.66
"768",0.3,"multimillionaire","EMT",24.16
"769",0.3,"nationalizations","EMT",25
"770",0.3,"neurotransmitter","EMT",27.5
"771",0.3,"overcompensating","EMT",25.83
"772",0.3,"photojournalists","EMT",25
"773",0.3,"predetermination","EMT",26.66
"774",0.3,"rambunctiousness","EMT",26.66
"775",0.3,"sentimentalizing","EMT",24.16
"776",0.3,"synchronizations","EMT",27.5
"777",0.3,"teleconferencing","EMT",32.5
"778",0.3,"transcendentally","EMT",24.16
"779",0.3,"unscrupulousness","EMT",28.33
"780",0.3,"whatchamacallits","EMT",23.33
"781",0.45,"acknowledgements","EMT",38.33
"782",0.45,"administratively","EMT",46.66
"783",0.45,"Australopithecus","EMT",42.5
"784",0.45,"bloodthirstiness","EMT",35.83
"785",0.45,"cinematographers","EMT",42.5
"786",0.45,"counterespionage","EMT",38.33
"787",0.45,"Czechoslovakians","EMT",43.33
"788",0.45,"departmentalized","EMT",41.66
"789",0.45,"disqualification","EMT",40
"790",0.45,"enthusiastically","EMT",41.66
"791",0.45,"flibbertigibbets","EMT",39.16
"792",0.45,"gastrointestinal","EMT",42.5
"793",0.45,"hospitalizations","EMT",45.83
"794",0.45,"hydroelectricity","EMT",43.33
"795",0.45,"intellectualized","EMT",38.33
"796",0.45,"lightheartedness","EMT",32.5
"797",0.45,"melodramatically","EMT",42.5
"798",0.45,"multimillionaire","EMT",35
"799",0.45,"nationalizations","EMT",42.5
"800",0.45,"neurotransmitter","EMT",40
"801",0.45,"overcompensating","EMT",41.66
"802",0.45,"photojournalists","EMT",41.66
"803",0.45,"predetermination","EMT",45.83
"804",0.45,"rambunctiousness","EMT",37.5
"805",0.45,"sentimentalizing","EMT",35.83
"806",0.45,"synchronizations","EMT",41.66
"807",0.45,"teleconferencing","EMT",45.83
"808",0.45,"transcendentally","EMT",43.33
"809",0.45,"unscrupulousness","EMT",42.5
"810",0.45,"whatchamacallits","EMT",35.83
"811",0.6,"acknowledgements","EMT",57.5
"812",0.6,"administratively","EMT",59.16
"813",0.6,"Australopithecus","EMT",59.16
"814",0.6,"bloodthirstiness","EMT",53.33
"815",0.6,"cinematographers","EMT",59.16
"816",0.6,"counterespionage","EMT",47.5
"817",0.6,"Czechoslovakians","EMT",62.5
"818",0.6,"departmentalized","EMT",61.66
"819",0.6,"disqualification","EMT",55
"820",0.6,"enthusiastically","EMT",60
"821",0.6,"flibbertigibbets","EMT",53.33
"822",0.6,"gastrointestinal","EMT",52.5
"823",0.6,"hospitalizations","EMT",56.66
"824",0.6,"hydroelectricity","EMT",55.83
"825",0.6,"intellectualized","EMT",50
"826",0.6,"lightheartedness","EMT",44.16
"827",0.6,"melodramatically","EMT",59.16
"828",0.6,"multimillionaire","EMT",55
"829",0.6,"nationalizations","EMT",54.16
"830",0.6,"neurotransmitter","EMT",54.16
"831",0.6,"overcompensating","EMT",58.33
"832",0.6,"photojournalists","EMT",59.16
"833",0.6,"predetermination","EMT",60
"834",0.6,"rambunctiousness","EMT",65
"835",0.6,"sentimentalizing","EMT",47.5
"836",0.6,"synchronizations","EMT",54.16
"837",0.6,"teleconferencing","EMT",60
"838",0.6,"transcendentally","EMT",56.66
"839",0.6,"unscrupulousness","EMT",54.16
"840",0.6,"whatchamacallits","EMT",51.66
"841",0.75,"acknowledgements","EMT",69.16
"842",0.75,"administratively","EMT",70
"843",0.75,"Australopithecus","EMT",70.83
"844",0.75,"bloodthirstiness","EMT",67.5
"845",0.75,"cinematographers","EMT",68.33
"846",0.75,"counterespionage","EMT",65.83
"847",0.75,"Czechoslovakians","EMT",73.33
"848",0.75,"departmentalized","EMT",77.5
"849",0.75,"disqualification","EMT",67.5
"850",0.75,"enthusiastically","EMT",72.5
"851",0.75,"flibbertigibbets","EMT",71.66
"852",0.75,"gastrointestinal","EMT",69.16
"853",0.75,"hospitalizations","EMT",65.83
"854",0.75,"hydroelectricity","EMT",70
"855",0.75,"intellectualized","EMT",74.16
"856",0.75,"lightheartedness","EMT",69.16
"857",0.75,"melodramatically","EMT",67.5
"858",0.75,"multimillionaire","EMT",66.66
"859",0.75,"nationalizations","EMT",70
"860",0.75,"neurotransmitter","EMT",69.16
"861",0.75,"overcompensating","EMT",75
"862",0.75,"photojournalists","EMT",72.5
"863",0.75,"predetermination","EMT",68.33
"864",0.75,"rambunctiousness","EMT",74.16
"865",0.75,"sentimentalizing","EMT",70.83
"866",0.75,"synchronizations","EMT",69.16
"867",0.75,"teleconferencing","EMT",71.66
"868",0.75,"transcendentally","EMT",71.66
"869",0.75,"unscrupulousness","EMT",67.5
"870",0.75,"whatchamacallits","EMT",69.16
"871",0.9,"acknowledgements","EMT",85.83
"872",0.9,"administratively","EMT",85.83
"873",0.9,"Australopithecus","EMT",85
"874",0.9,"bloodthirstiness","EMT",84.16
"875",0.9,"cinematographers","EMT",80
"876",0.9,"counterespionage","EMT",82.5
"877",0.9,"Czechoslovakians","EMT",84.16
"878",0.9,"departmentalized","EMT",88.33
"879",0.9,"disqualification","EMT",81.66
"880",0.9,"enthusiastically","EMT",89.16
"881",0.9,"flibbertigibbets","EMT",82.5
"882",0.9,"gastrointestinal","EMT",86.66
"883",0.9,"hospitalizations","EMT",83.33
"884",0.9,"hydroelectricity","EMT",84.16
"885",0.9,"intellectualized","EMT",87.5
"886",0.9,"lightheartedness","EMT",94.16
"887",0.9,"melodramatically","EMT",80
"888",0.9,"multimillionaire","EMT",84.16
"889",0.9,"nationalizations","EMT",84.16
"890",0.9,"neurotransmitter","EMT",84.16
"891",0.9,"overcompensating","EMT",85.83
"892",0.9,"photojournalists","EMT",90
"893",0.9,"predetermination","EMT",82.5
"894",0.9,"rambunctiousness","EMT",88.33
"895",0.9,"sentimentalizing","EMT",88.33
"896",0.9,"synchronizations","EMT",88.33
"897",0.9,"teleconferencing","EMT",83.33
"898",0.9,"transcendentally","EMT",84.16
"899",0.9,"unscrupulousness","EMT",90
"900",0.9,"whatchamacallits","EMT",80
"901",0.3,"acknowledgements","EMT_C-",28.33
"902",0.3,"administratively","EMT_C-",29.16
"903",0.3,"Australopithecus","EMT_C-",26.66
"904",0.3,"bloodthirstiness","EMT_C-",22.5
"905",0.3,"cinematographers","EMT_C-",29.16
"906",0.3,"counterespionage","EMT_C-",22.5
"907",0.3,"Czechoslovakians","EMT_C-",30
"908",0.3,"departmentalized","EMT_C-",30
"909",0.3,"disqualification","EMT_C-",26.66
"910",0.3,"enthusiastically","EMT_C-",28.33
"911",0.3,"flibbertigibbets","EMT_C-",27.5
"912",0.3,"gastrointestinal","EMT_C-",28.33
"913",0.3,"hospitalizations","EMT_C-",30.83
"914",0.3,"hydroelectricity","EMT_C-",27.5
"915",0.3,"intellectualized","EMT_C-",24.16
"916",0.3,"lightheartedness","EMT_C-",17.5
"917",0.3,"melodramatically","EMT_C-",31.66
"918",0.3,"multimillionaire","EMT_C-",24.16
"919",0.3,"nationalizations","EMT_C-",25
"920",0.3,"neurotransmitter","EMT_C-",27.5
"921",0.3,"overcompensating","EMT_C-",25.83
"922",0.3,"photojournalists","EMT_C-",25
"923",0.3,"predetermination","EMT_C-",26.66
"924",0.3,"rambunctiousness","EMT_C-",26.66
"925",0.3,"sentimentalizing","EMT_C-",24.16
"926",0.3,"synchronizations","EMT_C-",27.5
"927",0.3,"teleconferencing","EMT_C-",32.5
"928",0.3,"transcendentally","EMT_C-",24.16
"929",0.3,"unscrupulousness","EMT_C-",28.33
"930",0.3,"whatchamacallits","EMT_C-",23.33
"931",0.45,"acknowledgements","EMT_C-",38.33
"932",0.45,"administratively","EMT_C-",46.66
"933",0.45,"Australopithecus","EMT_C-",42.5
"934",0.45,"bloodthirstiness","EMT_C-",35.83
"935",0.45,"cinematographers","EMT_C-",42.5
"936",0.45,"counterespionage","EMT_C-",38.33
"937",0.45,"Czechoslovakians","EMT_C-",43.33
"938",0.45,"departmentalized","EMT_C-",41.66
"939",0.45,"disqualification","EMT_C-",40
"940",0.45,"enthusiastically","EMT_C-",41.66
"941",0.45,"flibbertigibbets","EMT_C-",39.16
"942",0.45,"gastrointestinal","EMT_C-",42.5
"943",0.45,"hospitalizations","EMT_C-",45.83
"944",0.45,"hydroelectricity","EMT_C-",43.33
"945",0.45,"intellectualized","EMT_C-",38.33
"946",0.45,"lightheartedness","EMT_C-",32.5
"947",0.45,"melodramatically","EMT_C-",42.5
"948",0.45,"multimillionaire","EMT_C-",35
"949",0.45,"nationalizations","EMT_C-",42.5
"950",0.45,"neurotransmitter","EMT_C-",40
"951",0.45,"overcompensating","EMT_C-",41.66
"952",0.45,"photojournalists","EMT_C-",41.66
"953",0.45,"predetermination","EMT_C-",45.83
"954",0.45,"rambunctiousness","EMT_C-",37.5
"955",0.45,"sentimentalizing","EMT_C-",35.83
"956",0.45,"synchronizations","EMT_C-",41.66
"957",0.45,"teleconferencing","EMT_C-",45.83
"958",0.45,"transcendentally","EMT_C-",43.33
"959",0.45,"unscrupulousness","EMT_C-",42.5
"960",0.45,"whatchamacallits","EMT_C-",35.83
"961",0.6,"acknowledgements","EMT_C-",57.5
"962",0.6,"administratively","EMT_C-",59.16
"963",0.6,"Australopithecus","EMT_C-",59.16
"964",0.6,"bloodthirstiness","EMT_C-",53.33
"965",0.6,"cinematographers","EMT_C-",59.16
"966",0.6,"counterespionage","EMT_C-",47.5
"967",0.6,"Czechoslovakians","EMT_C-",62.5
"968",0.6,"departmentalized","EMT_C-",61.66
"969",0.6,"disqualification","EMT_C-",55
"970",0.6,"enthusiastically","EMT_C-",60
"971",0.6,"flibbertigibbets","EMT_C-",53.33
"972",0.6,"gastrointestinal","EMT_C-",52.5
"973",0.6,"hospitalizations","EMT_C-",56.66
"974",0.6,"hydroelectricity","EMT_C-",55.83
"975",0.6,"intellectualized","EMT_C-",50
"976",0.6,"lightheartedness","EMT_C-",44.16
"977",0.6,"melodramatically","EMT_C-",59.16
"978",0.6,"multimillionaire","EMT_C-",55
"979",0.6,"nationalizations","EMT_C-",54.16
"980",0.6,"neurotransmitter","EMT_C-",54.16
"981",0.6,"overcompensating","EMT_C-",58.33
"982",0.6,"photojournalists","EMT_C-",59.16
"983",0.6,"predetermination","EMT_C-",60
"984",0.6,"rambunctiousness","EMT_C-",65
"985",0.6,"sentimentalizing","EMT_C-",47.5
"986",0.6,"synchronizations","EMT_C-",54.16
"987",0.6,"teleconferencing","EMT_C-",60
"988",0.6,"transcendentally","EMT_C-",56.66
"989",0.6,"unscrupulousness","EMT_C-",54.16
"990",0.6,"whatchamacallits","EMT_C-",51.66
"991",0.75,"acknowledgements","EMT_C-",69.16
"992",0.75,"administratively","EMT_C-",70
"993",0.75,"Australopithecus","EMT_C-",70.83
"994",0.75,"bloodthirstiness","EMT_C-",67.5
"995",0.75,"cinematographers","EMT_C-",68.33
"996",0.75,"counterespionage","EMT_C-",65.83
"997",0.75,"Czechoslovakians","EMT_C-",73.33
"998",0.75,"departmentalized","EMT_C-",77.5
"999",0.75,"disqualification","EMT_C-",67.5
"1000",0.75,"enthusiastically","EMT_C-",72.5
"1001",0.75,"flibbertigibbets","EMT_C-",71.66
"1002",0.75,"gastrointestinal","EMT_C-",69.16
"1003",0.75,"hospitalizations","EMT_C-",65.83
"1004",0.75,"hydroelectricity","EMT_C-",70
"1005",0.75,"intellectualized","EMT_C-",74.16
"1006",0.75,"lightheartedness","EMT_C-",69.16
"1007",0.75,"melodramatically","EMT_C-",67.5
"1008",0.75,"multimillionaire","EMT_C-",66.66
"1009",0.75,"nationalizations","EMT_C-",70
"1010",0.75,"neurotransmitter","EMT_C-",69.16
"1011",0.75,"overcompensating","EMT_C-",75
"1012",0.75,"photojournalists","EMT_C-",72.5
"1013",0.75,"predetermination","EMT_C-",68.33
"1014",0.75,"rambunctiousness","EMT_C-",74.16
"1015",0.75,"sentimentalizing","EMT_C-",70.83
"1016",0.75,"synchronizations","EMT_C-",69.16
"1017",0.75,"teleconferencing","EMT_C-",71.66
"1018",0.75,"transcendentally","EMT_C-",71.66
"1019",0.75,"unscrupulousness","EMT_C-",67.5
"1020",0.75,"whatchamacallits","EMT_C-",69.16
"1021",0.9,"acknowledgements","EMT_C-",85.83
"1022",0.9,"administratively","EMT_C-",85.83
"1023",0.9,"Australopithecus","EMT_C-",85
"1024",0.9,"bloodthirstiness","EMT_C-",84.16
"1025",0.9,"cinematographers","EMT_C-",80
"1026",0.9,"counterespionage","EMT_C-",82.5
"1027",0.9,"Czechoslovakians","EMT_C-",84.16
"1028",0.9,"departmentalized","EMT_C-",88.33
"1029",0.9,"disqualification","EMT_C-",81.66
"1030",0.9,"enthusiastically","EMT_C-",89.16
"1031",0.9,"flibbertigibbets","EMT_C-",82.5
"1032",0.9,"gastrointestinal","EMT_C-",86.66
"1033",0.9,"hospitalizations","EMT_C-",83.33
"1034",0.9,"hydroelectricity","EMT_C-",84.16
"1035",0.9,"intellectualized","EMT_C-",87.5
"1036",0.9,"lightheartedness","EMT_C-",94.16
"1037",0.9,"melodramatically","EMT_C-",80
"1038",0.9,"multimillionaire","EMT_C-",84.16
"1039",0.9,"nationalizations","EMT_C-",84.16
"1040",0.9,"neurotransmitter","EMT_C-",84.16
"1041",0.9,"overcompensating","EMT_C-",85.83
"1042",0.9,"photojournalists","EMT_C-",90
"1043",0.9,"predetermination","EMT_C-",82.5
"1044",0.9,"rambunctiousness","EMT_C-",88.33
"1045",0.9,"sentimentalizing","EMT_C-",88.33
"1046",0.9,"synchronizations","EMT_C-",88.33
"1047",0.9,"teleconferencing","EMT_C-",83.33
"1048",0.9,"transcendentally","EMT_C-",84.16
"1049",0.9,"unscrupulousness","EMT_C-",90
"1050",0.9,"whatchamacallits","EMT_C-",80
"1051",0.3,"acknowledgements","EMT_C+",28.33
"1052",0.3,"administratively","EMT_C+",29.16
"1053",0.3,"Australopithecus","EMT_C+",26.66
"1054",0.3,"bloodthirstiness","EMT_C+",22.5
"1055",0.3,"cinematographers","EMT_C+",29.16
"1056",0.3,"counterespionage","EMT_C+",22.5
"1057",0.3,"Czechoslovakians","EMT_C+",30
"1058",0.3,"departmentalized","EMT_C+",30
"1059",0.3,"disqualification","EMT_C+",26.66
"1060",0.3,"enthusiastically","EMT_C+",28.33
"1061",0.3,"flibbertigibbets","EMT_C+",27.5
"1062",0.3,"gastrointestinal","EMT_C+",28.33
"1063",0.3,"hospitalizations","EMT_C+",30.83
"1064",0.3,"hydroelectricity","EMT_C+",27.5
"1065",0.3,"intellectualized","EMT_C+",24.16
"1066",0.3,"lightheartedness","EMT_C+",17.5
"1067",0.3,"melodramatically","EMT_C+",31.66
"1068",0.3,"multimillionaire","EMT_C+",24.16
"1069",0.3,"nationalizations","EMT_C+",25
"1070",0.3,"neurotransmitter","EMT_C+",27.5
"1071",0.3,"overcompensating","EMT_C+",25.83
"1072",0.3,"photojournalists","EMT_C+",25
"1073",0.3,"predetermination","EMT_C+",26.66
"1074",0.3,"rambunctiousness","EMT_C+",26.66
"1075",0.3,"sentimentalizing","EMT_C+",24.16
"1076",0.3,"synchronizations","EMT_C+",27.5
"1077",0.3,"teleconferencing","EMT_C+",32.5
"1078",0.3,"transcendentally","EMT_C+",24.16
"1079",0.3,"unscrupulousness","EMT_C+",28.33
"1080",0.3,"whatchamacallits","EMT_C+",23.33
"1081",0.45,"acknowledgements","EMT_C+",38.33
"1082",0.45,"administratively","EMT_C+",46.66
"1083",0.45,"Australopithecus","EMT_C+",42.5
"1084",0.45,"bloodthirstiness","EMT_C+",35.83
"1085",0.45,"cinematographers","EMT_C+",42.5
"1086",0.45,"counterespionage","EMT_C+",38.33
"1087",0.45,"Czechoslovakians","EMT_C+",43.33
"1088",0.45,"departmentalized","EMT_C+",41.66
"1089",0.45,"disqualification","EMT_C+",40
"1090",0.45,"enthusiastically","EMT_C+",41.66
"1091",0.45,"flibbertigibbets","EMT_C+",39.16
"1092",0.45,"gastrointestinal","EMT_C+",42.5
"1093",0.45,"hospitalizations","EMT_C+",45.83
"1094",0.45,"hydroelectricity","EMT_C+",43.33
"1095",0.45,"intellectualized","EMT_C+",38.33
"1096",0.45,"lightheartedness","EMT_C+",32.5
"1097",0.45,"melodramatically","EMT_C+",42.5
"1098",0.45,"multimillionaire","EMT_C+",35
"1099",0.45,"nationalizations","EMT_C+",42.5
"1100",0.45,"neurotransmitter","EMT_C+",40
"1101",0.45,"overcompensating","EMT_C+",41.66
"1102",0.45,"photojournalists","EMT_C+",41.66
"1103",0.45,"predetermination","EMT_C+",45.83
"1104",0.45,"rambunctiousness","EMT_C+",37.5
"1105",0.45,"sentimentalizing","EMT_C+",35.83
"1106",0.45,"synchronizations","EMT_C+",41.66
"1107",0.45,"teleconferencing","EMT_C+",45.83
"1108",0.45,"transcendentally","EMT_C+",43.33
"1109",0.45,"unscrupulousness","EMT_C+",42.5
"1110",0.45,"whatchamacallits","EMT_C+",35.83
"1111",0.6,"acknowledgements","EMT_C+",57.5
"1112",0.6,"administratively","EMT_C+",59.16
"1113",0.6,"Australopithecus","EMT_C+",59.16
"1114",0.6,"bloodthirstiness","EMT_C+",53.33
"1115",0.6,"cinematographers","EMT_C+",59.16
"1116",0.6,"counterespionage","EMT_C+",47.5
"1117",0.6,"Czechoslovakians","EMT_C+",62.5
"1118",0.6,"departmentalized","EMT_C+",61.66
"1119",0.6,"disqualification","EMT_C+",55
"1120",0.6,"enthusiastically","EMT_C+",60
"1121",0.6,"flibbertigibbets","EMT_C+",53.33
"1122",0.6,"gastrointestinal","EMT_C+",52.5
"1123",0.6,"hospitalizations","EMT_C+",56.66
"1124",0.6,"hydroelectricity","EMT_C+",55.83
"1125",0.6,"intellectualized","EMT_C+",50
"1126",0.6,"lightheartedness","EMT_C+",44.16
"1127",0.6,"melodramatically","EMT_C+",59.16
"1128",0.6,"multimillionaire","EMT_C+",55
"1129",0.6,"nationalizations","EMT_C+",54.16
"1130",0.6,"neurotransmitter","EMT_C+",54.16
"1131",0.6,"overcompensating","EMT_C+",58.33
"1132",0.6,"photojournalists","EMT_C+",59.16
"1133",0.6,"predetermination","EMT_C+",60
"1134",0.6,"rambunctiousness","EMT_C+",65
"1135",0.6,"sentimentalizing","EMT_C+",47.5
"1136",0.6,"synchronizations","EMT_C+",54.16
"1137",0.6,"teleconferencing","EMT_C+",60
"1138",0.6,"transcendentally","EMT_C+",56.66
"1139",0.6,"unscrupulousness","EMT_C+",54.16
"1140",0.6,"whatchamacallits","EMT_C+",51.66
"1141",0.75,"acknowledgements","EMT_C+",69.16
"1142",0.75,"administratively","EMT_C+",70
"1143",0.75,"Australopithecus","EMT_C+",70.83
"1144",0.75,"bloodthirstiness","EMT_C+",67.5
"1145",0.75,"cinematographers","EMT_C+",68.33
"1146",0.75,"counterespionage","EMT_C+",65.83
"1147",0.75,"Czechoslovakians","EMT_C+",73.33
"1148",0.75,"departmentalized","EMT_C+",77.5
"1149",0.75,"disqualification","EMT_C+",67.5
"1150",0.75,"enthusiastically","EMT_C+",72.5
"1151",0.75,"flibbertigibbets","EMT_C+",71.66
"1152",0.75,"gastrointestinal","EMT_C+",69.16
"1153",0.75,"hospitalizations","EMT_C+",65.83
"1154",0.75,"hydroelectricity","EMT_C+",70
"1155",0.75,"intellectualized","EMT_C+",74.16
"1156",0.75,"lightheartedness","EMT_C+",69.16
"1157",0.75,"melodramatically","EMT_C+",67.5
"1158",0.75,"multimillionaire","EMT_C+",66.66
"1159",0.75,"nationalizations","EMT_C+",70
"1160",0.75,"neurotransmitter","EMT_C+",69.16
"1161",0.75,"overcompensating","EMT_C+",75
"1162",0.75,"photojournalists","EMT_C+",72.5
"1163",0.75,"predetermination","EMT_C+",68.33
"1164",0.75,"rambunctiousness","EMT_C+",74.16
"1165",0.75,"sentimentalizing","EMT_C+",70.83
"1166",0.75,"synchronizations","EMT_C+",69.16
"1167",0.75,"teleconferencing","EMT_C+",71.66
"1168",0.75,"transcendentally","EMT_C+",71.66
"1169",0.75,"unscrupulousness","EMT_C+",67.5
"1170",0.75,"whatchamacallits","EMT_C+",69.16
"1171",0.9,"acknowledgements","EMT_C+",85.83
"1172",0.9,"administratively","EMT_C+",85.83
"1173",0.9,"Australopithecus","EMT_C+",85
"1174",0.9,"bloodthirstiness","EMT_C+",84.16
"1175",0.9,"cinematographers","EMT_C+",80
"1176",0.9,"counterespionage","EMT_C+",82.5
"1177",0.9,"Czechoslovakians","EMT_C+",84.16
"1178",0.9,"departmentalized","EMT_C+",88.33
"1179",0.9,"disqualification","EMT_C+",81.66
"1180",0.9,"enthusiastically","EMT_C+",89.16
"1181",0.9,"flibbertigibbets","EMT_C+",82.5
"1182",0.9,"gastrointestinal","EMT_C+",86.66
"1183",0.9,"hospitalizations","EMT_C+",83.33
"1184",0.9,"hydroelectricity","EMT_C+",84.16
"1185",0.9,"intellectualized","EMT_C+",87.5
"1186",0.9,"lightheartedness","EMT_C+",94.16
"1187",0.9,"melodramatically","EMT_C+",80
"1188",0.9,"multimillionaire","EMT_C+",84.16
"1189",0.9,"nationalizations","EMT_C+",84.16
"1190",0.9,"neurotransmitter","EMT_C+",84.16
"1191",0.9,"overcompensating","EMT_C+",85.83
"1192",0.9,"photojournalists","EMT_C+",90
"1193",0.9,"predetermination","EMT_C+",82.5
"1194",0.9,"rambunctiousness","EMT_C+",88.33
"1195",0.9,"sentimentalizing","EMT_C+",88.33
"1196",0.9,"synchronizations","EMT_C+",88.33
"1197",0.9,"teleconferencing","EMT_C+",83.33
"1198",0.9,"transcendentally","EMT_C+",84.16
"1199",0.9,"unscrupulousness","EMT_C+",90
"1200",0.9,"whatchamacallits","EMT_C+",80
"1201",0.3,"acknowledgements","EMT_KBG",30
"1202",0.3,"administratively","EMT_KBG",25.83
"1203",0.3,"Australopithecus","EMT_KBG",25.83
"1204",0.3,"bloodthirstiness","EMT_KBG",24.16
"1205",0.3,"cinematographers","EMT_KBG",24.16
"1206",0.3,"counterespionage","EMT_KBG",20
"1207",0.3,"Czechoslovakians","EMT_KBG",27.5
"1208",0.3,"departmentalized","EMT_KBG",20.83
"1209",0.3,"disqualification","EMT_KBG",25
"1210",0.3,"enthusiastically","EMT_KBG",25
"1211",0.3,"flibbertigibbets","EMT_KBG",27.5
"1212",0.3,"gastrointestinal","EMT_KBG",23.33
"1213",0.3,"hospitalizations","EMT_KBG",22.5
"1214",0.3,"hydroelectricity","EMT_KBG",24.16
"1215",0.3,"intellectualized","EMT_KBG",23.33
"1216",0.3,"lightheartedness","EMT_KBG",25.83
"1217",0.3,"melodramatically","EMT_KBG",25
"1218",0.3,"multimillionaire","EMT_KBG",26.66
"1219",0.3,"nationalizations","EMT_KBG",23.33
"1220",0.3,"neurotransmitter","EMT_KBG",26.66
"1221",0.3,"overcompensating","EMT_KBG",25.83
"1222",0.3,"photojournalists","EMT_KBG",20
"1223",0.3,"predetermination","EMT_KBG",22.5
"1224",0.3,"rambunctiousness","EMT_KBG",29.16
"1225",0.3,"sentimentalizing","EMT_KBG",25.83
"1226",0.3,"synchronizations","EMT_KBG",24.16
"1227",0.3,"teleconferencing","EMT_KBG",21.66
"1228",0.3,"transcendentally","EMT_KBG",27.5
"1229",0.3,"unscrupulousness","EMT_KBG",22.5
"1230",0.3,"whatchamacallits","EMT_KBG",20.83
"1231",0.45,"acknowledgements","EMT_KBG",42.5
"1232",0.45,"administratively","EMT_KBG",43.33
"1233",0.45,"Australopithecus","EMT_KBG",38.33
"1234",0.45,"bloodthirstiness","EMT_KBG",36.66
"1235",0.45,"cinematographers","EMT_KBG",39.16
"1236",0.45,"counterespionage","EMT_KBG",31.66
"1237",0.45,"Czechoslovakians","EMT_KBG",40.83
"1238",0.45,"departmentalized","EMT_KBG",34.16
"1239",0.45,"disqualification","EMT_KBG",38.33
"1240",0.45,"enthusiastically","EMT_KBG",36.66
"1241",0.45,"flibbertigibbets","EMT_KBG",38.33
"1242",0.45,"gastrointestinal","EMT_KBG",36.66
"1243",0.45,"hospitalizations","EMT_KBG",36.66
"1244",0.45,"hydroelectricity","EMT_KBG",32.5
"1245",0.45,"intellectualized","EMT_KBG",33.33
"1246",0.45,"lightheartedness","EMT_KBG",40.83
"1247",0.45,"melodramatically","EMT_KBG",35
"1248",0.45,"multimillionaire","EMT_KBG",42.5
"1249",0.45,"nationalizations","EMT_KBG",38.33
"1250",0.45,"neurotransmitter","EMT_KBG",38.33
"1251",0.45,"overcompensating","EMT_KBG",40
"1252",0.45,"photojournalists","EMT_KBG",32.5
"1253",0.45,"predetermination","EMT_KBG",35.83
"1254",0.45,"rambunctiousness","EMT_KBG",49.16
"1255",0.45,"sentimentalizing","EMT_KBG",35.83
"1256",0.45,"synchronizations","EMT_KBG",34.16
"1257",0.45,"teleconferencing","EMT_KBG",44.16
"1258",0.45,"transcendentally","EMT_KBG",38.33
"1259",0.45,"unscrupulousness","EMT_KBG",39.16
"1260",0.45,"whatchamacallits","EMT_KBG",33.33
"1261",0.6,"acknowledgements","EMT_KBG",54.16
"1262",0.6,"administratively","EMT_KBG",50.83
"1263",0.6,"Australopithecus","EMT_KBG",45.83
"1264",0.6,"bloodthirstiness","EMT_KBG",49.16
"1265",0.6,"cinematographers","EMT_KBG",50
"1266",0.6,"counterespionage","EMT_KBG",40
"1267",0.6,"Czechoslovakians","EMT_KBG",52.5
"1268",0.6,"departmentalized","EMT_KBG",49.16
"1269",0.6,"disqualification","EMT_KBG",53.33
"1270",0.6,"enthusiastically","EMT_KBG",52.5
"1271",0.6,"flibbertigibbets","EMT_KBG",49.16
"1272",0.6,"gastrointestinal","EMT_KBG",56.66
"1273",0.6,"hospitalizations","EMT_KBG",56.66
"1274",0.6,"hydroelectricity","EMT_KBG",45
"1275",0.6,"intellectualized","EMT_KBG",46.66
"1276",0.6,"lightheartedness","EMT_KBG",55
"1277",0.6,"melodramatically","EMT_KBG",45.83
"1278",0.6,"multimillionaire","EMT_KBG",50
"1279",0.6,"nationalizations","EMT_KBG",48.33
"1280",0.6,"neurotransmitter","EMT_KBG",52.5
"1281",0.6,"overcompensating","EMT_KBG",60
"1282",0.6,"photojournalists","EMT_KBG",49.16
"1283",0.6,"predetermination","EMT_KBG",46.66
"1284",0.6,"rambunctiousness","EMT_KBG",57.5
"1285",0.6,"sentimentalizing","EMT_KBG",49.16
"1286",0.6,"synchronizations","EMT_KBG",47.5
"1287",0.6,"teleconferencing","EMT_KBG",54.16
"1288",0.6,"transcendentally","EMT_KBG",56.66
"1289",0.6,"unscrupulousness","EMT_KBG",54.16
"1290",0.6,"whatchamacallits","EMT_KBG",48.33
"1291",0.75,"acknowledgements","EMT_KBG",64.16
"1292",0.75,"administratively","EMT_KBG",69.16
"1293",0.75,"Australopithecus","EMT_KBG",65.83
"1294",0.75,"bloodthirstiness","EMT_KBG",69.16
"1295",0.75,"cinematographers","EMT_KBG",65.83
"1296",0.75,"counterespionage","EMT_KBG",64.16
"1297",0.75,"Czechoslovakians","EMT_KBG",70
"1298",0.75,"departmentalized","EMT_KBG",60.83
"1299",0.75,"disqualification","EMT_KBG",65
"1300",0.75,"enthusiastically","EMT_KBG",64.16
"1301",0.75,"flibbertigibbets","EMT_KBG",70
"1302",0.75,"gastrointestinal","EMT_KBG",70
"1303",0.75,"hospitalizations","EMT_KBG",71.66
"1304",0.75,"hydroelectricity","EMT_KBG",65
"1305",0.75,"intellectualized","EMT_KBG",60
"1306",0.75,"lightheartedness","EMT_KBG",65.83
"1307",0.75,"melodramatically","EMT_KBG",65
"1308",0.75,"multimillionaire","EMT_KBG",64.16
"1309",0.75,"nationalizations","EMT_KBG",64.16
"1310",0.75,"neurotransmitter","EMT_KBG",64.16
"1311",0.75,"overcompensating","EMT_KBG",72.5
"1312",0.75,"photojournalists","EMT_KBG",64.16
"1313",0.75,"predetermination","EMT_KBG",59.16
"1314",0.75,"rambunctiousness","EMT_KBG",68.33
"1315",0.75,"sentimentalizing","EMT_KBG",69.16
"1316",0.75,"synchronizations","EMT_KBG",59.16
"1317",0.75,"teleconferencing","EMT_KBG",72.5
"1318",0.75,"transcendentally","EMT_KBG",70.83
"1319",0.75,"unscrupulousness","EMT_KBG",68.33
"1320",0.75,"whatchamacallits","EMT_KBG",75
"1321",0.9,"acknowledgements","EMT_KBG",78.33
"1322",0.9,"administratively","EMT_KBG",87.5
"1323",0.9,"Australopithecus","EMT_KBG",89.16
"1324",0.9,"bloodthirstiness","EMT_KBG",85
"1325",0.9,"cinematographers","EMT_KBG",84.16
"1326",0.9,"counterespionage","EMT_KBG",83.33
"1327",0.9,"Czechoslovakians","EMT_KBG",87.5
"1328",0.9,"departmentalized","EMT_KBG",81.66
"1329",0.9,"disqualification","EMT_KBG",88.33
"1330",0.9,"enthusiastically","EMT_KBG",85
"1331",0.9,"flibbertigibbets","EMT_KBG",81.66
"1332",0.9,"gastrointestinal","EMT_KBG",80
"1333",0.9,"hospitalizations","EMT_KBG",83.33
"1334",0.9,"hydroelectricity","EMT_KBG",81.66
"1335",0.9,"intellectualized","EMT_KBG",80.83
"1336",0.9,"lightheartedness","EMT_KBG",78.33
"1337",0.9,"melodramatically","EMT_KBG",81.66
"1338",0.9,"multimillionaire","EMT_KBG",80.83
"1339",0.9,"nationalizations","EMT_KBG",75.83
"1340",0.9,"neurotransmitter","EMT_KBG",80.83
"1341",0.9,"overcompensating","EMT_KBG",83.33
"1342",0.9,"photojournalists","EMT_KBG",85.83
"1343",0.9,"predetermination","EMT_KBG",72.5
"1344",0.9,"rambunctiousness","EMT_KBG",79.16
"1345",0.9,"sentimentalizing","EMT_KBG",84.16
"1346",0.9,"synchronizations","EMT_KBG",71.66
"1347",0.9,"teleconferencing","EMT_KBG",80.83
"1348",0.9,"transcendentally","EMT_KBG",89.16
"1349",0.9,"unscrupulousness","EMT_KBG",81.66
"1350",0.9,"whatchamacallits","EMT_KBG",86.66
"1351",0.3,"acknowledgements","EMT_KBG5",20
"1352",0.3,"administratively","EMT_KBG5",24.16
"1353",0.3,"Australopithecus","EMT_KBG5",20.83
"1354",0.3,"bloodthirstiness","EMT_KBG5",22.5
"1355",0.3,"cinematographers","EMT_KBG5",25
"1356",0.3,"counterespionage","EMT_KBG5",23.33
"1357",0.3,"Czechoslovakians","EMT_KBG5",29.16
"1358",0.3,"departmentalized","EMT_KBG5",24.16
"1359",0.3,"disqualification","EMT_KBG5",26.66
"1360",0.3,"enthusiastically","EMT_KBG5",25.83
"1361",0.3,"flibbertigibbets","EMT_KBG5",20.83
"1362",0.3,"gastrointestinal","EMT_KBG5",31.66
"1363",0.3,"hospitalizations","EMT_KBG5",26.66
"1364",0.3,"hydroelectricity","EMT_KBG5",24.16
"1365",0.3,"intellectualized","EMT_KBG5",19.16
"1366",0.3,"lightheartedness","EMT_KBG5",20.83
"1367",0.3,"melodramatically","EMT_KBG5",27.5
"1368",0.3,"multimillionaire","EMT_KBG5",35.83
"1369",0.3,"nationalizations","EMT_KBG5",21.66
"1370",0.3,"neurotransmitter","EMT_KBG5",22.5
"1371",0.3,"overcompensating","EMT_KBG5",24.16
"1372",0.3,"photojournalists","EMT_KBG5",20.83
"1373",0.3,"predetermination","EMT_KBG5",20.83
"1374",0.3,"rambunctiousness","EMT_KBG5",22.5
"1375",0.3,"sentimentalizing","EMT_KBG5",26.66
"1376",0.3,"synchronizations","EMT_KBG5",25.83
"1377",0.3,"teleconferencing","EMT_KBG5",24.16
"1378",0.3,"transcendentally","EMT_KBG5",29.16
"1379",0.3,"unscrupulousness","EMT_KBG5",22.5
"1380",0.3,"whatchamacallits","EMT_KBG5",23.33
"1381",0.45,"acknowledgements","EMT_KBG5",32.5
"1382",0.45,"administratively","EMT_KBG5",33.33
"1383",0.45,"Australopithecus","EMT_KBG5",33.33
"1384",0.45,"bloodthirstiness","EMT_KBG5",37.5
"1385",0.45,"cinematographers","EMT_KBG5",34.16
"1386",0.45,"counterespionage","EMT_KBG5",38.33
"1387",0.45,"Czechoslovakians","EMT_KBG5",46.66
"1388",0.45,"departmentalized","EMT_KBG5",37.5
"1389",0.45,"disqualification","EMT_KBG5",40.83
"1390",0.45,"enthusiastically","EMT_KBG5",35.83
"1391",0.45,"flibbertigibbets","EMT_KBG5",34.16
"1392",0.45,"gastrointestinal","EMT_KBG5",45
"1393",0.45,"hospitalizations","EMT_KBG5",43.33
"1394",0.45,"hydroelectricity","EMT_KBG5",36.66
"1395",0.45,"intellectualized","EMT_KBG5",31.66
"1396",0.45,"lightheartedness","EMT_KBG5",33.33
"1397",0.45,"melodramatically","EMT_KBG5",38.33
"1398",0.45,"multimillionaire","EMT_KBG5",45.83
"1399",0.45,"nationalizations","EMT_KBG5",33.33
"1400",0.45,"neurotransmitter","EMT_KBG5",33.33
"1401",0.45,"overcompensating","EMT_KBG5",34.16
"1402",0.45,"photojournalists","EMT_KBG5",31.66
"1403",0.45,"predetermination","EMT_KBG5",36.66
"1404",0.45,"rambunctiousness","EMT_KBG5",35
"1405",0.45,"sentimentalizing","EMT_KBG5",43.33
"1406",0.45,"synchronizations","EMT_KBG5",34.16
"1407",0.45,"teleconferencing","EMT_KBG5",38.33
"1408",0.45,"transcendentally","EMT_KBG5",38.33
"1409",0.45,"unscrupulousness","EMT_KBG5",40
"1410",0.45,"whatchamacallits","EMT_KBG5",39.16
"1411",0.6,"acknowledgements","EMT_KBG5",51.66
"1412",0.6,"administratively","EMT_KBG5",46.66
"1413",0.6,"Australopithecus","EMT_KBG5",45.83
"1414",0.6,"bloodthirstiness","EMT_KBG5",50.83
"1415",0.6,"cinematographers","EMT_KBG5",45.83
"1416",0.6,"counterespionage","EMT_KBG5",58.33
"1417",0.6,"Czechoslovakians","EMT_KBG5",60
"1418",0.6,"departmentalized","EMT_KBG5",49.16
"1419",0.6,"disqualification","EMT_KBG5",52.5
"1420",0.6,"enthusiastically","EMT_KBG5",50
"1421",0.6,"flibbertigibbets","EMT_KBG5",45.83
"1422",0.6,"gastrointestinal","EMT_KBG5",57.5
"1423",0.6,"hospitalizations","EMT_KBG5",55
"1424",0.6,"hydroelectricity","EMT_KBG5",46.66
"1425",0.6,"intellectualized","EMT_KBG5",42.5
"1426",0.6,"lightheartedness","EMT_KBG5",45
"1427",0.6,"melodramatically","EMT_KBG5",52.5
"1428",0.6,"multimillionaire","EMT_KBG5",55.83
"1429",0.6,"nationalizations","EMT_KBG5",44.16
"1430",0.6,"neurotransmitter","EMT_KBG5",50.83
"1431",0.6,"overcompensating","EMT_KBG5",44.16
"1432",0.6,"photojournalists","EMT_KBG5",43.33
"1433",0.6,"predetermination","EMT_KBG5",48.33
"1434",0.6,"rambunctiousness","EMT_KBG5",48.33
"1435",0.6,"sentimentalizing","EMT_KBG5",50.83
"1436",0.6,"synchronizations","EMT_KBG5",47.5
"1437",0.6,"teleconferencing","EMT_KBG5",57.5
"1438",0.6,"transcendentally","EMT_KBG5",52.5
"1439",0.6,"unscrupulousness","EMT_KBG5",54.16
"1440",0.6,"whatchamacallits","EMT_KBG5",46.66
"1441",0.75,"acknowledgements","EMT_KBG5",66.66
"1442",0.75,"administratively","EMT_KBG5",65
"1443",0.75,"Australopithecus","EMT_KBG5",56.66
"1444",0.75,"bloodthirstiness","EMT_KBG5",65
"1445",0.75,"cinematographers","EMT_KBG5",57.5
"1446",0.75,"counterespionage","EMT_KBG5",74.16
"1447",0.75,"Czechoslovakians","EMT_KBG5",73.33
"1448",0.75,"departmentalized","EMT_KBG5",62.5
"1449",0.75,"disqualification","EMT_KBG5",65
"1450",0.75,"enthusiastically","EMT_KBG5",65
"1451",0.75,"flibbertigibbets","EMT_KBG5",59.16
"1452",0.75,"gastrointestinal","EMT_KBG5",68.33
"1453",0.75,"hospitalizations","EMT_KBG5",65
"1454",0.75,"hydroelectricity","EMT_KBG5",65
"1455",0.75,"intellectualized","EMT_KBG5",54.16
"1456",0.75,"lightheartedness","EMT_KBG5",60
"1457",0.75,"melodramatically","EMT_KBG5",64.16
"1458",0.75,"multimillionaire","EMT_KBG5",66.66
"1459",0.75,"nationalizations","EMT_KBG5",60.83
"1460",0.75,"neurotransmitter","EMT_KBG5",71.66
"1461",0.75,"overcompensating","EMT_KBG5",53.33
"1462",0.75,"photojournalists","EMT_KBG5",65.83
"1463",0.75,"predetermination","EMT_KBG5",64.16
"1464",0.75,"rambunctiousness","EMT_KBG5",59.16
"1465",0.75,"sentimentalizing","EMT_KBG5",65
"1466",0.75,"synchronizations","EMT_KBG5",70
"1467",0.75,"teleconferencing","EMT_KBG5",73.33
"1468",0.75,"transcendentally","EMT_KBG5",65.83
"1469",0.75,"unscrupulousness","EMT_KBG5",67.5
"1470",0.75,"whatchamacallits","EMT_KBG5",61.66
"1471",0.9,"acknowledgements","EMT_KBG5",87.5
"1472",0.9,"administratively","EMT_KBG5",82.5
"1473",0.9,"Australopithecus","EMT_KBG5",76.66
"1474",0.9,"bloodthirstiness","EMT_KBG5",82.5
"1475",0.9,"cinematographers","EMT_KBG5",82.5
"1476",0.9,"counterespionage","EMT_KBG5",89.16
"1477",0.9,"Czechoslovakians","EMT_KBG5",88.33
"1478",0.9,"departmentalized","EMT_KBG5",74.16
"1479",0.9,"disqualification","EMT_KBG5",81.66
"1480",0.9,"enthusiastically","EMT_KBG5",84.16
"1481",0.9,"flibbertigibbets","EMT_KBG5",78.33
"1482",0.9,"gastrointestinal","EMT_KBG5",86.66
"1483",0.9,"hospitalizations","EMT_KBG5",84.16
"1484",0.9,"hydroelectricity","EMT_KBG5",80.83
"1485",0.9,"intellectualized","EMT_KBG5",66.66
"1486",0.9,"lightheartedness","EMT_KBG5",75.83
"1487",0.9,"melodramatically","EMT_KBG5",76.66
"1488",0.9,"multimillionaire","EMT_KBG5",80.83
"1489",0.9,"nationalizations","EMT_KBG5",74.16
"1490",0.9,"neurotransmitter","EMT_KBG5",80.83
"1491",0.9,"overcompensating","EMT_KBG5",75
"1492",0.9,"photojournalists","EMT_KBG5",85.83
"1493",0.9,"predetermination","EMT_KBG5",78.33
"1494",0.9,"rambunctiousness","EMT_KBG5",75
"1495",0.9,"sentimentalizing","EMT_KBG5",84.16
"1496",0.9,"synchronizations","EMT_KBG5",80
"1497",0.9,"teleconferencing","EMT_KBG5",83.33
"1498",0.9,"transcendentally","EMT_KBG5",80
"1499",0.9,"unscrupulousness","EMT_KBG5",84.16
"1500",0.9,"whatchamacallits","EMT_KBG5",80
"1501",0.3,"acknowledgements","Random",33.33
"1502",0.3,"administratively","Random",25
"1503",0.3,"Australopithecus","Random",33.33
"1504",0.3,"bloodthirstiness","Random",33.33
"1505",0.3,"cinematographers","Random",41.66
"1506",0.3,"counterespionage","Random",33.33
"1507",0.3,"Czechoslovakians","Random",33.33
"1508",0.3,"departmentalized","Random",33.33
"1509",0.3,"disqualification","Random",25
"1510",0.3,"enthusiastically","Random",25
"1511",0.3,"flibbertigibbets","Random",33.33
"1512",0.3,"gastrointestinal","Random",33.33
"1513",0.3,"hospitalizations","Random",33.33
"1514",0.3,"hydroelectricity","Random",33.33
"1515",0.3,"intellectualized","Random",25
"1516",0.3,"lightheartedness","Random",33.33
"1517",0.3,"melodramatically","Random",33.33
"1518",0.3,"multimillionaire","Random",33.33
"1519",0.3,"nationalizations","Random",33.33
"1520",0.3,"neurotransmitter","Random",33.33
"1521",0.3,"overcompensating","Random",33.33
"1522",0.3,"photojournalists","Random",33.33
"1523",0.3,"predetermination","Random",33.33
"1524",0.3,"rambunctiousness","Random",33.33
"1525",0.3,"sentimentalizing","Random",25
"1526",0.3,"synchronizations","Random",41.66
"1527",0.3,"teleconferencing","Random",33.33
"1528",0.3,"transcendentally","Random",25
"1529",0.3,"unscrupulousness","Random",33.33
"1530",0.3,"whatchamacallits","Random",33.33
"1531",0.45,"acknowledgements","Random",50
"1532",0.45,"administratively","Random",50
"1533",0.45,"Australopithecus","Random",50
"1534",0.45,"bloodthirstiness","Random",50
"1535",0.45,"cinematographers","Random",58.33
"1536",0.45,"counterespionage","Random",50
"1537",0.45,"Czechoslovakians","Random",50
"1538",0.45,"departmentalized","Random",50
"1539",0.45,"disqualification","Random",41.66
"1540",0.45,"enthusiastically","Random",41.66
"1541",0.45,"flibbertigibbets","Random",50
"1542",0.45,"gastrointestinal","Random",50
"1543",0.45,"hospitalizations","Random",41.66
"1544",0.45,"hydroelectricity","Random",41.66
"1545",0.45,"intellectualized","Random",41.66
"1546",0.45,"lightheartedness","Random",50
"1547",0.45,"melodramatically","Random",50
"1548",0.45,"multimillionaire","Random",41.66
"1549",0.45,"nationalizations","Random",41.66
"1550",0.45,"neurotransmitter","Random",50
"1551",0.45,"overcompensating","Random",58.33
"1552",0.45,"photojournalists","Random",50
"1553",0.45,"predetermination","Random",50
"1554",0.45,"rambunctiousness","Random",41.66
"1555",0.45,"sentimentalizing","Random",41.66
"1556",0.45,"synchronizations","Random",50
"1557",0.45,"teleconferencing","Random",50
"1558",0.45,"transcendentally","Random",41.66
"1559",0.45,"unscrupulousness","Random",50
"1560",0.45,"whatchamacallits","Random",50
"1561",0.6,"acknowledgements","Random",58.33
"1562",0.6,"administratively","Random",58.33
"1563",0.6,"Australopithecus","Random",66.66
"1564",0.6,"bloodthirstiness","Random",66.66
"1565",0.6,"cinematographers","Random",66.66
"1566",0.6,"counterespionage","Random",66.66
"1567",0.6,"Czechoslovakians","Random",66.66
"1568",0.6,"departmentalized","Random",66.66
"1569",0.6,"disqualification","Random",58.33
"1570",0.6,"enthusiastically","Random",58.33
"1571",0.6,"flibbertigibbets","Random",66.66
"1572",0.6,"gastrointestinal","Random",66.66
"1573",0.6,"hospitalizations","Random",50
"1574",0.6,"hydroelectricity","Random",66.66
"1575",0.6,"intellectualized","Random",66.66
"1576",0.6,"lightheartedness","Random",66.66
"1577",0.6,"melodramatically","Random",66.66
"1578",0.6,"multimillionaire","Random",58.33
"1579",0.6,"nationalizations","Random",66.66
"1580",0.6,"neurotransmitter","Random",58.33
"1581",0.6,"overcompensating","Random",66.66
"1582",0.6,"photojournalists","Random",58.33
"1583",0.6,"predetermination","Random",58.33
"1584",0.6,"rambunctiousness","Random",58.33
"1585",0.6,"sentimentalizing","Random",58.33
"1586",0.6,"synchronizations","Random",66.66
"1587",0.6,"teleconferencing","Random",58.33
"1588",0.6,"transcendentally","Random",58.33
"1589",0.6,"unscrupulousness","Random",58.33
"1590",0.6,"whatchamacallits","Random",66.66
"1591",0.75,"acknowledgements","Random",75
"1592",0.75,"administratively","Random",75
"1593",0.75,"Australopithecus","Random",83.33
"1594",0.75,"bloodthirstiness","Random",75
"1595",0.75,"cinematographers","Random",75
"1596",0.75,"counterespionage","Random",83.33
"1597",0.75,"Czechoslovakians","Random",75
"1598",0.75,"departmentalized","Random",83.33
"1599",0.75,"disqualification","Random",83.33
"1600",0.75,"enthusiastically","Random",75
"1601",0.75,"flibbertigibbets","Random",75
"1602",0.75,"gastrointestinal","Random",75
"1603",0.75,"hospitalizations","Random",75
"1604",0.75,"hydroelectricity","Random",75
"1605",0.75,"intellectualized","Random",83.33
"1606",0.75,"lightheartedness","Random",83.33
"1607",0.75,"melodramatically","Random",75
"1608",0.75,"multimillionaire","Random",75
"1609",0.75,"nationalizations","Random",75
"1610",0.75,"neurotransmitter","Random",75
"1611",0.75,"overcompensating","Random",83.33
"1612",0.75,"photojournalists","Random",75
"1613",0.75,"predetermination","Random",75
"1614",0.75,"rambunctiousness","Random",83.33
"1615",0.75,"sentimentalizing","Random",75
"1616",0.75,"synchronizations","Random",75
"1617",0.75,"teleconferencing","Random",75
"1618",0.75,"transcendentally","Random",75
"1619",0.75,"unscrupulousness","Random",75
"1620",0.75,"whatchamacallits","Random",75
"1621",0.9,"acknowledgements","Random",91.66
"1622",0.9,"administratively","Random",91.66
"1623",0.9,"Australopithecus","Random",91.66
"1624",0.9,"bloodthirstiness","Random",100
"1625",0.9,"cinematographers","Random",91.66
"1626",0.9,"counterespionage","Random",91.66
"1627",0.9,"Czechoslovakians","Random",91.66
"1628",0.9,"departmentalized","Random",91.66
"1629",0.9,"disqualification","Random",91.66
"1630",0.9,"enthusiastically","Random",91.66
"1631",0.9,"flibbertigibbets","Random",91.66
"1632",0.9,"gastrointestinal","Random",91.66
"1633",0.9,"hospitalizations","Random",91.66
"1634",0.9,"hydroelectricity","Random",91.66
"1635",0.9,"intellectualized","Random",91.66
"1636",0.9,"lightheartedness","Random",91.66
"1637",0.9,"melodramatically","Random",91.66
"1638",0.9,"multimillionaire","Random",91.66
"1639",0.9,"nationalizations","Random",91.66
"1640",0.9,"neurotransmitter","Random",83.33
"1641",0.9,"overcompensating","Random",91.66
"1642",0.9,"photojournalists","Random",91.66
"1643",0.9,"predetermination","Random",91.66
"1644",0.9,"rambunctiousness","Random",91.66
"1645",0.9,"sentimentalizing","Random",91.66
"1646",0.9,"synchronizations","Random",91.66
"1647",0.9,"teleconferencing","Random",91.66
"1648",0.9,"transcendentally","Random",91.66
"1649",0.9,"unscrupulousness","Random",91.66
"1650",0.9,"whatchamacallits","Random",91.66
